

 NAS Parallel Benchmarks 3.4 -- IS Benchmark

 Size:  2147483648  (class D)
 Iterations:   10
 Number of processes:     16
[PI-INFO] Init time,6,23.009018
[PI-INFO] Init time,12,23.006966
[PI-INFO] Init time,5,23.032493
[PI-INFO] Init time,7,23.028945
[PI-INFO] Init time,10,23.024566
[PI-INFO] Init time,2,23.051035
[PI-INFO] Init time,8,23.043796
[PI-INFO] Init time,3,23.064230
[PI-INFO] Init time,4,23.066938
[PI-INFO] Init time,9,23.064253
[PI-INFO] Init time,11,23.061326
[PI-INFO] Init time,1,23.088796
[PI-INFO] Init time,14,23.087516
[PI-INFO] Init time,13,23.120039

   iteration
[PI-INFO] Init time,0,23.417232
        1
[PI-INFO] Init time,15,23.438432
[PI-INFO] Paramount Iteration,5,1,25.772133,2.739640
[RU-INFO] Resources Stats,5,1,24.478920,0.871676,1589896,0,0,0,2499,0,0,0,0,0,0,0,2203,72
[NT-INFO] Network Stats,5,1,ens4,297761546,307364,0,0,0,0,0,0,730057562,171601,0,0,0,0,0,0
[NT-INFO] Network Stats,5,1,lo,2571114,12184,0,0,0,0,0,0,2571114,12184,0,0,0,0,0,0
[PI-INFO] Paramount Iteration,6,1,25.772554,2.763536
[RU-INFO] Resources Stats,6,1,24.498768,0.840369,1575516,0,0,0,2514,0,0,0,0,0,0,0,2218,91
[NT-INFO] Network Stats,6,1,ens4,297761546,307364,0,0,0,0,0,0,730057562,171601,0,0,0,0,0,0
[NT-INFO] Network Stats,6,1,lo,2571114,12184,0,0,0,0,0,0,2571114,12184,0,0,0,0,0,0
[PI-INFO] Paramount Iteration,12,1,25.776060,2.769094
[RU-INFO] Resources Stats,12,1,24.542453,0.820215,1585872,0,0,0,2483,0,0,0,0,0,0,0,2162,63
[NT-INFO] Network Stats,12,1,ens4,297761546,307364,0,0,0,0,0,0,730057562,171601,0,0,0,0,0,0
[NT-INFO] Network Stats,12,1,lo,2571114,12184,0,0,0,0,0,0,2571114,12184,0,0,0,0,0,0
[PI-INFO] Paramount Iteration,2,1,25.801233,2.750198
[RU-INFO] Resources Stats,2,1,24.548386,0.824147,1581688,0,0,0,2523,0,0,0,0,0,0,0,2166,227
[NT-INFO] Network Stats,2,1,ens4,297761546,307364,0,0,0,0,0,0,730057562,171601,0,0,0,0,0,0
[NT-INFO] Network Stats,2,1,lo,2571114,12184,0,0,0,0,0,0,2571114,12184,0,0,0,0,0,0
[PI-INFO] Paramount Iteration,8,1,25.791593,2.747797
[RU-INFO] Resources Stats,8,1,24.447608,0.924287,1608396,0,0,0,2506,0,0,0,0,0,0,0,2146,47
[NT-INFO] Network Stats,8,1,ens4,297761546,307364,0,0,0,0,0,0,730057562,171601,0,0,0,0,0,0
[NT-INFO] Network Stats,8,1,lo,2571114,12184,0,0,0,0,0,0,2571114,12184,0,0,0,0,0,0
[PI-INFO] Paramount Iteration,10,1,25.789405,2.764839
[RU-INFO] Resources Stats,10,1,24.489544,0.883911,1587912,0,0,0,2501,0,0,0,0,0,0,0,2181,66
[NT-INFO] Network Stats,10,1,ens4,297761546,307364,0,0,0,0,0,0,730057562,171601,0,0,0,0,0,0
[NT-INFO] Network Stats,10,1,lo,2571114,12184,0,0,0,0,0,0,2571114,12184,0,0,0,0,0,0
[PI-INFO] Paramount Iteration,7,1,25.804624,2.775679
[RU-INFO] Resources Stats,7,1,24.556831,0.828432,1585680,0,0,0,2479,0,0,0,0,0,0,0,2238,160
[NT-INFO] Network Stats,7,1,ens4,297761546,307364,0,0,0,0,0,0,730057562,171601,0,0,0,0,0,0
[NT-INFO] Network Stats,7,1,lo,2571114,12184,0,0,0,0,0,0,2571114,12184,0,0,0,0,0,0
[PI-INFO] Paramount Iteration,9,1,25.803970,2.739717
[RU-INFO] Resources Stats,9,1,24.566609,0.816086,1575556,0,0,0,2513,0,0,0,0,0,0,0,2147,84
[NT-INFO] Network Stats,9,1,ens4,297761546,307364,0,0,0,0,0,0,730057562,171601,0,0,0,0,0,0
[NT-INFO] Network Stats,9,1,lo,2571114,12184,0,0,0,0,0,0,2571114,12184,0,0,0,0,0,0
[PI-INFO] Paramount Iteration,4,1,25.814940,2.748002
[RU-INFO] Resources Stats,4,1,24.532808,0.856447,1604244,0,0,0,2492,0,0,0,0,0,0,0,2207,75
[NT-INFO] Network Stats,4,1,ens4,297761546,307364,0,0,0,0,0,0,730057562,171601,0,0,0,0,0,0
[NT-INFO] Network Stats,4,1,lo,2571114,12184,0,0,0,0,0,0,2571114,12184,0,0,0,0,0,0
[PI-INFO] Paramount Iteration,3,1,25.818497,2.754267
[RU-INFO] Resources Stats,3,1,24.524299,0.864151,1589912,0,0,0,2512,0,0,0,0,0,0,0,2185,72
[NT-INFO] Network Stats,3,1,ens4,297761546,307364,0,0,0,0,0,0,730057562,171601,0,0,0,0,0,0
[NT-INFO] Network Stats,3,1,lo,2571114,12184,0,0,0,0,0,0,2571114,12184,0,0,0,0,0,0
[PI-INFO] Paramount Iteration,11,1,25.807637,2.746311
[RU-INFO] Resources Stats,11,1,24.526034,0.841029,1602068,0,0,0,2492,0,0,0,0,0,0,0,2194,451
[NT-INFO] Network Stats,11,1,ens4,297761546,307364,0,0,0,0,0,0,730057562,171601,0,0,0,0,0,0
[NT-INFO] Network Stats,11,1,lo,2571114,12184,0,0,0,0,0,0,2571114,12184,0,0,0,0,0,0
[PI-INFO] Paramount Iteration,1,1,25.869914,2.781118
[RU-INFO] Resources Stats,1,1,24.587173,0.847971,1593948,0,0,0,2493,0,0,0,0,0,0,0,2226,165
[NT-INFO] Network Stats,1,1,ens4,297761546,307364,0,0,0,0,0,0,730057562,171601,0,0,0,0,0,0
[NT-INFO] Network Stats,1,1,lo,2571114,12184,0,0,0,0,0,0,2571114,12184,0,0,0,0,0,0
[PI-INFO] Paramount Iteration,14,1,25.848974,2.761458
[RU-INFO] Resources Stats,14,1,24.585741,0.856339,1589708,0,0,0,2494,0,0,0,0,0,0,0,2181,59
[NT-INFO] Network Stats,14,1,ens4,297761546,307364,0,0,0,0,0,0,730057562,171601,0,0,0,0,0,0
[NT-INFO] Network Stats,14,1,lo,2571114,12184,0,0,0,0,0,0,2571114,12184,0,0,0,0,0,0
[PI-INFO] Paramount Iteration,13,1,25.884623,2.764584
[RU-INFO] Resources Stats,13,1,24.604588,0.871737,1575348,0,0,0,2493,0,0,0,0,0,0,0,2151,71
[NT-INFO] Network Stats,13,1,ens4,297761546,307364,0,0,0,0,0,0,730057562,171601,0,0,0,0,0,0
[NT-INFO] Network Stats,13,1,lo,2571114,12184,0,0,0,0,0,0,2571114,12184,0,0,0,0,0,0
[PI-INFO] Paramount Iteration,0,1,26.162948,2.745716
[RU-INFO] Resources Stats,0,1,24.872479,0.848016,1593948,0,0,0,2496,1,0,72,0,0,0,0,2199,102
[NT-INFO] Network Stats,0,1,ens4,297761612,307365,0,0,0,0,0,0,730057628,171602,0,0,0,0,0,0
[NT-INFO] Network Stats,0,1,lo,2571114,12184,0,0,0,0,0,0,2571114,12184,0,0,0,0,0,0
        2
[PI-INFO] Paramount Iteration,15,1,26.195394,2.756962
[RU-INFO] Resources Stats,15,1,24.908232,0.879866,1585864,0,0,0,2506,0,0,0,0,0,0,0,2158,75
[NT-INFO] Network Stats,15,1,ens4,297761710,307366,0,0,0,0,0,0,730057694,171603,0,0,0,0,0,0
[NT-INFO] Network Stats,15,1,lo,2571114,12184,0,0,0,0,0,0,2571114,12184,0,0,0,0,0,0
[PI-INFO] Paramount Iteration,6,2,28.496825,2.724271
[RU-INFO] Resources Stats,6,2,27.050215,1.012532,1575516,0,0,0,2517,0,0,0,0,0,0,0,2218,111
[NT-INFO] Network Stats,6,2,ens4,297761906,307368,0,0,0,0,0,0,730057814,171605,0,0,0,0,0,0
[NT-INFO] Network Stats,6,2,lo,2571114,12184,0,0,0,0,0,0,2571114,12184,0,0,0,0,0,0
[PI-INFO] Paramount Iteration,7,2,28.522599,2.717975
[RU-INFO] Resources Stats,7,2,27.098143,1.004524,1585680,0,0,0,2482,0,0,0,0,0,0,0,2238,174
[NT-INFO] Network Stats,7,2,ens4,297761906,307368,0,0,0,0,0,0,730057814,171605,0,0,0,0,0,0
[NT-INFO] Network Stats,7,2,lo,2571114,12184,0,0,0,0,0,0,2571114,12184,0,0,0,0,0,0
[PI-INFO] Paramount Iteration,2,2,28.532134,2.730901
[RU-INFO] Resources Stats,2,2,27.098781,1.004103,1581688,0,0,0,2527,0,0,0,0,0,0,0,2166,241
[NT-INFO] Network Stats,2,2,ens4,297761906,307368,0,0,0,0,0,0,730057814,171605,0,0,0,0,0,0
[NT-INFO] Network Stats,2,2,lo,2571114,12184,0,0,0,0,0,0,2571114,12184,0,0,0,0,0,0
[PI-INFO] Paramount Iteration,9,2,28.523644,2.719674
[RU-INFO] Resources Stats,9,2,27.101573,1.000205,1575556,0,0,0,2514,0,0,0,0,0,0,0,2147,94
[NT-INFO] Network Stats,9,2,ens4,297761906,307368,0,0,0,0,0,0,730057814,171605,0,0,0,0,0,0
[NT-INFO] Network Stats,9,2,lo,2571114,12184,0,0,0,0,0,0,2571114,12184,0,0,0,0,0,0
[PI-INFO] Paramount Iteration,5,2,28.531100,2.758967
[PI-INFO] Paramount Iteration,12,2,28.518962,2.742902
[RU-INFO] Resources Stats,12,2,27.128686,0.976312,1585872,0,0,0,2484,0,0,0,0,0,0,0,2162,73
[NT-INFO] Network Stats,12,2,ens4,297761906,307368,0,0,0,0,0,0,730057814,171605,0,0,0,0,0,0
[NT-INFO] Network Stats,12,2,lo,2571114,12184,0,0,0,0,0,0,2571114,12184,0,0,0,0,0,0
[RU-INFO] Resources Stats,5,2,27.049219,1.059734,1589896,0,0,0,2502,0,0,0,0,0,0,0,2203,84
[NT-INFO] Network Stats,5,2,ens4,297761906,307368,0,0,0,0,0,0,730057814,171605,0,0,0,0,0,0
[NT-INFO] Network Stats,5,2,lo,2571114,12184,0,0,0,0,0,0,2571114,12184,0,0,0,0,0,0
[PI-INFO] Paramount Iteration,8,2,28.539438,2.747845
[RU-INFO] Resources Stats,8,2,26.986998,1.132293,1608396,0,0,0,2507,0,0,0,0,0,0,0,2146,55
[NT-INFO] Network Stats,8,2,ens4,297761906,307368,0,0,0,0,0,0,730057814,171605,0,0,0,0,0,0
[NT-INFO] Network Stats,8,2,lo,2571114,12184,0,0,0,0,0,0,2571114,12184,0,0,0,0,0,0
[PI-INFO] Paramount Iteration,10,2,28.537862,2.748457
[RU-INFO] Resources Stats,10,2,27.049512,1.071901,1587912,0,0,0,2503,0,0,0,0,0,0,0,2181,78
[NT-INFO] Network Stats,10,2,ens4,297761906,307368,0,0,0,0,0,0,730057814,171605,0,0,0,0,0,0
[NT-INFO] Network Stats,10,2,lo,2571114,12184,0,0,0,0,0,0,2571114,12184,0,0,0,0,0,0
[PI-INFO] Paramount Iteration,4,2,28.557677,2.742737
[RU-INFO] Resources Stats,4,2,27.090968,1.040421,1604244,0,0,0,2495,0,0,0,0,0,0,0,2207,83
[NT-INFO] Network Stats,4,2,ens4,297761906,307368,0,0,0,0,0,0,730057814,171605,0,0,0,0,0,0
[NT-INFO] Network Stats,4,2,lo,2571114,12184,0,0,0,0,0,0,2571114,12184,0,0,0,0,0,0
[PI-INFO] Paramount Iteration,3,2,28.562857,2.744360
[RU-INFO] Resources Stats,3,2,27.076217,1.056164,1589912,0,0,0,2516,0,0,0,0,0,0,0,2185,80
[NT-INFO] Network Stats,3,2,ens4,297761906,307368,0,0,0,0,0,0,730057814,171605,0,0,0,0,0,0
[NT-INFO] Network Stats,3,2,lo,2571114,12184,0,0,0,0,0,0,2571114,12184,0,0,0,0,0,0
[PI-INFO] Paramount Iteration,1,2,28.584060,2.714146
[RU-INFO] Resources Stats,1,2,27.112780,1.036029,1593948,0,0,0,2497,0,0,0,0,0,0,0,2226,174
[NT-INFO] Network Stats,1,2,ens4,297761906,307368,0,0,0,0,0,0,730057814,171605,0,0,0,0,0,0
[NT-INFO] Network Stats,1,2,lo,2571114,12184,0,0,0,0,0,0,2571114,12184,0,0,0,0,0,0
[PI-INFO] Paramount Iteration,11,2,28.572912,2.765275
[RU-INFO] Resources Stats,11,2,27.093552,1.037131,1602068,0,0,0,2494,0,0,0,0,0,0,0,2194,472
[NT-INFO] Network Stats,11,2,ens4,297761906,307368,0,0,0,0,0,0,730057814,171605,0,0,0,0,0,0
[NT-INFO] Network Stats,11,2,lo,2571114,12184,0,0,0,0,0,0,2571114,12184,0,0,0,0,0,0
[PI-INFO] Paramount Iteration,14,2,28.593534,2.744560
[RU-INFO] Resources Stats,14,2,27.141826,1.044378,1589708,0,0,0,2496,0,0,0,0,0,0,0,2181,67
[NT-INFO] Network Stats,14,2,ens4,297761906,307368,0,0,0,0,0,0,730057814,171605,0,0,0,0,0,0
[NT-INFO] Network Stats,14,2,lo,2571114,12184,0,0,0,0,0,0,2571114,12184,0,0,0,0,0,0
[PI-INFO] Paramount Iteration,13,2,28.618067,2.733444
[RU-INFO] Resources Stats,13,2,27.145477,1.063744,1575348,0,0,0,2494,0,0,0,0,0,0,0,2151,80
[NT-INFO] Network Stats,13,2,ens4,297761906,307368,0,0,0,0,0,0,730057814,171605,0,0,0,0,0,0
[NT-INFO] Network Stats,13,2,lo,2571114,12184,0,0,0,0,0,0,2571114,12184,0,0,0,0,0,0
[PI-INFO] Paramount Iteration,0,2,28.886296,2.723348
[RU-INFO] Resources Stats,0,2,27.399029,1.044115,1593948,0,0,0,2501,1,0,72,0,0,0,0,2199,125
[NT-INFO] Network Stats,0,2,ens4,297761906,307368,0,0,0,0,0,0,730057814,171605,0,0,0,0,0,0
[NT-INFO] Network Stats,0,2,lo,2571114,12184,0,0,0,0,0,0,2571114,12184,0,0,0,0,0,0
        3
[PI-INFO] Paramount Iteration,15,2,28.930869,2.735475
[RU-INFO] Resources Stats,15,2,27.451223,1.071813,1585864,0,0,0,2508,0,0,0,0,0,0,0,2158,86
[NT-INFO] Network Stats,15,2,ens4,297761906,307368,0,0,0,0,0,0,730057814,171605,0,0,0,0,0,0
[NT-INFO] Network Stats,15,2,lo,2571114,12184,0,0,0,0,0,0,2571114,12184,0,0,0,0,0,0
[PI-INFO] Paramount Iteration,6,3,31.229220,2.732395
[RU-INFO] Resources Stats,6,3,29.602003,1.192402,1575516,0,0,0,2522,0,0,0,0,0,0,0,2218,134
[NT-INFO] Network Stats,6,3,ens4,297763024,307383,0,0,0,0,0,0,730064159,171618,0,0,0,0,0,0
[NT-INFO] Network Stats,6,3,lo,2571114,12184,0,0,0,0,0,0,2571114,12184,0,0,0,0,0,0
[PI-INFO] Paramount Iteration,5,3,31.244720,2.713620
[RU-INFO] Resources Stats,5,3,29.582172,1.239755,1589896,0,0,0,2508,0,0,0,0,0,0,0,2203,105
[NT-INFO] Network Stats,5,3,ens4,297763024,307383,0,0,0,0,0,0,730064159,171618,0,0,0,0,0,0
[NT-INFO] Network Stats,5,3,lo,2571114,12184,0,0,0,0,0,0,2571114,12184,0,0,0,0,0,0
[PI-INFO] Paramount Iteration,7,3,31.246943,2.724344
[PI-INFO] Paramount Iteration,2,3,31.255340,2.723206
[RU-INFO] Resources Stats,2,3,29.653418,1.172214,1581688,0,0,0,2531,0,0,0,0,0,0,0,2166,250
[NT-INFO] Network Stats,2,3,ens4,297763024,307383,0,0,0,0,0,0,730064159,171618,0,0,0,0,0,0
[NT-INFO] Network Stats,2,3,lo,2571114,12184,0,0,0,0,0,0,2571114,12184,0,0,0,0,0,0
[RU-INFO] Resources Stats,7,3,29.637281,1.188532,1585680,0,0,0,2488,0,0,0,0,0,0,0,2238,221
[NT-INFO] Network Stats,7,3,ens4,297763024,307383,0,0,0,0,0,0,730064159,171618,0,0,0,0,0,0
[NT-INFO] Network Stats,7,3,lo,2571114,12184,0,0,0,0,0,0,2571114,12184,0,0,0,0,0,0
[PI-INFO] Paramount Iteration,12,3,31.240128,2.721166
[RU-INFO] Resources Stats,12,3,29.681676,1.144218,1585872,0,0,0,2492,0,0,0,0,0,0,0,2162,85
[NT-INFO] Network Stats,12,3,ens4,297763024,307383,0,0,0,0,0,0,730064159,171618,0,0,0,0,0,0
[NT-INFO] Network Stats,12,3,lo,2571114,12184,0,0,0,0,0,0,2571114,12184,0,0,0,0,0,0
[PI-INFO] Paramount Iteration,8,3,31.265287,2.725849
[RU-INFO] Resources Stats,8,3,29.520235,1.324369,1608396,0,0,0,2514,0,0,0,0,0,0,0,2146,64
[NT-INFO] Network Stats,8,3,ens4,297763024,307383,0,0,0,0,0,0,730064159,171618,0,0,0,0,0,0
[NT-INFO] Network Stats,8,3,lo,2571114,12184,0,0,0,0,0,0,2571114,12184,0,0,0,0,0,0
[PI-INFO] Paramount Iteration,10,3,31.263771,2.725909
[RU-INFO] Resources Stats,10,3,29.587047,1.259789,1587912,0,0,0,2510,0,0,0,0,0,0,0,2181,87
[NT-INFO] Network Stats,10,3,ens4,297763024,307383,0,0,0,0,0,0,730064159,171618,0,0,0,0,0,0
[NT-INFO] Network Stats,10,3,lo,2571114,12184,0,0,0,0,0,0,2571114,12184,0,0,0,0,0,0
[PI-INFO] Paramount Iteration,9,3,31.271279,2.747635
[RU-INFO] Resources Stats,9,3,29.650585,1.196104,1575556,0,0,0,2522,0,0,0,0,0,0,0,2147,107
[NT-INFO] Network Stats,9,3,ens4,297763024,307383,0,0,0,0,0,0,730064159,171618,0,0,0,0,0,0
[NT-INFO] Network Stats,9,3,lo,2571114,12184,0,0,0,0,0,0,2571114,12184,0,0,0,0,0,0
[PI-INFO] Paramount Iteration,4,3,31.282239,2.724562
[RU-INFO] Resources Stats,4,3,29.622912,1.232453,1604336,0,0,0,2501,0,0,0,0,0,0,0,2207,91
[NT-INFO] Network Stats,4,3,ens4,297763024,307383,0,0,0,0,0,0,730064159,171618,0,0,0,0,0,0
[NT-INFO] Network Stats,4,3,lo,2571114,12184,0,0,0,0,0,0,2571114,12184,0,0,0,0,0,0
[PI-INFO] Paramount Iteration,3,3,31.291293,2.728436
[RU-INFO] Resources Stats,3,3,29.600126,1.260175,1589912,0,0,0,2521,0,0,0,0,0,0,0,2185,93
[NT-INFO] Network Stats,3,3,ens4,297763024,307383,0,0,0,0,0,0,730064159,171618,0,0,0,0,0,0
[NT-INFO] Network Stats,3,3,lo,2571114,12184,0,0,0,0,0,0,2571114,12184,0,0,0,0,0,0
[PI-INFO] Paramount Iteration,11,3,31.289603,2.716691
[RU-INFO] Resources Stats,11,3,29.599976,1.241005,1602128,0,0,0,2502,0,0,0,0,0,0,0,2194,508
[NT-INFO] Network Stats,11,3,ens4,297763024,307383,0,0,0,0,0,0,730064159,171618,0,0,0,0,0,0
[NT-INFO] Network Stats,11,3,lo,2571114,12184,0,0,0,0,0,0,2571114,12184,0,0,0,0,0,0
[PI-INFO] Paramount Iteration,1,3,31.312708,2.728648
[RU-INFO] Resources Stats,1,3,29.666996,1.208122,1593964,0,0,0,2502,0,0,0,0,0,0,0,2226,190
[NT-INFO] Network Stats,1,3,ens4,297763024,307383,0,0,0,0,0,0,730064159,171618,0,0,0,0,0,0
[NT-INFO] Network Stats,1,3,lo,2571114,12184,0,0,0,0,0,0,2571114,12184,0,0,0,0,0,0
[PI-INFO] Paramount Iteration,14,3,31.324543,2.731009
[RU-INFO] Resources Stats,14,3,29.680394,1.236349,1589752,0,0,0,2504,0,0,0,0,0,0,0,2181,75
[NT-INFO] Network Stats,14,3,ens4,297763024,307383,0,0,0,0,0,0,730064159,171618,0,0,0,0,0,0
[NT-INFO] Network Stats,14,3,lo,2571114,12184,0,0,0,0,0,0,2571114,12184,0,0,0,0,0,0
[PI-INFO] Paramount Iteration,13,3,31.358737,2.740670
[RU-INFO] Resources Stats,13,3,29.681613,1.267727,1575348,0,0,0,2502,0,0,0,0,0,0,0,2151,89
[NT-INFO] Network Stats,13,3,ens4,297763024,307383,0,0,0,0,0,0,730064159,171618,0,0,0,0,0,0
[NT-INFO] Network Stats,13,3,lo,2571114,12184,0,0,0,0,0,0,2571114,12184,0,0,0,0,0,0
[PI-INFO] Paramount Iteration,0,3,31.634398,2.748102
[RU-INFO] Resources Stats,0,3,29.934464,1.256103,1593948,0,0,0,2504,1,0,72,0,0,0,0,2199,147
[NT-INFO] Network Stats,0,3,ens4,297763024,307383,0,0,0,0,0,0,730064159,171618,0,0,0,0,0,0
[NT-INFO] Network Stats,0,3,lo,2571114,12184,0,0,0,0,0,0,2571114,12184,0,0,0,0,0,0
        4
[PI-INFO] Paramount Iteration,15,3,31.666230,2.735361
[RU-INFO] Resources Stats,15,3,29.998124,1.259753,1585864,0,0,0,2516,0,0,0,0,0,0,0,2158,97
[NT-INFO] Network Stats,15,3,ens4,297763024,307383,0,0,0,0,0,0,730064159,171618,0,0,0,0,0,0
[NT-INFO] Network Stats,15,3,lo,2571114,12184,0,0,0,0,0,0,2571114,12184,0,0,0,0,0,0
[PI-INFO] Paramount Iteration,6,4,33.963433,2.734213
[RU-INFO] Resources Stats,6,4,32.171384,1.356480,1575516,0,0,0,2524,0,0,0,0,0,0,0,2218,147
[NT-INFO] Network Stats,6,4,ens4,297769328,307447,0,0,0,0,0,0,730068663,171652,0,0,0,0,0,0
[NT-INFO] Network Stats,6,4,lo,2571114,12184,0,0,0,0,0,0,2571114,12184,0,0,0,0,0,0
[PI-INFO] Paramount Iteration,2,4,33.994784,2.739444
[RU-INFO] Resources Stats,2,4,32.224584,1.340190,1581688,0,0,0,2533,0,0,0,0,0,0,0,2166,263
[NT-INFO] Network Stats,2,4,ens4,297769394,307448,0,0,0,0,0,0,730068663,171652,0,0,0,0,0,0
[NT-INFO] Network Stats,2,4,lo,2571114,12184,0,0,0,0,0,0,2571114,12184,0,0,0,0,0,0
[PI-INFO] Paramount Iteration,7,4,33.991971,2.745028
[RU-INFO] Resources Stats,7,4,32.209851,1.360416,1585680,0,0,0,2489,0,0,0,0,0,0,0,2238,233
[NT-INFO] Network Stats,7,4,ens4,297769394,307448,0,0,0,0,0,0,730068663,171652,0,0,0,0,0,0
[NT-INFO] Network Stats,7,4,lo,2571114,12184,0,0,0,0,0,0,2571114,12184,0,0,0,0,0,0
[PI-INFO] Paramount Iteration,3,4,34.006092,2.714799
[RU-INFO] Resources Stats,3,4,32.126260,1.448282,1589912,0,0,0,2522,0,0,0,0,0,0,0,2185,110
[NT-INFO] Network Stats,3,4,ens4,297769524,307449,0,0,0,0,0,0,730068793,171653,0,0,0,0,0,0
[NT-INFO] Network Stats,3,4,lo,2571114,12184,0,0,0,0,0,0,2571114,12184,0,0,0,0,0,0
[PI-INFO] Paramount Iteration,5,4,34.004213,2.759493
[RU-INFO] Resources Stats,5,4,32.157209,1.423699,1589896,0,0,0,2509,0,0,0,0,0,0,0,2203,112
[NT-INFO] Network Stats,5,4,ens4,297769524,307449,0,0,0,0,0,0,730068793,171653,0,0,0,0,0,0
[NT-INFO] Network Stats,5,4,lo,2571114,12184,0,0,0,0,0,0,2571114,12184,0,0,0,0,0,0
[PI-INFO] Paramount Iteration,12,4,33.999757,2.759629
[RU-INFO] Resources Stats,12,4,32.256839,1.328199,1585872,0,0,0,2492,0,0,0,0,0,0,0,2162,93
[NT-INFO] Network Stats,12,4,ens4,297769590,307450,0,0,0,0,0,0,730068793,171653,0,0,0,0,0,0
[NT-INFO] Network Stats,12,4,lo,2571114,12184,0,0,0,0,0,0,2571114,12184,0,0,0,0,0,0
[PI-INFO] Paramount Iteration,10,4,34.004128,2.740357
[RU-INFO] Resources Stats,10,4,32.134931,1.451771,1587912,0,0,0,2511,0,0,0,0,0,0,0,2181,94
[NT-INFO] Network Stats,10,4,ens4,297769590,307450,0,0,0,0,0,0,730068793,171653,0,0,0,0,0,0
[NT-INFO] Network Stats,10,4,lo,2571114,12184,0,0,0,0,0,0,2571114,12184,0,0,0,0,0,0
[PI-INFO] Paramount Iteration,8,4,34.011608,2.746321
[RU-INFO] Resources Stats,8,4,32.058118,1.532292,1608396,0,0,0,2516,0,0,0,0,0,0,0,2146,71
[NT-INFO] Network Stats,8,4,ens4,297769590,307450,0,0,0,0,0,0,730068793,171653,0,0,0,0,0,0
[NT-INFO] Network Stats,8,4,lo,2571114,12184,0,0,0,0,0,0,2571114,12184,0,0,0,0,0,0
[PI-INFO] Paramount Iteration,4,4,34.027286,2.745047
[RU-INFO] Resources Stats,4,4,32.175414,1.424505,1604336,0,0,0,2503,0,0,0,0,0,0,0,2207,99
[NT-INFO] Network Stats,4,4,ens4,297769720,307451,0,0,0,0,0,0,730068923,171654,0,0,0,0,0,0
[NT-INFO] Network Stats,4,4,lo,2571114,12184,0,0,0,0,0,0,2571114,12184,0,0,0,0,0,0
[PI-INFO] Paramount Iteration,9,4,34.021350,2.750071
[RU-INFO] Resources Stats,9,4,32.204262,1.392011,1575556,0,0,0,2523,0,0,0,0,0,0,0,2147,114
[NT-INFO] Network Stats,9,4,ens4,297769720,307451,0,0,0,0,0,0,730068923,171654,0,0,0,0,0,0
[NT-INFO] Network Stats,9,4,lo,2571114,12184,0,0,0,0,0,0,2571114,12184,0,0,0,0,0,0
[PI-INFO] Paramount Iteration,11,4,34.028647,2.739044
[RU-INFO] Resources Stats,11,4,32.145932,1.433156,1602128,0,0,0,2502,0,0,0,0,0,0,0,2194,530
[NT-INFO] Network Stats,11,4,ens4,297769786,307452,0,0,0,0,0,0,730068923,171654,0,0,0,0,0,0
[NT-INFO] Network Stats,11,4,lo,2571114,12184,0,0,0,0,0,0,2571114,12184,0,0,0,0,0,0
[PI-INFO] Paramount Iteration,1,4,34.064243,2.751535
[RU-INFO] Resources Stats,1,4,32.233916,1.383738,1593964,0,0,0,2503,0,0,0,0,0,0,0,2226,233
[NT-INFO] Network Stats,1,4,ens4,297769916,307453,0,0,0,0,0,0,730069053,171655,0,0,0,0,0,0
[NT-INFO] Network Stats,1,4,lo,2571114,12184,0,0,0,0,0,0,2571114,12184,0,0,0,0,0,0
[PI-INFO] Paramount Iteration,14,4,34.062569,2.738026
[RU-INFO] Resources Stats,14,4,32.217773,1.436435,1589752,0,0,0,2504,0,0,0,0,0,0,0,2181,81
[NT-INFO] Network Stats,14,4,ens4,297769982,307454,0,0,0,0,0,0,730069053,171655,0,0,0,0,0,0
[NT-INFO] Network Stats,14,4,lo,2571114,12184,0,0,0,0,0,0,2571114,12184,0,0,0,0,0,0
[PI-INFO] Paramount Iteration,13,4,34.089434,2.730697
[RU-INFO] Resources Stats,13,4,32.215877,1.463630,1575348,0,0,0,2502,0,0,0,0,0,0,0,2151,97
[NT-INFO] Network Stats,13,4,ens4,297770178,307456,0,0,0,0,0,0,730069183,171656,0,0,0,0,0,0
[NT-INFO] Network Stats,13,4,lo,2571114,12184,0,0,0,0,0,0,2571114,12184,0,0,0,0,0,0
[PI-INFO] Paramount Iteration,0,4,34.376076,2.741678
[RU-INFO] Resources Stats,0,4,32.487527,1.443979,1593948,0,0,0,2505,1,0,72,0,0,0,0,2199,177
[NT-INFO] Network Stats,0,4,ens4,297770766,307462,0,0,0,0,0,0,730069573,171659,0,0,0,0,0,0
[NT-INFO] Network Stats,0,4,lo,2571114,12184,0,0,0,0,0,0,2571114,12184,0,0,0,0,0,0
        5
[PI-INFO] Paramount Iteration,15,4,34.406506,2.740276
[RU-INFO] Resources Stats,15,4,32.553927,1.443730,1585864,0,0,0,2516,0,0,0,0,0,0,0,2158,108
[NT-INFO] Network Stats,15,4,ens4,297770864,307463,0,0,0,0,0,0,730069671,171660,0,0,0,0,0,0
[NT-INFO] Network Stats,15,4,lo,2571114,12184,0,0,0,0,0,0,2571114,12184,0,0,0,0,0,0
[PI-INFO] Paramount Iteration,6,5,36.710323,2.746890
[RU-INFO] Resources Stats,6,5,34.733740,1.540432,1575516,0,0,0,2527,0,0,0,0,0,0,0,2218,160
[NT-INFO] Network Stats,6,5,ens4,297773680,307495,0,0,0,0,0,0,730075673,171677,0,0,0,0,0,0
[NT-INFO] Network Stats,6,5,lo,2571114,12184,0,0,0,0,0,0,2571114,12184,0,0,0,0,0,0
[PI-INFO] Paramount Iteration,7,5,36.722438,2.730467
[RU-INFO] Resources Stats,7,5,34.759507,1.540509,1585680,0,0,0,2492,0,0,0,0,0,0,0,2238,267
[NT-INFO] Network Stats,7,5,ens4,297773810,307496,0,0,0,0,0,0,730075673,171677,0,0,0,0,0,0
[NT-INFO] Network Stats,7,5,lo,2571114,12184,0,0,0,0,0,0,2571114,12184,0,0,0,0,0,0
[PI-INFO] Paramount Iteration,2,5,36.733221,2.738437
[RU-INFO] Resources Stats,2,5,34.768245,1.532187,1581688,0,0,0,2536,0,0,0,0,0,0,0,2166,275
[NT-INFO] Network Stats,2,5,ens4,297773810,307496,0,0,0,0,0,0,730075673,171677,0,0,0,0,0,0
[NT-INFO] Network Stats,2,5,lo,2571114,12184,0,0,0,0,0,0,2571114,12184,0,0,0,0,0,0
[PI-INFO] Paramount Iteration,10,5,36.726229,2.722101
[RU-INFO] Resources Stats,10,5,34.692559,1.615839,1587912,0,0,0,2514,0,0,0,0,0,0,0,2181,101
[NT-INFO] Network Stats,10,5,ens4,297773810,307496,0,0,0,0,0,0,730075673,171677,0,0,0,0,0,0
[NT-INFO] Network Stats,10,5,lo,2571114,12184,0,0,0,0,0,0,2571114,12184,0,0,0,0,0,0
[PI-INFO] Paramount Iteration,8,5,36.730047,2.718439
[RU-INFO] Resources Stats,8,5,34.560148,1.748209,1608396,0,0,0,2519,0,0,0,0,0,0,0,2146,78
[NT-INFO] Network Stats,8,5,ens4,297773810,307496,0,0,0,0,0,0,730075673,171677,0,0,0,0,0,0
[NT-INFO] Network Stats,8,5,lo,2571114,12184,0,0,0,0,0,0,2571114,12184,0,0,0,0,0,0
[PI-INFO] Paramount Iteration,5,5,36.744339,2.740126
[RU-INFO] Resources Stats,5,5,34.704884,1.615668,1589896,0,0,0,2512,0,0,0,0,0,0,0,2203,120
[NT-INFO] Network Stats,5,5,ens4,297773810,307496,0,0,0,0,0,0,730075673,171677,0,0,0,0,0,0
[NT-INFO] Network Stats,5,5,lo,2571114,12184,0,0,0,0,0,0,2571114,12184,0,0,0,0,0,0
[PI-INFO] Paramount Iteration,12,5,36.736766,2.737009
[RU-INFO] Resources Stats,12,5,34.797366,1.524235,1585872,0,0,0,2496,0,0,0,0,0,0,0,2162,100
[NT-INFO] Network Stats,12,5,ens4,297773810,307496,0,0,0,0,0,0,730075673,171677,0,0,0,0,0,0
[NT-INFO] Network Stats,12,5,lo,2571114,12184,0,0,0,0,0,0,2571114,12184,0,0,0,0,0,0
[PI-INFO] Paramount Iteration,9,5,36.742564,2.721214
[RU-INFO] Resources Stats,9,5,34.736944,1.580042,1575556,0,0,0,2526,0,0,0,0,0,0,0,2147,121
[NT-INFO] Network Stats,9,5,ens4,297773810,307496,0,0,0,0,0,0,730075673,171677,0,0,0,0,0,0
[NT-INFO] Network Stats,9,5,lo,2571114,12184,0,0,0,0,0,0,2571114,12184,0,0,0,0,0,0
[PI-INFO] Paramount Iteration,3,5,36.760022,2.753930
[RU-INFO] Resources Stats,3,5,34.707443,1.620347,1589912,0,0,0,2525,0,0,0,0,0,0,0,2185,125
[NT-INFO] Network Stats,3,5,ens4,297773810,307496,0,0,0,0,0,0,730075673,171677,0,0,0,0,0,0
[NT-INFO] Network Stats,3,5,lo,2571114,12184,0,0,0,0,0,0,2571114,12184,0,0,0,0,0,0
[PI-INFO] Paramount Iteration,4,5,36.761220,2.733934
[RU-INFO] Resources Stats,4,5,34.696901,1.636419,1604336,0,0,0,2506,0,0,0,0,0,0,0,2207,106
[NT-INFO] Network Stats,4,5,ens4,297773810,307496,0,0,0,0,0,0,730075673,171677,0,0,0,0,0,0
[NT-INFO] Network Stats,4,5,lo,2571114,12184,0,0,0,0,0,0,2571114,12184,0,0,0,0,0,0
[PI-INFO] Paramount Iteration,11,5,36.770064,2.741417
[RU-INFO] Resources Stats,11,5,34.692142,1.624943,1602128,0,0,0,2505,0,0,0,0,0,0,0,2194,576
[NT-INFO] Network Stats,11,5,ens4,297773810,307496,0,0,0,0,0,0,730079011,171682,0,0,0,0,0,0
[NT-INFO] Network Stats,11,5,lo,2571114,12184,0,0,0,0,0,0,2571114,12184,0,0,0,0,0,0
[PI-INFO] Paramount Iteration,1,5,36.788586,2.724343
[RU-INFO] Resources Stats,1,5,34.763735,1.571988,1593964,0,0,0,2506,0,0,0,0,0,0,0,2226,262
[NT-INFO] Network Stats,1,5,ens4,297773810,307496,0,0,0,0,0,0,730079011,171682,0,0,0,0,0,0
[NT-INFO] Network Stats,1,5,lo,2571114,12184,0,0,0,0,0,0,2571114,12184,0,0,0,0,0,0
[PI-INFO] Paramount Iteration,14,5,36.797510,2.734941
[RU-INFO] Resources Stats,14,5,34.760297,1.628388,1589752,0,0,0,2507,0,0,0,0,0,0,0,2181,88
[NT-INFO] Network Stats,14,5,ens4,297773810,307496,0,0,0,0,0,0,730079011,171682,0,0,0,0,0,0
[NT-INFO] Network Stats,14,5,lo,2571114,12184,0,0,0,0,0,0,2571114,12184,0,0,0,0,0,0
[PI-INFO] Paramount Iteration,13,5,36.823628,2.734194
[RU-INFO] Resources Stats,13,5,34.741398,1.671682,1575436,0,0,0,2506,0,0,0,0,0,0,0,2151,106
[NT-INFO] Network Stats,13,5,ens4,297773810,307496,0,0,0,0,0,0,730079011,171682,0,0,0,0,0,0
[NT-INFO] Network Stats,13,5,lo,2571114,12184,0,0,0,0,0,0,2571114,12184,0,0,0,0,0,0
[PI-INFO] Paramount Iteration,0,5,37.109110,2.733034
[RU-INFO] Resources Stats,0,5,35.047931,1.615996,1593948,0,0,0,2509,1,0,72,0,0,0,0,2199,194
[NT-INFO] Network Stats,0,5,ens4,297773810,307496,0,0,0,0,0,0,730079011,171682,0,0,0,0,0,0
[NT-INFO] Network Stats,0,5,lo,2571114,12184,0,0,0,0,0,0,2571114,12184,0,0,0,0,0,0
        6
[PI-INFO] Paramount Iteration,15,5,37.139324,2.732818
[RU-INFO] Resources Stats,15,5,35.094298,1.635734,1585864,0,0,0,2519,0,0,0,0,0,0,0,2158,115
[NT-INFO] Network Stats,15,5,ens4,297773810,307496,0,0,0,0,0,0,730079011,171682,0,0,0,0,0,0
[NT-INFO] Network Stats,15,5,lo,2571114,12184,0,0,0,0,0,0,2571114,12184,0,0,0,0,0,0
[PI-INFO] Paramount Iteration,6,6,39.484098,2.773775
[RU-INFO] Resources Stats,6,6,37.310937,1.736509,1575516,0,0,0,2527,0,0,0,0,0,0,0,2218,168
[NT-INFO] Network Stats,6,6,ens4,297773974,307498,0,0,0,0,0,0,730079431,171684,0,0,0,0,0,0
[NT-INFO] Network Stats,6,6,lo,2571114,12184,0,0,0,0,0,0,2571114,12184,0,0,0,0,0,0
[PI-INFO] Paramount Iteration,2,6,39.515111,2.781890
[RU-INFO] Resources Stats,2,6,37.365619,1.716258,1581688,0,0,0,2536,0,0,0,0,0,0,0,2166,282
[NT-INFO] Network Stats,2,6,ens4,297773974,307498,0,0,0,0,0,0,730079431,171684,0,0,0,0,0,0
[NT-INFO] Network Stats,2,6,lo,2571114,12184,0,0,0,0,0,0,2571114,12184,0,0,0,0,0,0
[PI-INFO] Paramount Iteration,7,6,39.508718,2.786280
[RU-INFO] Resources Stats,7,6,37.345331,1.740434,1585680,0,0,0,2492,0,0,0,0,0,0,0,2238,279
[NT-INFO] Network Stats,7,6,ens4,297773974,307498,0,0,0,0,0,0,730079431,171684,0,0,0,0,0,0
[NT-INFO] Network Stats,7,6,lo,2571114,12184,0,0,0,0,0,0,2571114,12184,0,0,0,0,0,0
[PI-INFO] Paramount Iteration,5,6,39.516464,2.772125
[RU-INFO] Resources Stats,5,6,37.264515,1.827632,1589896,0,0,0,2512,0,0,0,0,0,0,0,2203,132
[NT-INFO] Network Stats,5,6,ens4,297773974,307498,0,0,0,0,0,0,730079431,171684,0,0,0,0,0,0
[NT-INFO] Network Stats,5,6,lo,2571114,12184,0,0,0,0,0,0,2571114,12184,0,0,0,0,0,0
[PI-INFO] Paramount Iteration,12,6,39.507067,2.770301
[RU-INFO] Resources Stats,12,6,37.383253,1.708148,1585872,0,0,0,2497,0,0,0,0,0,0,0,2162,111
[NT-INFO] Network Stats,12,6,ens4,297773974,307498,0,0,0,0,0,0,730079431,171684,0,0,0,0,0,0
[NT-INFO] Network Stats,12,6,lo,2571114,12184,0,0,0,0,0,0,2571114,12184,0,0,0,0,0,0
[PI-INFO] Paramount Iteration,3,6,39.531906,2.771884
[RU-INFO] Resources Stats,3,6,37.282826,1.816332,1589912,0,0,0,2525,0,0,0,0,0,0,0,2185,136
[NT-INFO] Network Stats,3,6,ens4,297773974,307498,0,0,0,0,0,0,730079431,171684,0,0,0,0,0,0
[NT-INFO] Network Stats,3,6,lo,2571114,12184,0,0,0,0,0,0,2571114,12184,0,0,0,0,0,0
[PI-INFO] Paramount Iteration,8,6,39.525161,2.795114
[RU-INFO] Resources Stats,8,6,37.150662,1.952350,1608396,0,0,0,2519,0,0,0,0,0,0,0,2146,85
[NT-INFO] Network Stats,8,6,ens4,297773974,307498,0,0,0,0,0,0,730079431,171684,0,0,0,0,0,0
[NT-INFO] Network Stats,8,6,lo,2571114,12184,0,0,0,0,0,0,2571114,12184,0,0,0,0,0,0
[PI-INFO] Paramount Iteration,10,6,39.523375,2.797146
[RU-INFO] Resources Stats,10,6,37.293131,1.811860,1587912,0,0,0,2514,0,0,0,0,0,0,0,2181,108
[NT-INFO] Network Stats,10,6,ens4,297773974,307498,0,0,0,0,0,0,730079431,171684,0,0,0,0,0,0
[NT-INFO] Network Stats,10,6,lo,2571114,12184,0,0,0,0,0,0,2571114,12184,0,0,0,0,0,0
[PI-INFO] Paramount Iteration,9,6,39.527245,2.784681
[RU-INFO] Resources Stats,9,6,37.317135,1.784054,1575556,0,0,0,2527,0,0,0,0,0,0,0,2147,129
[NT-INFO] Network Stats,9,6,ens4,297773974,307498,0,0,0,0,0,0,730079431,171684,0,0,0,0,0,0
[NT-INFO] Network Stats,9,6,lo,2571114,12184,0,0,0,0,0,0,2571114,12184,0,0,0,0,0,0
[PI-INFO] Paramount Iteration,4,6,39.543626,2.782406
[RU-INFO] Resources Stats,4,6,37.282619,1.832521,1604336,0,0,0,2506,0,0,0,0,0,0,0,2207,119
[NT-INFO] Network Stats,4,6,ens4,297773974,307498,0,0,0,0,0,0,730079431,171684,0,0,0,0,0,0
[NT-INFO] Network Stats,4,6,lo,2571114,12184,0,0,0,0,0,0,2571114,12184,0,0,0,0,0,0
[PI-INFO] Paramount Iteration,11,6,39.542864,2.772800
[RU-INFO] Resources Stats,11,6,37.267318,1.820943,1602128,0,0,0,2505,0,0,0,0,0,0,0,2194,601
[NT-INFO] Network Stats,11,6,ens4,297773974,307498,0,0,0,0,0,0,730079431,171684,0,0,0,0,0,0
[NT-INFO] Network Stats,11,6,lo,2571114,12184,0,0,0,0,0,0,2571114,12184,0,0,0,0,0,0
[PI-INFO] Paramount Iteration,1,6,39.569114,2.780528
[RU-INFO] Resources Stats,1,6,37.363775,1.751989,1593964,0,0,0,2506,0,0,0,0,0,0,0,2226,273
[NT-INFO] Network Stats,1,6,ens4,297773974,307498,0,0,0,0,0,0,730079431,171684,0,0,0,0,0,0
[NT-INFO] Network Stats,1,6,lo,2571114,12184,0,0,0,0,0,0,2571114,12184,0,0,0,0,0,0
[PI-INFO] Paramount Iteration,13,6,39.562647,2.739019
[RU-INFO] Resources Stats,13,6,37.291930,1.859597,1575436,0,0,0,2506,0,0,0,0,0,0,0,2151,119
[NT-INFO] Network Stats,13,6,ens4,297773974,307498,0,0,0,0,0,0,730079431,171684,0,0,0,0,0,0
[NT-INFO] Network Stats,13,6,lo,2571114,12184,0,0,0,0,0,0,2571114,12184,0,0,0,0,0,0
[PI-INFO] Paramount Iteration,14,6,39.570602,2.773092
[RU-INFO] Resources Stats,14,6,37.332886,1.828435,1589752,0,0,0,2507,0,0,0,0,0,0,0,2181,95
[NT-INFO] Network Stats,14,6,ens4,297773974,307498,0,0,0,0,0,0,730079431,171684,0,0,0,0,0,0
[NT-INFO] Network Stats,14,6,lo,2571114,12184,0,0,0,0,0,0,2571114,12184,0,0,0,0,0,0
[PI-INFO] Paramount Iteration,0,6,39.891862,2.782752
[RU-INFO] Resources Stats,0,6,37.642240,1.803915,1593948,0,0,0,2509,1,0,72,0,0,0,0,2199,203
[NT-INFO] Network Stats,0,6,ens4,297773974,307498,0,0,0,0,0,0,730079431,171684,0,0,0,0,0,0
[NT-INFO] Network Stats,0,6,lo,2571114,12184,0,0,0,0,0,0,2571114,12184,0,0,0,0,0,0
        7
[PI-INFO] Paramount Iteration,15,6,39.915245,2.775921
[RU-INFO] Resources Stats,15,6,37.665760,1.839695,1585864,0,0,0,2519,0,0,0,0,0,0,0,2158,125
[NT-INFO] Network Stats,15,6,ens4,297773974,307498,0,0,0,0,0,0,730079431,171684,0,0,0,0,0,0
[NT-INFO] Network Stats,15,6,lo,2571114,12184,0,0,0,0,0,0,2571114,12184,0,0,0,0,0,0
[PI-INFO] Paramount Iteration,6,7,42.238078,2.753980
[RU-INFO] Resources Stats,6,7,39.880367,1.920402,1575516,0,0,0,2546,0,0,0,0,0,0,0,2218,187
[NT-INFO] Network Stats,6,7,ens4,297774040,307499,0,0,0,0,0,0,730079497,171685,0,0,0,0,0,0
[NT-INFO] Network Stats,6,7,lo,2571114,12184,0,0,0,0,0,0,2571114,12184,0,0,0,0,0,0
[PI-INFO] Paramount Iteration,7,7,42.245577,2.736859
[RU-INFO] Resources Stats,7,7,39.917685,1.904462,1585800,0,0,0,2511,0,0,0,0,0,0,0,2238,286
[NT-INFO] Network Stats,7,7,ens4,297774040,307499,0,0,0,0,0,0,730079497,171685,0,0,0,0,0,0
[NT-INFO] Network Stats,7,7,lo,2571114,12184,0,0,0,0,0,0,2571114,12184,0,0,0,0,0,0
[PI-INFO] Paramount Iteration,9,7,42.243976,2.716731
[RU-INFO] Resources Stats,9,7,39.853372,1.964067,1575556,0,0,0,2546,0,0,0,0,0,0,0,2147,137
[NT-INFO] Network Stats,9,7,ens4,297774040,307499,0,0,0,0,0,0,730079497,171685,0,0,0,0,0,0
[NT-INFO] Network Stats,9,7,lo,2571114,12184,0,0,0,0,0,0,2571114,12184,0,0,0,0,0,0
[PI-INFO] Paramount Iteration,8,7,42.246817,2.721656
[RU-INFO] Resources Stats,8,7,39.659867,2.164211,1608396,0,0,0,2538,0,0,0,0,0,0,0,2146,100
[NT-INFO] Network Stats,8,7,ens4,297774040,307499,0,0,0,0,0,0,730079497,171685,0,0,0,0,0,0
[NT-INFO] Network Stats,8,7,lo,2571114,12184,0,0,0,0,0,0,2571114,12184,0,0,0,0,0,0
[PI-INFO] Paramount Iteration,5,7,42.265923,2.749459
[RU-INFO] Resources Stats,5,7,39.833456,2.007670,1589896,0,0,0,2531,0,0,0,0,0,0,0,2203,139
[NT-INFO] Network Stats,5,7,ens4,297774040,307499,0,0,0,0,0,0,730079497,171685,0,0,0,0,0,0
[NT-INFO] Network Stats,5,7,lo,2571114,12184,0,0,0,0,0,0,2571114,12184,0,0,0,0,0,0
[PI-INFO] Paramount Iteration,12,7,42.257852,2.750785
[RU-INFO] Resources Stats,12,7,39.965484,1.876257,1586076,0,0,0,2516,0,0,0,0,0,0,0,2162,118
[NT-INFO] Network Stats,12,7,ens4,297774040,307499,0,0,0,0,0,0,730079497,171685,0,0,0,0,0,0
[NT-INFO] Network Stats,12,7,lo,2571114,12184,0,0,0,0,0,0,2571114,12184,0,0,0,0,0,0
[PI-INFO] Paramount Iteration,2,7,42.275515,2.760404
[RU-INFO] Resources Stats,2,7,39.937477,1.904261,1581688,0,0,0,2555,0,0,0,0,0,0,0,2166,294
[NT-INFO] Network Stats,2,7,ens4,297774040,307499,0,0,0,0,0,0,730079497,171685,0,0,0,0,0,0
[NT-INFO] Network Stats,2,7,lo,2571114,12184,0,0,0,0,0,0,2571114,12184,0,0,0,0,0,0
[PI-INFO] Paramount Iteration,10,7,42.265124,2.741749
[RU-INFO] Resources Stats,10,7,39.850383,1.995919,1587912,0,0,0,2533,0,0,0,0,0,0,0,2181,115
[NT-INFO] Network Stats,10,7,ens4,297774040,307499,0,0,0,0,0,0,730079497,171685,0,0,0,0,0,0
[NT-INFO] Network Stats,10,7,lo,2571114,12184,0,0,0,0,0,0,2571114,12184,0,0,0,0,0,0
[PI-INFO] Paramount Iteration,4,7,42.279435,2.735809
[RU-INFO] Resources Stats,4,7,39.801789,2.048503,1604336,0,0,0,2525,0,0,0,0,0,0,0,2207,127
[NT-INFO] Network Stats,4,7,ens4,297774040,307499,0,0,0,0,0,0,730079497,171685,0,0,0,0,0,0
[NT-INFO] Network Stats,4,7,lo,2571114,12184,0,0,0,0,0,0,2571114,12184,0,0,0,0,0,0
[PI-INFO] Paramount Iteration,3,7,42.299157,2.767251
[RU-INFO] Resources Stats,3,7,39.865631,2.000282,1589912,0,0,0,2543,0,0,0,0,0,0,0,2185,144
[NT-INFO] Network Stats,3,7,ens4,297774040,307499,0,0,0,0,0,0,730079497,171685,0,0,0,0,0,0
[NT-INFO] Network Stats,3,7,lo,2571114,12184,0,0,0,0,0,0,2571114,12184,0,0,0,0,0,0
[PI-INFO] Paramount Iteration,11,7,42.294019,2.751155
[RU-INFO] Resources Stats,11,7,39.810670,2.021150,1602128,0,0,0,2524,0,0,0,0,0,0,0,2194,632
[NT-INFO] Network Stats,11,7,ens4,297774040,307499,0,0,0,0,0,0,730079497,171685,0,0,0,0,0,0
[NT-INFO] Network Stats,11,7,lo,2571114,12184,0,0,0,0,0,0,2571114,12184,0,0,0,0,0,0
[PI-INFO] Paramount Iteration,1,7,42.321872,2.752758
[RU-INFO] Resources Stats,1,7,39.939931,1.927996,1593964,0,0,0,2524,0,0,0,0,0,0,0,2226,291
[NT-INFO] Network Stats,1,7,ens4,297774040,307499,0,0,0,0,0,0,730079497,171685,0,0,0,0,0,0
[NT-INFO] Network Stats,1,7,lo,2571114,12184,0,0,0,0,0,0,2571114,12184,0,0,0,0,0,0
[PI-INFO] Paramount Iteration,14,7,42.308722,2.738120
[RU-INFO] Resources Stats,14,7,39.874642,2.024337,1589752,0,0,0,2526,0,0,0,0,0,0,0,2181,103
[NT-INFO] Network Stats,14,7,ens4,297774040,307499,0,0,0,0,0,0,730079497,171685,0,0,0,0,0,0
[NT-INFO] Network Stats,14,7,lo,2571114,12184,0,0,0,0,0,0,2571114,12184,0,0,0,0,0,0
[PI-INFO] Paramount Iteration,13,7,42.350032,2.787385
[RU-INFO] Resources Stats,13,7,39.910740,2.027529,1575436,0,0,0,2525,0,0,0,0,0,0,0,2151,133
[NT-INFO] Network Stats,13,7,ens4,297774040,307499,0,0,0,0,0,0,730079497,171685,0,0,0,0,0,0
[NT-INFO] Network Stats,13,7,lo,2571114,12184,0,0,0,0,0,0,2571114,12184,0,0,0,0,0,0
[PI-INFO] Paramount Iteration,0,7,42.613557,2.721695
[RU-INFO] Resources Stats,0,7,40.175085,1.992153,1593948,0,0,0,2528,1,0,72,0,0,0,0,2199,220
[NT-INFO] Network Stats,0,7,ens4,297774040,307499,0,0,0,0,0,0,730079497,171685,0,0,0,0,0,0
[NT-INFO] Network Stats,0,7,lo,2571114,12184,0,0,0,0,0,0,2571114,12184,0,0,0,0,0,0
        8
[PI-INFO] Paramount Iteration,15,7,42.663425,2.748180
[RU-INFO] Resources Stats,15,7,40.225024,2.027648,1585864,0,0,0,2538,0,0,0,0,0,0,0,2158,145
[NT-INFO] Network Stats,15,7,ens4,297774040,307499,0,0,0,0,0,0,730079497,171685,0,0,0,0,0,0
[NT-INFO] Network Stats,15,7,lo,2571114,12184,0,0,0,0,0,0,2571114,12184,0,0,0,0,0,0
[PI-INFO] Paramount Iteration,6,8,44.972350,2.734272
[RU-INFO] Resources Stats,6,8,42.433856,2.100487,1575516,0,0,0,2546,0,0,0,0,0,0,0,2218,202
[NT-INFO] Network Stats,6,8,ens4,297774040,307499,0,0,0,0,0,0,730079497,171685,0,0,0,0,0,0
[NT-INFO] Network Stats,6,8,lo,2571114,12184,0,0,0,0,0,0,2571114,12184,0,0,0,0,0,0
[PI-INFO] Paramount Iteration,2,8,45.004903,2.729388
[RU-INFO] Resources Stats,2,8,42.466574,2.104127,1581688,0,0,0,2556,0,0,0,0,0,0,0,2166,301
[NT-INFO] Network Stats,2,8,ens4,297774040,307499,0,0,0,0,0,0,730079497,171685,0,0,0,0,0,0
[NT-INFO] Network Stats,2,8,lo,2571114,12184,0,0,0,0,0,0,2571114,12184,0,0,0,0,0,0
[PI-INFO] Paramount Iteration,7,8,44.998767,2.753190
[RU-INFO] Resources Stats,7,8,42.478322,2.096509,1585800,0,0,0,2511,0,0,0,0,0,0,0,2238,293
[NT-INFO] Network Stats,7,8,ens4,297774040,307499,0,0,0,0,0,0,730079497,171685,0,0,0,0,0,0
[NT-INFO] Network Stats,7,8,lo,2571114,12184,0,0,0,0,0,0,2571114,12184,0,0,0,0,0,0
[PI-INFO] Paramount Iteration,5,8,45.010639,2.744716
[RU-INFO] Resources Stats,5,8,42.381655,2.203670,1589896,0,0,0,2531,0,0,0,0,0,0,0,2203,146
[NT-INFO] Network Stats,5,8,ens4,297774040,307499,0,0,0,0,0,0,730079497,171685,0,0,0,0,0,0
[NT-INFO] Network Stats,5,8,lo,2571114,12184,0,0,0,0,0,0,2571114,12184,0,0,0,0,0,0
[PI-INFO] Paramount Iteration,8,8,45.011048,2.764231
[RU-INFO] Resources Stats,8,8,42.211596,2.376202,1608396,0,0,0,2538,0,0,0,0,0,0,0,2146,111
[NT-INFO] Network Stats,8,8,ens4,297774040,307499,0,0,0,0,0,0,730079497,171685,0,0,0,0,0,0
[NT-INFO] Network Stats,8,8,lo,2571114,12184,0,0,0,0,0,0,2571114,12184,0,0,0,0,0,0
[PI-INFO] Paramount Iteration,12,8,45.006173,2.748321
[RU-INFO] Resources Stats,12,8,42.541334,2.048256,1586076,0,0,0,2516,0,0,0,0,0,0,0,2162,125
[NT-INFO] Network Stats,12,8,ens4,297774040,307499,0,0,0,0,0,0,730079497,171685,0,0,0,0,0,0
[NT-INFO] Network Stats,12,8,lo,2571114,12184,0,0,0,0,0,0,2571114,12184,0,0,0,0,0,0
[PI-INFO] Paramount Iteration,9,8,45.013157,2.769181
[RU-INFO] Resources Stats,9,8,42.422264,2.163911,1575556,0,0,0,2546,0,0,0,0,0,0,0,2147,144
[NT-INFO] Network Stats,9,8,ens4,297774040,307499,0,0,0,0,0,0,730079497,171685,0,0,0,0,0,0
[NT-INFO] Network Stats,9,8,lo,2571114,12184,0,0,0,0,0,0,2571114,12184,0,0,0,0,0,0
[PI-INFO] Paramount Iteration,10,8,45.013264,2.748140
[RU-INFO] Resources Stats,10,8,42.413992,2.179896,1587912,0,0,0,2533,0,0,0,0,0,0,0,2181,127
[NT-INFO] Network Stats,10,8,ens4,297774040,307499,0,0,0,0,0,0,730079497,171685,0,0,0,0,0,0
[PI-INFO] Paramount Iteration,3,8,45.025224,2.726067
[RU-INFO] Resources Stats,3,8,42.407168,2.184369,1589912,0,0,0,2544,0,0,0,0,0,0,0,2185,150
[NT-INFO] Network Stats,3,8,ens4,297774040,307499,0,0,0,0,0,0,730079497,171685,0,0,0,0,0,0
[NT-INFO] Network Stats,3,8,lo,2571114,12184,0,0,0,0,0,0,2571114,12184,0,0,0,0,0,0
[NT-INFO] Network Stats,10,8,lo,2571114,12184,0,0,0,0,0,0,2571114,12184,0,0,0,0,0,0
[PI-INFO] Paramount Iteration,4,8,45.033075,2.753640
[RU-INFO] Resources Stats,4,8,42.351039,2.252374,1604336,0,0,0,2525,0,0,0,0,0,0,0,2207,138
[NT-INFO] Network Stats,4,8,ens4,297774040,307499,0,0,0,0,0,0,730079497,171685,0,0,0,0,0,0
[NT-INFO] Network Stats,4,8,lo,2571114,12184,0,0,0,0,0,0,2571114,12184,0,0,0,0,0,0
[PI-INFO] Paramount Iteration,11,8,45.038402,2.744383
[RU-INFO] Resources Stats,11,8,42.360927,2.213093,1602128,0,0,0,2524,0,0,0,0,0,0,0,2194,657
[NT-INFO] Network Stats,11,8,ens4,297774040,307499,0,0,0,0,0,0,730079497,171685,0,0,0,0,0,0
[NT-INFO] Network Stats,11,8,lo,2571114,12184,0,0,0,0,0,0,2571114,12184,0,0,0,0,0,0
[PI-INFO] Paramount Iteration,1,8,45.061291,2.739419
[RU-INFO] Resources Stats,1,8,42.482758,2.124137,1593964,0,0,0,2525,0,0,0,0,0,0,0,2226,298
[NT-INFO] Network Stats,1,8,ens4,297774040,307499,0,0,0,0,0,0,730079497,171685,0,0,0,0,0,0
[NT-INFO] Network Stats,1,8,lo,2571114,12184,0,0,0,0,0,0,2571114,12184,0,0,0,0,0,0
[PI-INFO] Paramount Iteration,14,8,45.059989,2.751267
[RU-INFO] Resources Stats,14,8,42.437496,2.212286,1589752,0,0,0,2526,0,0,0,0,0,0,0,2181,110
[NT-INFO] Network Stats,14,8,ens4,297774040,307499,0,0,0,0,0,0,730079497,171685,0,0,0,0,0,0
[NT-INFO] Network Stats,14,8,lo,2571114,12184,0,0,0,0,0,0,2571114,12184,0,0,0,0,0,0
[PI-INFO] Paramount Iteration,13,8,45.077895,2.727863
[RU-INFO] Resources Stats,13,8,42.450042,2.215480,1575436,0,0,0,2525,0,0,0,0,0,0,0,2151,149
[NT-INFO] Network Stats,13,8,ens4,297774040,307499,0,0,0,0,0,0,730079497,171685,0,0,0,0,0,0
[NT-INFO] Network Stats,13,8,lo,2571114,12184,0,0,0,0,0,0,2571114,12184,0,0,0,0,0,0
[PI-INFO] Paramount Iteration,0,8,45.366021,2.752464
[RU-INFO] Resources Stats,0,8,42.735004,2.184153,1593948,0,0,0,2528,1,0,72,0,0,0,0,2199,233
[NT-INFO] Network Stats,0,8,ens4,297774040,307499,0,0,0,0,0,0,730079497,171685,0,0,0,0,0,0
[NT-INFO] Network Stats,0,8,lo,2571114,12184,0,0,0,0,0,0,2571114,12184,0,0,0,0,0,0
        9
[PI-INFO] Paramount Iteration,15,8,45.404703,2.741278
[RU-INFO] Resources Stats,15,8,42.769627,2.223668,1585864,0,0,0,2538,0,0,0,0,0,0,0,2158,166
[NT-INFO] Network Stats,15,8,ens4,297774040,307499,0,0,0,0,0,0,730079497,171685,0,0,0,0,0,0
[NT-INFO] Network Stats,15,8,lo,2571114,12184,0,0,0,0,0,0,2571114,12184,0,0,0,0,0,0
[PI-INFO] Paramount Iteration,6,9,47.736260,2.763910
[RU-INFO] Resources Stats,6,9,45.029225,2.268464,1575516,0,0,0,2546,0,0,0,0,0,0,0,2218,213
[NT-INFO] Network Stats,6,9,ens4,297774040,307499,0,0,0,0,0,0,730079497,171685,0,0,0,0,0,0
[NT-INFO] Network Stats,6,9,lo,2571114,12184,0,0,0,0,0,0,2571114,12184,0,0,0,0,0,0
[PI-INFO] Paramount Iteration,10,9,47.731118,2.717854
[RU-INFO] Resources Stats,10,9,44.943482,2.367762,1587912,0,0,0,2534,0,0,0,0,0,0,0,2181,134
[NT-INFO] Network Stats,10,9,ens4,297774040,307499,0,0,0,0,0,0,730079497,171685,0,0,0,0,0,0
[NT-INFO] Network Stats,10,9,lo,2571114,12184,0,0,0,0,0,0,2571114,12184,0,0,0,0,0,0
[PI-INFO] Paramount Iteration,7,9,47.748231,2.749464
[RU-INFO] Resources Stats,7,9,45.055361,2.268370,1585800,0,0,0,2511,0,0,0,0,0,0,0,2238,300
[NT-INFO] Network Stats,7,9,ens4,297774040,307499,0,0,0,0,0,0,730079497,171685,0,0,0,0,0,0
[NT-INFO] Network Stats,7,9,lo,2571114,12184,0,0,0,0,0,0,2571114,12184,0,0,0,0,0,0
[PI-INFO] Paramount Iteration,5,9,47.755198,2.744559
[RU-INFO] Resources Stats,5,9,44.929707,2.399663,1589896,0,0,0,2531,0,0,0,0,0,0,0,2203,154
[NT-INFO] Network Stats,5,9,ens4,297774040,307499,0,0,0,0,0,0,730079497,171685,0,0,0,0,0,0
[NT-INFO] Network Stats,5,9,lo,2571114,12184,0,0,0,0,0,0,2571114,12184,0,0,0,0,0,0
[PI-INFO] Paramount Iteration,8,9,47.751291,2.740243
[RU-INFO] Resources Stats,8,9,44.751302,2.576190,1608396,0,0,0,2538,0,0,0,0,0,0,0,2146,122
[NT-INFO] Network Stats,8,9,ens4,297774040,307499,0,0,0,0,0,0,730079497,171685,0,0,0,0,0,0
[NT-INFO] Network Stats,8,9,lo,2571114,12184,0,0,0,0,0,0,2571114,12184,0,0,0,0,0,0
[PI-INFO] Paramount Iteration,9,9,47.754191,2.741034
[PI-INFO] Paramount Iteration,3,9,47.764272,2.739048
[RU-INFO] Resources Stats,3,9,44.938069,2.392323,1589912,0,0,0,2544,0,0,0,0,0,0,0,2185,155
[NT-INFO] Network Stats,3,9,ens4,297774040,307499,0,0,0,0,0,0,730079497,171685,0,0,0,0,0,0
[NT-INFO] Network Stats,3,9,lo,2571114,12184,0,0,0,0,0,0,2571114,12184,0,0,0,0,0,0
[RU-INFO] Resources Stats,9,9,44.978789,2.347936,1575556,0,0,0,2546,0,0,0,0,0,0,0,2147,152
[NT-INFO] Network Stats,9,9,ens4,297774040,307499,0,0,0,0,0,0,730079497,171685,0,0,0,0,0,0
[NT-INFO] Network Stats,9,9,lo,2571114,12184,0,0,0,0,0,0,2571114,12184,0,0,0,0,0,0
[PI-INFO] Paramount Iteration,2,9,47.766589,2.761686
[RU-INFO] Resources Stats,2,9,45.063641,2.268183,1581688,0,0,0,2556,0,0,0,0,0,0,0,2166,316
[NT-INFO] Network Stats,2,9,ens4,297774040,307499,0,0,0,0,0,0,730079497,171685,0,0,0,0,0,0
[NT-INFO] Network Stats,2,9,lo,2571114,12184,0,0,0,0,0,0,2571114,12184,0,0,0,0,0,0
[PI-INFO] Paramount Iteration,12,9,47.750434,2.744261
[RU-INFO] Resources Stats,12,9,45.105113,2.228252,1586076,0,0,0,2517,0,0,0,0,0,0,0,2162,132
[NT-INFO] Network Stats,12,9,ens4,297774040,307499,0,0,0,0,0,0,730079497,171685,0,0,0,0,0,0
[NT-INFO] Network Stats,12,9,lo,2571114,12184,0,0,0,0,0,0,2571114,12184,0,0,0,0,0,0
[PI-INFO] Paramount Iteration,4,9,47.773601,2.740526
[RU-INFO] Resources Stats,4,9,44.895018,2.448382,1604336,0,0,0,2525,0,0,0,0,0,0,0,2207,145
[NT-INFO] Network Stats,4,9,ens4,297774040,307499,0,0,0,0,0,0,730079497,171685,0,0,0,0,0,0
[NT-INFO] Network Stats,4,9,lo,2571114,12184,0,0,0,0,0,0,2571114,12184,0,0,0,0,0,0
[PI-INFO] Paramount Iteration,1,9,47.815026,2.753735
[RU-INFO] Resources Stats,1,9,45.051889,2.308199,1593964,0,0,0,2525,0,0,0,0,0,0,0,2226,311
[NT-INFO] Network Stats,1,9,ens4,297774040,307499,0,0,0,0,0,0,730079497,171685,0,0,0,0,0,0
[NT-INFO] Network Stats,1,9,lo,2571114,12184,0,0,0,0,0,0,2571114,12184,0,0,0,0,0,0
[PI-INFO] Paramount Iteration,11,9,47.799588,2.761186
[RU-INFO] Resources Stats,11,9,44.916585,2.417107,1602128,0,0,0,2525,0,0,0,0,0,0,0,2194,681
[NT-INFO] Network Stats,11,9,ens4,297774040,307499,0,0,0,0,0,0,730079497,171685,0,0,0,0,0,0
[NT-INFO] Network Stats,11,9,lo,2571114,12184,0,0,0,0,0,0,2571114,12184,0,0,0,0,0,0
[PI-INFO] Paramount Iteration,14,9,47.823185,2.763196
[RU-INFO] Resources Stats,14,9,45.004088,2.408432,1589752,0,0,0,2527,0,0,0,0,0,0,0,2181,117
[NT-INFO] Network Stats,14,9,ens4,297774040,307499,0,0,0,0,0,0,730079497,171685,0,0,0,0,0,0
[NT-INFO] Network Stats,14,9,lo,2571114,12184,0,0,0,0,0,0,2571114,12184,0,0,0,0,0,0
[PI-INFO] Paramount Iteration,13,9,47.833989,2.756094
[RU-INFO] Resources Stats,13,9,45.025548,2.395443,1575436,0,0,0,2526,0,0,0,0,0,0,0,2151,163
[NT-INFO] Network Stats,13,9,ens4,297774040,307499,0,0,0,0,0,0,730079497,171685,0,0,0,0,0,0
[NT-INFO] Network Stats,13,9,lo,2571114,12184,0,0,0,0,0,0,2571114,12184,0,0,0,0,0,0
[PI-INFO] Paramount Iteration,0,9,48.121973,2.755952
[RU-INFO] Resources Stats,0,9,45.302427,2.372127,1593948,0,0,0,2528,1,0,72,0,0,0,0,2199,245
[NT-INFO] Network Stats,0,9,ens4,297774040,307499,0,0,0,0,0,0,730079497,171685,0,0,0,0,0,0
[NT-INFO] Network Stats,0,9,lo,2571114,12184,0,0,0,0,0,0,2571114,12184,0,0,0,0,0,0
        10
[PI-INFO] Paramount Iteration,15,9,48.159972,2.755269
[RU-INFO] Resources Stats,15,9,45.332340,2.415591,1585864,0,0,0,2539,0,0,0,0,0,0,0,2158,188
[NT-INFO] Network Stats,15,9,ens4,297774040,307499,0,0,0,0,0,0,730079497,171685,0,0,0,0,0,0
[NT-INFO] Network Stats,15,9,lo,2571114,12184,0,0,0,0,0,0,2571114,12184,0,0,0,0,0,0
[PI-INFO] Paramount Iteration,6,10,50.478783,2.742523
[RU-INFO] Resources Stats,6,10,47.591248,2.448372,1575516,0,0,0,2546,0,0,0,0,0,0,0,2218,229
[NT-INFO] Network Stats,6,10,ens4,297774214,307502,0,0,0,0,0,0,730079683,171688,0,0,0,0,0,0
[NT-INFO] Network Stats,6,10,lo,2571114,12184,0,0,0,0,0,0,2571114,12184,0,0,0,0,0,0
[PI-INFO] Paramount Iteration,5,10,50.502005,2.746807
[RU-INFO] Resources Stats,5,10,47.508058,2.567570,1589896,0,0,0,2531,0,0,0,0,0,0,0,2203,161
[NT-INFO] Network Stats,5,10,ens4,297774214,307502,0,0,0,0,0,0,730079683,171688,0,0,0,0,0,0
[NT-INFO] Network Stats,5,10,lo,2571114,12184,0,0,0,0,0,0,2571114,12184,0,0,0,0,0,0
[PI-INFO] Paramount Iteration,7,10,50.498930,2.750699
[RU-INFO] Resources Stats,7,10,47.617415,2.456485,1585800,0,0,0,2511,0,0,0,0,0,0,0,2238,308
[NT-INFO] Network Stats,7,10,ens4,297774214,307502,0,0,0,0,0,0,730079683,171688,0,0,0,0,0,0
[NT-INFO] Network Stats,7,10,lo,2571114,12184,0,0,0,0,0,0,2571114,12184,0,0,0,0,0,0
[PI-INFO] Paramount Iteration,2,10,50.507829,2.741240
[RU-INFO] Resources Stats,2,10,47.624422,2.448227,1581688,0,0,0,2556,0,0,0,0,0,0,0,2166,323
[NT-INFO] Network Stats,2,10,ens4,297774214,307502,0,0,0,0,0,0,730079683,171688,0,0,0,0,0,0
[NT-INFO] Network Stats,2,10,lo,2571114,12184,0,0,0,0,0,0,2571114,12184,0,0,0,0,0,0
[PI-INFO] Paramount Iteration,12,10,50.496062,2.745628
[RU-INFO] Resources Stats,12,10,47.682465,2.396123,1586076,0,0,0,2517,0,0,0,0,0,0,0,2162,139
[NT-INFO] Network Stats,12,10,ens4,297774214,307502,0,0,0,0,0,0,730079683,171688,0,0,0,0,0,0
[NT-INFO] Network Stats,12,10,lo,2571114,12184,0,0,0,0,0,0,2571114,12184,0,0,0,0,0,0
[PI-INFO] Paramount Iteration,10,10,50.507736,2.776618
[RU-INFO] Resources Stats,10,10,47.535585,2.551763,1587912,0,0,0,2534,0,0,0,0,0,0,0,2181,142
[NT-INFO] Network Stats,10,10,ens4,297774214,307502,0,0,0,0,0,0,730079683,171688,0,0,0,0,0,0
[NT-INFO] Network Stats,10,10,lo,2571114,12184,0,0,0,0,0,0,2571114,12184,0,0,0,0,0,0
[PI-INFO] Paramount Iteration,3,10,50.522021,2.757749
[RU-INFO] Resources Stats,3,10,47.519472,2.568403,1589912,0,0,0,2544,0,0,0,0,0,0,0,2185,164
[NT-INFO] Network Stats,3,10,ens4,297774214,307502,0,0,0,0,0,0,730079683,171688,0,0,0,0,0,0
[NT-INFO] Network Stats,3,10,lo,2571114,12184,0,0,0,0,0,0,2571114,12184,0,0,0,0,0,0
[PI-INFO] Paramount Iteration,9,10,50.518759,2.764568
[RU-INFO] Resources Stats,9,10,47.550815,2.539936,1575556,0,0,0,2546,0,0,0,0,0,0,0,2147,159
[NT-INFO] Network Stats,9,10,ens4,297774214,307502,0,0,0,0,0,0,730079683,171688,0,0,0,0,0,0
[NT-INFO] Network Stats,9,10,lo,2571114,12184,0,0,0,0,0,0,2571114,12184,0,0,0,0,0,0
[PI-INFO] Paramount Iteration,8,10,50.523794,2.772503
[RU-INFO] Resources Stats,8,10,47.315306,2.784194,1608396,0,0,0,2538,0,0,0,0,0,0,0,2146,130
[NT-INFO] Network Stats,8,10,ens4,297774214,307502,0,0,0,0,0,0,730079683,171688,0,0,0,0,0,0
[NT-INFO] Network Stats,8,10,lo,2571114,12184,0,0,0,0,0,0,2571114,12184,0,0,0,0,0,0
[PI-INFO] Paramount Iteration,4,10,50.537945,2.764344
[RU-INFO] Resources Stats,4,10,47.466772,2.640376,1604336,0,0,0,2525,0,0,0,0,0,0,0,2207,155
[NT-INFO] Network Stats,4,10,ens4,297774214,307502,0,0,0,0,0,0,730079683,171688,0,0,0,0,0,0
[NT-INFO] Network Stats,4,10,lo,2571114,12184,0,0,0,0,0,0,2571114,12184,0,0,0,0,0,0
[PI-INFO] Paramount Iteration,11,10,50.545465,2.745877
[RU-INFO] Resources Stats,11,10,47.460993,2.616937,1602128,0,0,0,2525,0,0,0,0,0,0,0,2194,711
[NT-INFO] Network Stats,11,10,ens4,297774214,307502,0,0,0,0,0,0,730079683,171688,0,0,0,0,0,0
[NT-INFO] Network Stats,11,10,lo,2571114,12184,0,0,0,0,0,0,2571114,12184,0,0,0,0,0,0
[PI-INFO] Paramount Iteration,14,10,50.550373,2.727188
[RU-INFO] Resources Stats,14,10,47.538858,2.600375,1589752,0,0,0,2527,0,0,0,0,0,0,0,2181,124
[NT-INFO] Network Stats,14,10,ens4,297774214,307502,0,0,0,0,0,0,730079683,171688,0,0,0,0,0,0
[NT-INFO] Network Stats,14,10,lo,2571114,12184,0,0,0,0,0,0,2571114,12184,0,0,0,0,0,0
[PI-INFO] Paramount Iteration,1,10,50.586758,2.771732
[RU-INFO] Resources Stats,1,10,47.618999,2.512158,1593964,0,0,0,2525,0,0,0,0,0,0,0,2226,329
[NT-INFO] Network Stats,1,10,ens4,297774214,307502,0,0,0,0,0,0,730079683,171688,0,0,0,0,0,0
[NT-INFO] Network Stats,1,10,lo,2571114,12184,0,0,0,0,0,0,2571114,12184,0,0,0,0,0,0
[PI-INFO] Paramount Iteration,13,10,50.581636,2.747647
[RU-INFO] Resources Stats,13,10,47.588682,2.579386,1575436,0,0,0,2526,0,0,0,0,0,0,0,2151,172
[NT-INFO] Network Stats,13,10,ens4,297774214,307502,0,0,0,0,0,0,730079683,171688,0,0,0,0,0,0
[NT-INFO] Network Stats,13,10,lo,2571114,12184,0,0,0,0,0,0,2571114,12184,0,0,0,0,0,0
[PI-INFO] Paramount Iteration,0,10,50.949599,2.827626
[RU-INFO] Resources Stats,0,10,47.933362,2.568073,1593948,0,0,0,2528,1,0,72,0,0,0,0,2199,271
[NT-INFO] Network Stats,0,10,ens4,297774214,307502,0,0,0,0,0,0,730079683,171688,0,0,0,0,0,0
[NT-INFO] Network Stats,0,10,lo,2571114,12184,0,0,0,0,0,0,2571114,12184,0,0,0,0,0,0
[PI-INFO] Paramount Iteration,15,10,50.954696,2.794724
[RU-INFO] Resources Stats,15,10,47.926637,2.615489,1585864,0,0,0,2539,0,0,0,0,0,0,0,2158,200
[NT-INFO] Network Stats,15,10,ens4,297774214,307502,0,0,0,0,0,0,730079683,171688,0,0,0,0,0,0
[NT-INFO] Network Stats,15,10,lo,2571114,12184,0,0,0,0,0,0,2571114,12184,0,0,0,0,0,0
[PI-INFO] PI avg,5,2.497228,11
[PI-INFO] Beta,5,2.048322
[PI-INFO] PI avg,3,2.496163,11
[PI-INFO] Beta,3,2.050876
[PI-INFO] PI avg,4,2.497364,11
[PI-INFO] Beta,4,2.053127
[PI-INFO] PI avg,6,2.497251,11
[PI-INFO] Beta,6,2.053068
[PI-INFO] PI avg,7,2.497271,11
[PI-INFO] Beta,7,2.053009
[PI-INFO] PI avg,2,2.496072,11
[PI-INFO] Beta,2,2.056046
[PI-INFO] PI avg,1,2.499815,11
[PI-INFO] Beta,1,2.053298
[PI-INFO] PI avg,11,2.498558,11
[PI-INFO] Beta,11,2.055123
[PI-INFO] PI avg,10,2.498470,11
[PI-INFO] Beta,10,2.055256
[PI-INFO] PI avg,13,2.496509,11
[PI-INFO] Beta,13,2.058607
[PI-INFO] PI avg,12,2.499009,11
[PI-INFO] Beta,12,2.058822
[PI-INFO] PI avg,14,2.496623,11
[PI-INFO] Beta,14,2.060651
[PI-INFO] PI avg,15,2.501479,11
[PI-INFO] Beta,15,2.056588
[PI-INFO] PI avg,9,2.495864,11
[PI-INFO] Beta,9,2.066378


 IS Benchmark Completed
 Class           =                        D
 Size            =               2147483648
 Iterations      =                       10
 Time in seconds =                    27.53
 Total processes =                       16
 Active procs    =                       16
 Mop/s total     =                   779.97
 Mop/s/process   =                    48.75
 Operation type  =              keys ranked
 Verification    =               SUCCESSFUL
 Version         =                      3.4
 Compile date    =              15 May 2021

 Compile options:
    MPICC        = mpicc
    CLINK        = $(MPICC)
    CMPI_LIB     = (none)
    CMPI_INC     = (none)
    CFLAGS       = -O3
    CLINKFLAGS   = $(CFLAGS) -O ../../utils/obj/*.o


[PI-INFO] PI avg,8,2.498182,11
[PI-INFO] Beta,8,2.064692
 Please send feedbacks and/or the results of this run to:

 NPB Development Team
 npb@nas.nasa.gov


[PI-INFO] PI avg,0,2.502942,11
[PI-INFO] Beta,0,2.061251
[PI-INFO] Total time,56.751114
