

 NAS Parallel Benchmarks 3.4 -- IS Benchmark

 Size:  134217728  (class C)
 Iterations:   10
 Number of processes:     16
[PI-INFO] Init time,7,1.932310
[PI-INFO] Init time,9,1.929960
[PI-INFO] Init time,13,1.922942
[PI-INFO] Init time,5,1.936038
[PI-INFO] Init time,8,1.931474
[PI-INFO] Init time,12,1.925449
[PI-INFO] Init time,6,1.934682
[PI-INFO] Init time,10,1.928617
[PI-INFO] Init time,3,1.938900
[PI-INFO] Init time,4,1.938612
[PI-INFO] Init time,2,1.939255
[PI-INFO] Init time,11,1.927366
[PI-INFO] Init time,14,1.922273
[PI-INFO] Init time,1,1.942465

   iteration
[PI-INFO] Init time,0,1.963073
[PI-INFO] Init time,15,1.943365
        1
[PI-INFO] Paramount Iteration,5,1,2.083525,0.147487
[PI-INFO] Paramount Iteration,9,1,2.077617,0.147657
[RU-INFO] Resources Stats,9,1,1.530995,0.075950,115080,0,0,0,1826,5,0,208,0,0,0,0,2234,71
[NT-INFO] Network Stats,9,1,ens4,297743653,307286,0,0,0,0,0,0,730044019,171535,0,0,0,0,0,0
[NT-INFO] Network Stats,9,1,lo,2338962,11474,0,0,0,0,0,0,2338962,11474,0,0,0,0,0,0
[RU-INFO] Resources Stats,5,1,1.518488,0.087223,113184,0,0,0,1804,10,0,472,0,0,0,0,2233,36
[NT-INFO] Network Stats,5,1,ens4,297743653,307286,0,0,0,0,0,0,730044019,171535,0,0,0,0,0,0
[NT-INFO] Network Stats,5,1,lo,2338962,11474,0,0,0,0,0,0,2338962,11474,0,0,0,0,0,0
[PI-INFO] Paramount Iteration,8,1,2.079321,0.147847
[RU-INFO] Resources Stats,8,1,1.503033,0.103657,117332,0,0,0,1839,5,0,152,0,0,0,0,2259,36
[PI-INFO] Paramount Iteration,7,1,2.080890,0.148580
[NT-INFO] Network Stats,8,1,ens4,297743653,307286,0,0,0,0,0,0,730044019,171535,0,0,0,0,0,0
[NT-INFO] Network Stats,8,1,lo,2338962,11474,0,0,0,0,0,0,2338962,11474,0,0,0,0,0,0
[PI-INFO] Paramount Iteration,4,1,2.085893,0.147281
[RU-INFO] Resources Stats,4,1,1.502064,0.102772,115124,0,0,0,1803,4,0,184,0,0,0,0,2217,35
[NT-INFO] Network Stats,4,1,ens4,297743653,307286,0,0,0,0,0,0,730044019,171535,0,0,0,0,0,0
[NT-INFO] Network Stats,4,1,lo,2338962,11474,0,0,0,0,0,0,2338962,11474,0,0,0,0,0,0
[RU-INFO] Resources Stats,7,1,1.532317,0.075620,113336,0,0,0,1805,10,0,304,0,0,0,0,2223,27
[NT-INFO] Network Stats,7,1,ens4,297743653,307286,0,0,0,0,0,0,730044019,171535,0,0,0,0,0,0
[NT-INFO] Network Stats,7,1,lo,2338962,11474,0,0,0,0,0,0,2338962,11474,0,0,0,0,0,0
[PI-INFO] Paramount Iteration,6,1,2.082637,0.147955
[RU-INFO] Resources Stats,6,1,1.516315,0.092019,112844,0,0,0,1781,7,0,136,0,0,0,0,2225,27
[NT-INFO] Network Stats,6,1,ens4,297743653,307286,0,0,0,0,0,0,730044019,171535,0,0,0,0,0,0
[NT-INFO] Network Stats,6,1,lo,2338962,11474,0,0,0,0,0,0,2338962,11474,0,0,0,0,0,0
[PI-INFO] Paramount Iteration,12,1,2.073571,0.148122
[RU-INFO] Resources Stats,12,1,1.522573,0.084587,113056,0,0,0,1796,4,0,288,0,0,0,0,2202,18
[NT-INFO] Network Stats,12,1,ens4,297743653,307286,0,0,0,0,0,0,730044019,171535,0,0,0,0,0,0
[NT-INFO] Network Stats,12,1,lo,2338962,11474,0,0,0,0,0,0,2338962,11474,0,0,0,0,0,0
[PI-INFO] Paramount Iteration,2,1,2.087381,0.148126
[RU-INFO] Resources Stats,2,1,1.525309,0.084293,113240,0,0,0,1784,9,0,1040,0,0,0,0,2238,25
[NT-INFO] Network Stats,2,1,ens4,297743653,307286,0,0,0,0,0,0,730044019,171535,0,0,0,0,0,0
[NT-INFO] Network Stats,2,1,lo,2338962,11474,0,0,0,0,0,0,2338962,11474,0,0,0,0,0,0
[PI-INFO] Paramount Iteration,3,1,2.087657,0.148757
[PI-INFO] Paramount Iteration,10,1,2.077554,0.148937
[RU-INFO] Resources Stats,10,1,1.524903,0.083610,112788,0,0,0,1783,9,0,600,0,0,0,0,2214,25
[NT-INFO] Network Stats,10,1,ens4,297743653,307286,0,0,0,0,0,0,730044019,171535,0,0,0,0,0,0
[NT-INFO] Network Stats,10,1,lo,2338962,11474,0,0,0,0,0,0,2338962,11474,0,0,0,0,0,0
[RU-INFO] Resources Stats,3,1,1.522903,0.088168,114800,0,0,0,1783,7,0,416,0,0,0,0,2234,22
[NT-INFO] Network Stats,3,1,ens4,297743653,307286,0,0,0,0,0,0,730044019,171535,0,0,0,0,0,0
[NT-INFO] Network Stats,3,1,lo,2338962,11474,0,0,0,0,0,0,2338962,11474,0,0,0,0,0,0
[PI-INFO] Paramount Iteration,11,1,2.076085,0.148719
[PI-INFO] Paramount Iteration,13,1,2.072757,0.149815
[RU-INFO] Resources Stats,13,1,1.529563,0.080292,112972,0,0,0,1799,7,0,384,0,0,0,0,2222,30
[NT-INFO] Network Stats,13,1,ens4,297743653,307286,0,0,0,0,0,0,730044019,171535,0,0,0,0,0,0
[NT-INFO] Network Stats,13,1,lo,2338962,11474,0,0,0,0,0,0,2338962,11474,0,0,0,0,0,0
[RU-INFO] Resources Stats,11,1,1.533180,0.075860,115232,0,0,0,1792,6,0,248,0,0,0,0,2227,32
[NT-INFO] Network Stats,11,1,ens4,297743653,307286,0,0,0,0,0,0,730044019,171535,0,0,0,0,0,0
[NT-INFO] Network Stats,11,1,lo,2338962,11474,0,0,0,0,0,0,2338962,11474,0,0,0,0,0,0
[PI-INFO] Paramount Iteration,14,1,2.072628,0.150355
[RU-INFO] Resources Stats,14,1,1.532649,0.076632,115592,0,0,0,1815,6,0,184,0,0,0,0,2202,42
[NT-INFO] Network Stats,14,1,ens4,297743653,307286,0,0,0,0,0,0,730044019,171535,0,0,0,0,0,0
[NT-INFO] Network Stats,14,1,lo,2338962,11474,0,0,0,0,0,0,2338962,11474,0,0,0,0,0,0
[PI-INFO] Paramount Iteration,1,1,2.090771,0.148306
[RU-INFO] Resources Stats,1,1,1.516063,0.095751,115224,0,0,0,1819,8,0,672,0,0,0,0,2240,46
[NT-INFO] Network Stats,1,1,ens4,297743653,307286,0,0,0,0,0,0,730044019,171535,0,0,0,0,0,0
[NT-INFO] Network Stats,1,1,lo,2338962,11474,0,0,0,0,0,0,2338962,11474,0,0,0,0,0,0
[PI-INFO] Paramount Iteration,0,1,2.113529,0.150456
[RU-INFO] Resources Stats,0,1,1.570709,0.063947,115272,0,0,0,1786,11,0,808,0,0,0,0,2224,63
[NT-INFO] Network Stats,0,1,ens4,297743653,307286,0,0,0,0,0,0,730044019,171535,0,0,0,0,0,0
[PI-INFO] Paramount Iteration,15,1,2.094108,0.150743
[RU-INFO] Resources Stats,15,1,1.549632,0.083441,115168,0,0,0,1827,7,0,440,0,0,0,0,2218,32
[NT-INFO] Network Stats,15,1,ens4,297743653,307286,0,0,0,0,0,0,730044019,171535,0,0,0,0,0,0
[NT-INFO] Network Stats,0,1,lo,2338962,11474,0,0,0,0,0,0,2338962,11474,0,0,0,0,0,0
[NT-INFO] Network Stats,15,1,lo,2338962,11474,0,0,0,0,0,0,2338962,11474,0,0,0,0,0,0
        2
[PI-INFO] Paramount Iteration,2,2,2.237759,0.150378
[PI-INFO] Paramount Iteration,7,2,2.232366,0.151476
[RU-INFO] Resources Stats,7,2,1.671692,0.087564,113336,0,0,0,1808,10,0,304,0,0,0,0,2223,31
[NT-INFO] Network Stats,7,2,ens4,297743849,307288,0,0,0,0,0,0,730044149,171536,0,0,0,0,0,0
[NT-INFO] Network Stats,7,2,lo,2338962,11474,0,0,0,0,0,0,2338962,11474,0,0,0,0,0,0
[RU-INFO] Resources Stats,2,2,1.667371,0.092408,113240,0,0,0,1788,9,0,1040,0,0,0,0,2238,29
[NT-INFO] Network Stats,2,2,ens4,297743849,307288,0,0,0,0,0,0,730044149,171536,0,0,0,0,0,0
[NT-INFO] Network Stats,2,2,lo,2338962,11474,0,0,0,0,0,0,2338962,11474,0,0,0,0,0,0
[PI-INFO] Paramount Iteration,10,2,2.228212,0.150658
[RU-INFO] Resources Stats,10,2,1.667609,0.091539,112788,0,0,0,1784,9,0,600,0,0,0,0,2214,29
[NT-INFO] Network Stats,10,2,ens4,297743849,307288,0,0,0,0,0,0,730044149,171536,0,0,0,0,0,0
[PI-INFO] Paramount Iteration,13,2,2.223125,0.150368
[PI-INFO] Paramount Iteration,5,2,2.236252,0.152727
[RU-INFO] Resources Stats,13,2,1.663956,0.096228,113272,0,0,0,1800,7,0,384,0,0,0,0,2222,35
[NT-INFO] Network Stats,13,2,ens4,297743849,307288,0,0,0,0,0,0,730044149,171536,0,0,0,0,0,0
[NT-INFO] Network Stats,13,2,lo,2338962,11474,0,0,0,0,0,0,2338962,11474,0,0,0,0,0,0
[RU-INFO] Resources Stats,5,2,1.655191,0.102954,113184,0,0,0,1807,10,0,472,0,0,0,0,2233,40
[PI-INFO] Paramount Iteration,9,2,2.230295,0.152678
[NT-INFO] Network Stats,5,2,ens4,297743849,307288,0,0,0,0,0,0,730044149,171536,0,0,0,0,0,0
[NT-INFO] Network Stats,5,2,lo,2338962,11474,0,0,0,0,0,0,2338962,11474,0,0,0,0,0,0
[RU-INFO] Resources Stats,9,2,1.663280,0.095958,115080,0,0,0,1827,5,0,208,0,0,0,0,2234,88
[NT-INFO] Network Stats,9,2,ens4,297743849,307288,0,0,0,0,0,0,730044149,171536,0,0,0,0,0,0
[NT-INFO] Network Stats,9,2,lo,2338962,11474,0,0,0,0,0,0,2338962,11474,0,0,0,0,0,0
[PI-INFO] Paramount Iteration,8,2,2.231668,0.152347
[RU-INFO] Resources Stats,8,2,1.639211,0.119650,117332,0,0,0,1840,5,0,152,0,0,0,0,2259,40
[NT-INFO] Network Stats,8,2,ens4,297743849,307288,0,0,0,0,0,0,730044149,171536,0,0,0,0,0,0
[NT-INFO] Network Stats,8,2,lo,2338962,11474,0,0,0,0,0,0,2338962,11474,0,0,0,0,0,0
[NT-INFO] Network Stats,10,2,lo,2338962,11474,0,0,0,0,0,0,2338962,11474,0,0,0,0,0,0
[PI-INFO] Paramount Iteration,12,2,2.225655,0.152084
[RU-INFO] Resources Stats,12,2,1.662443,0.096606,113056,0,0,0,1798,4,0,288,0,0,0,0,2202,22
[NT-INFO] Network Stats,12,2,ens4,297743849,307288,0,0,0,0,0,0,730044149,171536,0,0,0,0,0,0
[NT-INFO] Network Stats,12,2,lo,2338962,11474,0,0,0,0,0,0,2338962,11474,0,0,0,0,0,0
[PI-INFO] Paramount Iteration,6,2,2.235062,0.152425
[RU-INFO] Resources Stats,6,2,1.664540,0.096031,112844,0,0,0,1784,7,0,136,0,0,0,0,2225,31
[NT-INFO] Network Stats,6,2,ens4,297743849,307288,0,0,0,0,0,0,730044149,171536,0,0,0,0,0,0
[NT-INFO] Network Stats,6,2,lo,2338962,11474,0,0,0,0,0,0,2338962,11474,0,0,0,0,0,0
[PI-INFO] Paramount Iteration,14,2,2.222209,0.149581
[RU-INFO] Resources Stats,14,2,1.669928,0.088740,115592,0,0,0,1816,6,0,184,0,0,0,0,2202,46
[PI-INFO] Paramount Iteration,3,2,2.239793,0.152136
[NT-INFO] Network Stats,14,2,ens4,297743849,307288,0,0,0,0,0,0,730044149,171536,0,0,0,0,0,0
[NT-INFO] Network Stats,14,2,lo,2338962,11474,0,0,0,0,0,0,2338962,11474,0,0,0,0,0,0
[PI-INFO] Paramount Iteration,4,2,2.239283,0.153390
[RU-INFO] Resources Stats,3,2,1.658803,0.104176,114800,0,0,0,1787,7,0,416,0,0,0,0,2234,26
[NT-INFO] Network Stats,3,2,ens4,297743849,307288,0,0,0,0,0,0,730044149,171536,0,0,0,0,0,0
[NT-INFO] Network Stats,3,2,lo,2338962,11474,0,0,0,0,0,0,2338962,11474,0,0,0,0,0,0
[RU-INFO] Resources Stats,4,2,1.639406,0.118797,115124,0,0,0,1806,4,0,184,0,0,0,0,2217,39
[NT-INFO] Network Stats,4,2,ens4,297743849,307288,0,0,0,0,0,0,730044149,171536,0,0,0,0,0,0
[NT-INFO] Network Stats,4,2,lo,2338962,11474,0,0,0,0,0,0,2338962,11474,0,0,0,0,0,0
[PI-INFO] Paramount Iteration,11,2,2.228035,0.151950
[RU-INFO] Resources Stats,11,2,1.676870,0.083843,115232,0,0,0,1793,6,0,248,0,0,0,0,2227,36
[NT-INFO] Network Stats,11,2,ens4,297743849,307288,0,0,0,0,0,0,730044149,171536,0,0,0,0,0,0
[NT-INFO] Network Stats,11,2,lo,2338962,11474,0,0,0,0,0,0,2338962,11474,0,0,0,0,0,0
[PI-INFO] Paramount Iteration,1,2,2.242952,0.152181
[RU-INFO] Resources Stats,1,2,1.660020,0.103751,115224,0,0,0,1824,8,0,672,0,0,0,0,2240,53
[NT-INFO] Network Stats,1,2,ens4,297743849,307288,0,0,0,0,0,0,730044149,171536,0,0,0,0,0,0
[NT-INFO] Network Stats,1,2,lo,2338962,11474,0,0,0,0,0,0,2338962,11474,0,0,0,0,0,0
[PI-INFO] Paramount Iteration,0,2,2.263838,0.150309
[RU-INFO] Resources Stats,0,2,1.716587,0.068023,115272,0,0,0,1791,11,0,808,0,0,0,0,2224,68
[NT-INFO] Network Stats,0,2,ens4,297743849,307288,0,0,0,0,0,0,730044149,171536,0,0,0,0,0,0
[NT-INFO] Network Stats,0,2,lo,2338962,11474,0,0,0,0,0,0,2338962,11474,0,0,0,0,0,0
        3
[PI-INFO] Paramount Iteration,15,2,2.244836,0.150728
[RU-INFO] Resources Stats,15,2,1.696190,0.087596,115168,0,0,0,1828,7,0,440,0,0,0,0,2218,35
[NT-INFO] Network Stats,15,2,ens4,297743849,307288,0,0,0,0,0,0,730044149,171536,0,0,0,0,0,0
[NT-INFO] Network Stats,15,2,lo,2338962,11474,0,0,0,0,0,0,2338962,11474,0,0,0,0,0,0
[PI-INFO] Paramount Iteration,9,3,2.377205,0.146910
[RU-INFO] Resources Stats,9,3,1.797796,0.108108,115080,0,0,0,1835,5,0,208,0,0,0,0,2234,91
[PI-INFO] Paramount Iteration,4,3,2.386150,0.146867
[RU-INFO] Resources Stats,4,3,1.786076,0.118807,115124,0,0,0,1812,4,0,184,0,0,0,0,2217,44
[NT-INFO] Network Stats,4,3,ens4,297744045,307290,0,0,0,0,0,0,730044279,171537,0,0,0,0,0,0
[NT-INFO] Network Stats,4,3,lo,2338962,11474,0,0,0,0,0,0,2338962,11474,0,0,0,0,0,0
[PI-INFO] Paramount Iteration,2,3,2.386663,0.148904
[RU-INFO] Resources Stats,2,3,1.804088,0.104236,113596,0,0,0,1792,9,0,1040,0,0,0,0,2238,34
[NT-INFO] Network Stats,2,3,ens4,297744045,307290,0,0,0,0,0,0,730044279,171537,0,0,0,0,0,0
[NT-INFO] Network Stats,2,3,lo,2338962,11474,0,0,0,0,0,0,2338962,11474,0,0,0,0,0,0
[PI-INFO] Paramount Iteration,8,3,2.381388,0.149720
[RU-INFO] Resources Stats,8,3,1.776782,0.131761,117332,0,0,0,1848,5,0,152,0,0,0,0,2259,43
[NT-INFO] Network Stats,8,3,ens4,297744045,307290,0,0,0,0,0,0,730044279,171537,0,0,0,0,0,0
[NT-INFO] Network Stats,8,3,lo,2338962,11474,0,0,0,0,0,0,2338962,11474,0,0,0,0,0,0
[PI-INFO] Paramount Iteration,6,3,2.383156,0.148094
[RU-INFO] Resources Stats,6,3,1.796406,0.112025,113080,0,0,0,1790,7,0,136,0,0,0,0,2225,36
[NT-INFO] Network Stats,6,3,ens4,297744045,307290,0,0,0,0,0,0,730044279,171537,0,0,0,0,0,0
[NT-INFO] Network Stats,6,3,lo,2338962,11474,0,0,0,0,0,0,2338962,11474,0,0,0,0,0,0
[PI-INFO] Paramount Iteration,11,3,2.375860,0.147825
[RU-INFO] Resources Stats,11,3,1.804365,0.103790,115232,0,0,0,1801,6,0,248,0,0,0,0,2227,41
[NT-INFO] Network Stats,11,3,ens4,297744045,307290,0,0,0,0,0,0,730044279,171537,0,0,0,0,0,0
[NT-INFO] Network Stats,11,3,lo,2338962,11474,0,0,0,0,0,0,2338962,11474,0,0,0,0,0,0
[PI-INFO] Paramount Iteration,7,3,2.382205,0.149839
[RU-INFO] Resources Stats,7,3,1.809422,0.099637,113336,0,0,0,1814,10,0,304,0,0,0,0,2223,36
[NT-INFO] Network Stats,7,3,ens4,297744045,307290,0,0,0,0,0,0,730044279,171537,0,0,0,0,0,0
[NT-INFO] Network Stats,7,3,lo,2338962,11474,0,0,0,0,0,0,2338962,11474,0,0,0,0,0,0
[PI-INFO] Paramount Iteration,10,3,2.377059,0.148847
[RU-INFO] Resources Stats,10,3,1.800125,0.107529,112788,0,0,0,1791,9,0,600,0,0,0,0,2214,34
[NT-INFO] Network Stats,10,3,ens4,297744045,307290,0,0,0,0,0,0,730044279,171537,0,0,0,0,0,0
[NT-INFO] Network Stats,10,3,lo,2338962,11474,0,0,0,0,0,0,2338962,11474,0,0,0,0,0,0
[PI-INFO] Paramount Iteration,13,3,2.371984,0.148859
[RU-INFO] Resources Stats,13,3,1.804743,0.104274,113272,0,0,0,1808,7,0,384,0,0,0,0,2222,38
[NT-INFO] Network Stats,13,3,ens4,297744045,307290,0,0,0,0,0,0,730044279,171537,0,0,0,0,0,0
[NT-INFO] Network Stats,13,3,lo,2338962,11474,0,0,0,0,0,0,2338962,11474,0,0,0,0,0,0
[PI-INFO] Paramount Iteration,5,3,2.385840,0.149588
[RU-INFO] Resources Stats,5,3,1.796598,0.111048,113184,0,0,0,1813,10,0,472,0,0,0,0,2233,48
[NT-INFO] Network Stats,5,3,ens4,297744045,307290,0,0,0,0,0,0,730044279,171537,0,0,0,0,0,0
[NT-INFO] Network Stats,5,3,lo,2338962,11474,0,0,0,0,0,0,2338962,11474,0,0,0,0,0,0
[NT-INFO] Network Stats,9,3,ens4,297744045,307290,0,0,0,0,0,0,730044279,171537,0,0,0,0,0,0
[NT-INFO] Network Stats,9,3,lo,2338962,11474,0,0,0,0,0,0,2338962,11474,0,0,0,0,0,0
[PI-INFO] Paramount Iteration,14,3,2.371001,0.148792
[RU-INFO] Resources Stats,14,3,1.806525,0.100810,115592,0,0,0,1824,6,0,184,0,0,0,0,2202,49
[NT-INFO] Network Stats,14,3,ens4,297744045,307290,0,0,0,0,0,0,730044279,171537,0,0,0,0,0,0
[NT-INFO] Network Stats,14,3,lo,2338962,11474,0,0,0,0,0,0,2338962,11474,0,0,0,0,0,0
[PI-INFO] Paramount Iteration,12,3,2.375398,0.149743
[PI-INFO] Paramount Iteration,3,3,2.388747,0.148954
[RU-INFO] Resources Stats,12,3,1.799908,0.108719,113056,0,0,0,1805,4,0,288,0,0,0,0,2202,27
[NT-INFO] Network Stats,12,3,ens4,297744045,307290,0,0,0,0,0,0,730044279,171537,0,0,0,0,0,0
[NT-INFO] Network Stats,12,3,lo,2338962,11474,0,0,0,0,0,0,2338962,11474,0,0,0,0,0,0
[RU-INFO] Resources Stats,3,3,1.799588,0.112223,114800,0,0,0,1792,7,0,416,0,0,0,0,2234,31
[NT-INFO] Network Stats,3,3,ens4,297744045,307290,0,0,0,0,0,0,730044279,171537,0,0,0,0,0,0
[NT-INFO] Network Stats,3,3,lo,2338962,11474,0,0,0,0,0,0,2338962,11474,0,0,0,0,0,0
[PI-INFO] Paramount Iteration,1,3,2.392996,0.150044
[RU-INFO] Resources Stats,1,3,1.796996,0.116064,115224,0,0,0,1828,8,0,672,0,0,0,0,2240,65
[NT-INFO] Network Stats,1,3,ens4,297744045,307290,0,0,0,0,0,0,730044279,171537,0,0,0,0,0,0
[NT-INFO] Network Stats,1,3,lo,2338962,11474,0,0,0,0,0,0,2338962,11474,0,0,0,0,0,0
[PI-INFO] Paramount Iteration,0,3,2.412032,0.148194
[RU-INFO] Resources Stats,0,3,1.848467,0.084021,115636,0,0,0,1794,11,0,808,0,0,0,0,2224,74
[NT-INFO] Network Stats,0,3,ens4,297744045,307290,0,0,0,0,0,0,730044279,171537,0,0,0,0,0,0
[NT-INFO] Network Stats,0,3,lo,2338962,11474,0,0,0,0,0,0,2338962,11474,0,0,0,0,0,0
        4
[PI-INFO] Paramount Iteration,15,3,2.393255,0.148419
[RU-INFO] Resources Stats,15,3,1.840267,0.091615,115168,0,0,0,1836,7,0,440,0,0,0,0,2218,48
[NT-INFO] Network Stats,15,3,ens4,297744045,307290,0,0,0,0,0,0,730044279,171537,0,0,0,0,0,0
[NT-INFO] Network Stats,15,3,lo,2338962,11474,0,0,0,0,0,0,2338962,11474,0,0,0,0,0,0
[PI-INFO] Paramount Iteration,9,4,2.526629,0.149424
[PI-INFO] Paramount Iteration,7,4,2.529507,0.147302
[RU-INFO] Resources Stats,7,4,1.944753,0.111584,113336,0,0,0,1814,10,0,304,0,0,0,0,2223,40
[NT-INFO] Network Stats,7,4,ens4,297744241,307292,0,0,0,0,0,0,730044409,171538,0,0,0,0,0,0
[NT-INFO] Network Stats,7,4,lo,2338962,11474,0,0,0,0,0,0,2338962,11474,0,0,0,0,0,0
[RU-INFO] Resources Stats,9,4,1.918399,0.136170,115080,0,0,0,1836,5,0,208,0,0,0,0,2234,100
[PI-INFO] Paramount Iteration,8,4,2.528376,0.146988
[RU-INFO] Resources Stats,8,4,1.911822,0.143686,117332,0,0,0,1849,5,0,152,0,0,0,0,2259,47
[NT-INFO] Network Stats,8,4,ens4,297744241,307292,0,0,0,0,0,0,730044409,171538,0,0,0,0,0,0
[NT-INFO] Network Stats,8,4,lo,2338962,11474,0,0,0,0,0,0,2338962,11474,0,0,0,0,0,0
[NT-INFO] Network Stats,9,4,ens4,297744241,307292,0,0,0,0,0,0,730044409,171538,0,0,0,0,0,0
[NT-INFO] Network Stats,9,4,lo,2338962,11474,0,0,0,0,0,0,2338962,11474,0,0,0,0,0,0
[PI-INFO] Paramount Iteration,5,4,2.533458,0.147618
[RU-INFO] Resources Stats,5,4,1.932242,0.122996,113184,0,0,0,1814,10,0,472,0,0,0,0,2233,52
[NT-INFO] Network Stats,5,4,ens4,297744241,307292,0,0,0,0,0,0,730044409,171538,0,0,0,0,0,0
[NT-INFO] Network Stats,5,4,lo,2338962,11474,0,0,0,0,0,0,2338962,11474,0,0,0,0,0,0
[PI-INFO] Paramount Iteration,6,4,2.531937,0.148781
[RU-INFO] Resources Stats,6,4,1.941120,0.116066,113080,0,0,0,1791,7,0,136,0,0,0,0,2225,40
[PI-INFO] Paramount Iteration,10,4,2.525919,0.148860
[RU-INFO] Resources Stats,10,4,1.940905,0.115577,113180,0,0,0,1792,9,0,600,0,0,0,0,2214,38
[NT-INFO] Network Stats,10,4,ens4,297744241,307292,0,0,0,0,0,0,730044409,171538,0,0,0,0,0,0
[NT-INFO] Network Stats,10,4,lo,2338962,11474,0,0,0,0,0,0,2338962,11474,0,0,0,0,0,0
[NT-INFO] Network Stats,6,4,ens4,297744241,307292,0,0,0,0,0,0,730044409,171538,0,0,0,0,0,0
[PI-INFO] Paramount Iteration,12,4,2.522949,0.147551
[NT-INFO] Network Stats,6,4,lo,2338962,11474,0,0,0,0,0,0,2338962,11474,0,0,0,0,0,0
[PI-INFO] Paramount Iteration,13,4,2.520873,0.148889
[RU-INFO] Resources Stats,12,4,1.931333,0.124731,113056,0,0,0,1806,4,0,288,0,0,0,0,2202,31
[NT-INFO] Network Stats,12,4,ens4,297744241,307292,0,0,0,0,0,0,730044409,171538,0,0,0,0,0,0
[NT-INFO] Network Stats,12,4,lo,2338962,11474,0,0,0,0,0,0,2338962,11474,0,0,0,0,0,0
[RU-INFO] Resources Stats,13,4,1.941509,0.116330,113272,0,0,0,1808,7,0,384,0,0,0,0,2222,46
[NT-INFO] Network Stats,13,4,ens4,297744241,307292,0,0,0,0,0,0,730044409,171538,0,0,0,0,0,0
[NT-INFO] Network Stats,13,4,lo,2338962,11474,0,0,0,0,0,0,2338962,11474,0,0,0,0,0,0
[PI-INFO] Paramount Iteration,11,4,2.524724,0.148864
[RU-INFO] Resources Stats,11,4,1.937172,0.119825,115232,0,0,0,1801,6,0,248,0,0,0,0,2227,45
[NT-INFO] Network Stats,11,4,ens4,297744241,307292,0,0,0,0,0,0,730044409,171538,0,0,0,0,0,0
[NT-INFO] Network Stats,11,4,lo,2338962,11474,0,0,0,0,0,0,2338962,11474,0,0,0,0,0,0
[PI-INFO] Paramount Iteration,4,4,2.536786,0.150636
[PI-INFO] Paramount Iteration,2,4,2.537429,0.150766
[RU-INFO] Resources Stats,2,4,1.938652,0.120413,113596,0,0,0,1794,9,0,1040,0,0,0,0,2238,38
[NT-INFO] Network Stats,2,4,ens4,297744241,307292,0,0,0,0,0,0,730044409,171538,0,0,0,0,0,0
[NT-INFO] Network Stats,2,4,lo,2338962,11474,0,0,0,0,0,0,2338962,11474,0,0,0,0,0,0
[RU-INFO] Resources Stats,4,4,1.916613,0.138885,115124,0,0,0,1813,4,0,184,0,0,0,0,2217,48
[NT-INFO] Network Stats,4,4,ens4,297744241,307292,0,0,0,0,0,0,730044409,171538,0,0,0,0,0,0
[PI-INFO] Paramount Iteration,14,4,2.520160,0.149159
[NT-INFO] Network Stats,4,4,lo,2338962,11474,0,0,0,0,0,0,2338962,11474,0,0,0,0,0,0
[RU-INFO] Resources Stats,14,4,1.947598,0.108871,115592,0,0,0,1824,6,0,184,0,0,0,0,2202,53
[NT-INFO] Network Stats,14,4,ens4,297744241,307292,0,0,0,0,0,0,730044409,171538,0,0,0,0,0,0
[NT-INFO] Network Stats,14,4,lo,2338962,11474,0,0,0,0,0,0,2338962,11474,0,0,0,0,0,0
[PI-INFO] Paramount Iteration,3,4,2.538071,0.149324
[RU-INFO] Resources Stats,3,4,1.936805,0.124051,114800,0,0,0,1793,7,0,416,0,0,0,0,2234,40
[NT-INFO] Network Stats,3,4,ens4,297744241,307292,0,0,0,0,0,0,730044409,171538,0,0,0,0,0,0
[NT-INFO] Network Stats,3,4,lo,2338962,11474,0,0,0,0,0,0,2338962,11474,0,0,0,0,0,0
[PI-INFO] Paramount Iteration,1,4,2.541121,0.148125
[RU-INFO] Resources Stats,1,4,1.940903,0.120055,115224,0,0,0,1829,8,0,672,0,0,0,0,2240,69
[NT-INFO] Network Stats,1,4,ens4,297744241,307292,0,0,0,0,0,0,730044409,171538,0,0,0,0,0,0
[NT-INFO] Network Stats,1,4,lo,2338962,11474,0,0,0,0,0,0,2338962,11474,0,0,0,0,0,0
[PI-INFO] Paramount Iteration,0,4,2.562265,0.150233
[RU-INFO] Resources Stats,0,4,1.978433,0.103917,115636,0,0,0,1795,11,0,808,0,0,0,0,2224,83
[NT-INFO] Network Stats,0,4,ens4,297744241,307292,0,0,0,0,0,0,730044409,171538,0,0,0,0,0,0
[NT-INFO] Network Stats,0,4,lo,2338962,11474,0,0,0,0,0,0,2338962,11474,0,0,0,0,0,0
        5
[PI-INFO] Paramount Iteration,15,4,2.543334,0.150079
[RU-INFO] Resources Stats,15,4,1.978253,0.103490,115168,0,0,0,1836,7,0,440,0,0,0,0,2218,52
[NT-INFO] Network Stats,15,4,ens4,297744241,307292,0,0,0,0,0,0,730044409,171538,0,0,0,0,0,0
[NT-INFO] Network Stats,15,4,lo,2338962,11474,0,0,0,0,0,0,2338962,11474,0,0,0,0,0,0
[PI-INFO] Paramount Iteration,9,5,2.678884,0.152255
[RU-INFO] Resources Stats,9,5,2.062018,0.144141,115080,0,0,0,1839,5,0,208,0,0,0,0,2234,105
[NT-INFO] Network Stats,9,5,ens4,297744437,307294,0,0,0,0,0,0,730044539,171539,0,0,0,0,0,0
[NT-INFO] Network Stats,9,5,lo,2338962,11474,0,0,0,0,0,0,2338962,11474,0,0,0,0,0,0
[PI-INFO] Paramount Iteration,8,5,2.680774,0.152398
[RU-INFO] Resources Stats,8,5,2.052171,0.155709,117332,0,0,0,1852,5,0,152,0,0,0,0,2259,51
[NT-INFO] Network Stats,8,5,ens4,297744437,307294,0,0,0,0,0,0,730044539,171539,0,0,0,0,0,0
[NT-INFO] Network Stats,8,5,lo,2338962,11474,0,0,0,0,0,0,2338962,11474,0,0,0,0,0,0
[PI-INFO] Paramount Iteration,7,5,2.682088,0.152581
[RU-INFO] Resources Stats,7,5,2.081303,0.127589,113336,0,0,0,1818,10,0,304,0,0,0,0,2223,44
[PI-INFO] Paramount Iteration,5,5,2.685573,0.152115
[RU-INFO] Resources Stats,5,5,2.076178,0.131001,113184,0,0,0,1817,10,0,472,0,0,0,0,2233,56
[PI-INFO] Paramount Iteration,10,5,2.677763,0.151844
[RU-INFO] Resources Stats,10,5,2.088627,0.119577,113180,0,0,0,1796,9,0,600,0,0,0,0,2214,51
[NT-INFO] Network Stats,10,5,ens4,297744437,307294,0,0,0,0,0,0,730044539,171539,0,0,0,0,0,0
[NT-INFO] Network Stats,7,5,ens4,297744437,307294,0,0,0,0,0,0,730044539,171539,0,0,0,0,0,0
[NT-INFO] Network Stats,10,5,lo,2338962,11474,0,0,0,0,0,0,2338962,11474,0,0,0,0,0,0
[NT-INFO] Network Stats,5,5,ens4,297744437,307294,0,0,0,0,0,0,730044539,171539,0,0,0,0,0,0
[NT-INFO] Network Stats,5,5,lo,2338962,11474,0,0,0,0,0,0,2338962,11474,0,0,0,0,0,0
[PI-INFO] Paramount Iteration,12,5,2.674714,0.151765
[RU-INFO] Resources Stats,12,5,2.078968,0.128678,113056,0,0,0,1809,4,0,288,0,0,0,0,2202,40
[NT-INFO] Network Stats,12,5,ens4,297744437,307294,0,0,0,0,0,0,730044539,171539,0,0,0,0,0,0
[NT-INFO] Network Stats,12,5,lo,2338962,11474,0,0,0,0,0,0,2338962,11474,0,0,0,0,0,0
[NT-INFO] Network Stats,7,5,lo,2338962,11474,0,0,0,0,0,0,2338962,11474,0,0,0,0,0,0
[PI-INFO] Paramount Iteration,6,5,2.684064,0.152127
[PI-INFO] Paramount Iteration,13,5,2.672735,0.151862
[RU-INFO] Resources Stats,6,5,2.093015,0.116066,113080,0,0,0,1794,7,0,136,0,0,0,0,2225,43
[RU-INFO] Resources Stats,13,5,2.085181,0.124308,113272,0,0,0,1812,7,0,384,0,0,0,0,2222,50
[NT-INFO] Network Stats,13,5,ens4,297744437,307294,0,0,0,0,0,0,730044539,171539,0,0,0,0,0,0
[NT-INFO] Network Stats,13,5,lo,2338962,11474,0,0,0,0,0,0,2338962,11474,0,0,0,0,0,0
[PI-INFO] Paramount Iteration,4,5,2.687625,0.150839
[NT-INFO] Network Stats,6,5,ens4,297744437,307294,0,0,0,0,0,0,730044539,171539,0,0,0,0,0,0
[RU-INFO] Resources Stats,4,5,2.059315,0.146810,115124,0,0,0,1816,4,0,184,0,0,0,0,2217,52
[NT-INFO] Network Stats,4,5,ens4,297744437,307294,0,0,0,0,0,0,730044539,171539,0,0,0,0,0,0
[NT-INFO] Network Stats,4,5,lo,2338962,11474,0,0,0,0,0,0,2338962,11474,0,0,0,0,0,0
[NT-INFO] Network Stats,6,5,lo,2338962,11474,0,0,0,0,0,0,2338962,11474,0,0,0,0,0,0
[PI-INFO] Paramount Iteration,11,5,2.676754,0.152030
[RU-INFO] Resources Stats,11,5,2.077024,0.131811,115232,0,0,0,1806,6,0,248,0,0,0,0,2227,49
[NT-INFO] Network Stats,11,5,ens4,297744437,307294,0,0,0,0,0,0,730044539,171539,0,0,0,0,0,0
[NT-INFO] Network Stats,11,5,lo,2338962,11474,0,0,0,0,0,0,2338962,11474,0,0,0,0,0,0
[PI-INFO] Paramount Iteration,2,5,2.689079,0.151650
[RU-INFO] Resources Stats,2,5,2.078290,0.132400,113596,0,0,0,1797,9,0,1040,0,0,0,0,2238,42
[NT-INFO] Network Stats,2,5,ens4,297744437,307294,0,0,0,0,0,0,730044539,171539,0,0,0,0,0,0
[NT-INFO] Network Stats,2,5,lo,2338962,11474,0,0,0,0,0,0,2338962,11474,0,0,0,0,0,0
[PI-INFO] Paramount Iteration,14,5,2.673508,0.153348
[RU-INFO] Resources Stats,14,5,2.100684,0.108871,115592,0,0,0,1828,6,0,184,0,0,0,0,2202,61
[NT-INFO] Network Stats,14,5,ens4,297744437,307294,0,0,0,0,0,0,730044539,171539,0,0,0,0,0,0
[NT-INFO] Network Stats,14,5,lo,2338962,11474,0,0,0,0,0,0,2338962,11474,0,0,0,0,0,0
[PI-INFO] Paramount Iteration,3,5,2.692282,0.154211
[RU-INFO] Resources Stats,3,5,2.074687,0.140181,115096,0,0,0,1796,7,0,416,0,0,0,0,2234,44
[NT-INFO] Network Stats,3,5,ens4,297744437,307294,0,0,0,0,0,0,730044539,171539,0,0,0,0,0,0
[NT-INFO] Network Stats,3,5,lo,2338962,11474,0,0,0,0,0,0,2338962,11474,0,0,0,0,0,0
[PI-INFO] Paramount Iteration,1,5,2.695879,0.154758
[RU-INFO] Resources Stats,1,5,2.079528,0.135969,115224,0,0,0,1832,8,0,672,0,0,0,0,2240,73
[NT-INFO] Network Stats,1,5,ens4,297744437,307294,0,0,0,0,0,0,730044539,171539,0,0,0,0,0,0
[NT-INFO] Network Stats,1,5,lo,2338962,11474,0,0,0,0,0,0,2338962,11474,0,0,0,0,0,0
[PI-INFO] Paramount Iteration,0,5,2.714010,0.151745
[RU-INFO] Resources Stats,0,5,2.113884,0.119880,115636,0,0,0,1799,11,0,808,0,0,0,0,2224,88
[NT-INFO] Network Stats,0,5,ens4,297744437,307294,0,0,0,0,0,0,730044539,171539,0,0,0,0,0,0
[NT-INFO] Network Stats,0,5,lo,2338962,11474,0,0,0,0,0,0,2338962,11474,0,0,0,0,0,0
        6
[PI-INFO] Paramount Iteration,15,5,2.694990,0.151656
[RU-INFO] Resources Stats,15,5,2.125691,0.107478,115168,0,0,0,1840,7,0,440,0,0,0,0,2218,56
[NT-INFO] Network Stats,15,5,ens4,297744437,307294,0,0,0,0,0,0,730044539,171539,0,0,0,0,0,0
[NT-INFO] Network Stats,15,5,lo,2338962,11474,0,0,0,0,0,0,2338962,11474,0,0,0,0,0,0
[PI-INFO] Paramount Iteration,6,6,2.832455,0.148391
[RU-INFO] Resources Stats,6,6,2.233149,0.124063,113080,0,0,0,1794,7,0,136,0,0,0,0,2225,47
[NT-INFO] Network Stats,6,6,ens4,297744633,307296,0,0,0,0,0,0,730044669,171540,0,0,0,0,0,0
[PI-INFO] Paramount Iteration,5,6,2.834405,0.148832
[PI-INFO] Paramount Iteration,9,6,2.828484,0.149600
[NT-INFO] Network Stats,6,6,lo,2338962,11474,0,0,0,0,0,0,2338962,11474,0,0,0,0,0,0
[RU-INFO] Resources Stats,5,6,2.212949,0.143027,113184,0,0,0,1817,10,0,472,0,0,0,0,2233,58
[NT-INFO] Network Stats,5,6,ens4,297744633,307296,0,0,0,0,0,0,730044669,171540,0,0,0,0,0,0
[NT-INFO] Network Stats,5,6,lo,2338962,11474,0,0,0,0,0,0,2338962,11474,0,0,0,0,0,0
[PI-INFO] Paramount Iteration,4,6,2.836324,0.148699
[RU-INFO] Resources Stats,9,6,2.199000,0.156213,115080,0,0,0,1839,5,0,208,0,0,0,0,2234,111
[NT-INFO] Network Stats,9,6,ens4,297744633,307296,0,0,0,0,0,0,730044669,171540,0,0,0,0,0,0
[NT-INFO] Network Stats,9,6,lo,2338962,11474,0,0,0,0,0,0,2338962,11474,0,0,0,0,0,0
[PI-INFO] Paramount Iteration,12,6,2.823722,0.149008
[RU-INFO] Resources Stats,12,6,2.207834,0.148797,113056,0,0,0,1809,4,0,288,0,0,0,0,2202,44
[NT-INFO] Network Stats,12,6,ens4,297744633,307296,0,0,0,0,0,0,730044669,171540,0,0,0,0,0,0
[NT-INFO] Network Stats,12,6,lo,2338962,11474,0,0,0,0,0,0,2338962,11474,0,0,0,0,0,0
[RU-INFO] Resources Stats,4,6,2.199914,0.154867,115124,0,0,0,1816,4,0,184,0,0,0,0,2217,56
[NT-INFO] Network Stats,4,6,ens4,297744633,307296,0,0,0,0,0,0,730044669,171540,0,0,0,0,0,0
[NT-INFO] Network Stats,4,6,lo,2338962,11474,0,0,0,0,0,0,2338962,11474,0,0,0,0,0,0
[PI-INFO] Paramount Iteration,7,6,2.832115,0.150027
[RU-INFO] Resources Stats,7,6,2.210912,0.147660,113336,0,0,0,1818,10,0,304,0,0,0,0,2223,48
[NT-INFO] Network Stats,7,6,ens4,297744633,307296,0,0,0,0,0,0,730044669,171540,0,0,0,0,0,0
[NT-INFO] Network Stats,7,6,lo,2338962,11474,0,0,0,0,0,0,2338962,11474,0,0,0,0,0,0
[PI-INFO] Paramount Iteration,10,6,2.828112,0.150349
[RU-INFO] Resources Stats,10,6,2.227005,0.131469,113180,0,0,0,1796,9,0,600,0,0,0,0,2214,58
[PI-INFO] Paramount Iteration,11,6,2.826199,0.149445
[NT-INFO] Network Stats,10,6,ens4,297744633,307296,0,0,0,0,0,0,730044669,171540,0,0,0,0,0,0
[NT-INFO] Network Stats,10,6,lo,2338962,11474,0,0,0,0,0,0,2338962,11474,0,0,0,0,0,0
[RU-INFO] Resources Stats,11,6,2.214433,0.143638,115232,0,0,0,1806,6,0,248,0,0,0,0,2227,54
[PI-INFO] Paramount Iteration,2,6,2.838376,0.149297
[NT-INFO] Network Stats,11,6,ens4,297744633,307296,0,0,0,0,0,0,730044669,171540,0,0,0,0,0,0
[NT-INFO] Network Stats,11,6,lo,2338962,11474,0,0,0,0,0,0,2338962,11474,0,0,0,0,0,0
[RU-INFO] Resources Stats,2,6,2.207489,0.152240,113596,0,0,0,1797,9,0,1040,0,0,0,0,2238,50
[NT-INFO] Network Stats,2,6,ens4,297744633,307296,0,0,0,0,0,0,730044669,171540,0,0,0,0,0,0
[NT-INFO] Network Stats,2,6,lo,2338962,11474,0,0,0,0,0,0,2338962,11474,0,0,0,0,0,0
[PI-INFO] Paramount Iteration,14,6,2.821218,0.147710
[RU-INFO] Resources Stats,14,6,2.232341,0.124689,115592,0,0,0,1828,6,0,184,0,0,0,0,2202,66
[NT-INFO] Network Stats,14,6,ens4,297744633,307296,0,0,0,0,0,0,730044669,171540,0,0,0,0,0,0
[NT-INFO] Network Stats,14,6,lo,2338962,11474,0,0,0,0,0,0,2338962,11474,0,0,0,0,0,0
[PI-INFO] Paramount Iteration,8,6,2.831958,0.151184
[PI-INFO] Paramount Iteration,13,6,2.823543,0.150808
[RU-INFO] Resources Stats,8,6,2.195376,0.163655,117332,0,0,0,1853,5,0,152,0,0,0,0,2259,53
[NT-INFO] Network Stats,8,6,ens4,297744633,307296,0,0,0,0,0,0,730044669,171540,0,0,0,0,0,0
[NT-INFO] Network Stats,8,6,lo,2338962,11474,0,0,0,0,0,0,2338962,11474,0,0,0,0,0,0
[RU-INFO] Resources Stats,13,6,2.232011,0.128230,113272,0,0,0,1812,7,0,384,0,0,0,0,2222,55
[NT-INFO] Network Stats,13,6,ens4,297744633,307296,0,0,0,0,0,0,730044669,171540,0,0,0,0,0,0
[NT-INFO] Network Stats,13,6,lo,2338962,11474,0,0,0,0,0,0,2338962,11474,0,0,0,0,0,0
[PI-INFO] Paramount Iteration,3,6,2.839320,0.147038
[RU-INFO] Resources Stats,3,6,2.213583,0.148105,115096,0,0,0,1796,7,0,416,0,0,0,0,2234,48
[NT-INFO] Network Stats,3,6,ens4,297744633,307296,0,0,0,0,0,0,730044669,171540,0,0,0,0,0,0
[NT-INFO] Network Stats,3,6,lo,2338962,11474,0,0,0,0,0,0,2338962,11474,0,0,0,0,0,0
[PI-INFO] Paramount Iteration,1,6,2.841692,0.145813
[RU-INFO] Resources Stats,1,6,2.216986,0.144064,115224,0,0,0,1832,8,0,672,0,0,0,0,2240,78
[NT-INFO] Network Stats,1,6,ens4,297744633,307296,0,0,0,0,0,0,730044669,171540,0,0,0,0,0,0
[NT-INFO] Network Stats,1,6,lo,2338962,11474,0,0,0,0,0,0,2338962,11474,0,0,0,0,0,0
[PI-INFO] Paramount Iteration,0,6,2.862407,0.148397
[RU-INFO] Resources Stats,0,6,2.241886,0.139868,115636,0,0,0,1799,11,0,808,0,0,0,0,2224,101
[NT-INFO] Network Stats,0,6,ens4,297744633,307296,0,0,0,0,0,0,730044669,171540,0,0,0,0,0,0
[NT-INFO] Network Stats,0,6,lo,2338962,11474,0,0,0,0,0,0,2338962,11474,0,0,0,0,0,0
        7
[PI-INFO] Paramount Iteration,15,6,2.843257,0.148267
[RU-INFO] Resources Stats,15,6,2.257769,0.123440,115168,0,0,0,1840,7,0,440,0,0,0,0,2218,61
[NT-INFO] Network Stats,15,6,ens4,297744633,307296,0,0,0,0,0,0,730044669,171540,0,0,0,0,0,0
[NT-INFO] Network Stats,15,6,lo,2338962,11474,0,0,0,0,0,0,2338962,11474,0,0,0,0,0,0
[PI-INFO] Paramount Iteration,9,7,2.975782,0.147298
[RU-INFO] Resources Stats,9,7,2.333964,0.168141,115080,0,0,0,1857,5,0,208,0,0,0,0,2234,119
[NT-INFO] Network Stats,9,7,ens4,297744829,307298,0,0,0,0,0,0,730044799,171541,0,0,0,0,0,0
[NT-INFO] Network Stats,9,7,lo,2338962,11474,0,0,0,0,0,0,2338962,11474,0,0,0,0,0,0
[PI-INFO] Paramount Iteration,5,7,2.982251,0.147846
[RU-INFO] Resources Stats,5,7,2.348746,0.154993,113184,0,0,0,1836,10,0,472,0,0,0,0,2233,65
[NT-INFO] Network Stats,5,7,ens4,297744829,307298,0,0,0,0,0,0,730044799,171541,0,0,0,0,0,0
[NT-INFO] Network Stats,5,7,lo,2338962,11474,0,0,0,0,0,0,2338962,11474,0,0,0,0,0,0
[PI-INFO] Paramount Iteration,12,7,2.971424,0.147702
[RU-INFO] Resources Stats,12,7,2.347537,0.156770,113056,0,0,0,1828,4,0,288,0,0,0,0,2202,49
[NT-INFO] Network Stats,12,7,ens4,297744829,307298,0,0,0,0,0,0,730044799,171541,0,0,0,0,0,0
[NT-INFO] Network Stats,12,7,lo,2338962,11474,0,0,0,0,0,0,2338962,11474,0,0,0,0,0,0
[PI-INFO] Paramount Iteration,13,7,2.969380,0.145837
[PI-INFO] Paramount Iteration,10,7,2.974762,0.146650
[RU-INFO] Resources Stats,10,7,2.365419,0.139611,113180,0,0,0,1815,9,0,600,0,0,0,0,2214,68
[NT-INFO] Network Stats,10,7,ens4,297744829,307298,0,0,0,0,0,0,730044799,171541,0,0,0,0,0,0
[NT-INFO] Network Stats,10,7,lo,2338962,11474,0,0,0,0,0,0,2338962,11474,0,0,0,0,0,0
[RU-INFO] Resources Stats,13,7,2.369534,0.136318,113272,0,0,0,1831,7,0,384,0,0,0,0,2222,59
[NT-INFO] Network Stats,13,7,ens4,297744829,307298,0,0,0,0,0,0,730044799,171541,0,0,0,0,0,0
[NT-INFO] Network Stats,13,7,lo,2338962,11474,0,0,0,0,0,0,2338962,11474,0,0,0,0,0,0
[PI-INFO] Paramount Iteration,6,7,2.980972,0.148517
[PI-INFO] Paramount Iteration,8,7,2.978121,0.146163
[RU-INFO] Resources Stats,8,7,2.333311,0.171802,117880,0,0,0,1872,5,0,152,0,0,0,0,2259,55
[NT-INFO] Network Stats,8,7,ens4,297744829,307298,0,0,0,0,0,0,730044799,171541,0,0,0,0,0,0
[NT-INFO] Network Stats,8,7,lo,2338962,11474,0,0,0,0,0,0,2338962,11474,0,0,0,0,0,0
[RU-INFO] Resources Stats,6,7,2.369397,0.136080,113080,0,0,0,1813,7,0,136,0,0,0,0,2225,51
[NT-INFO] Network Stats,6,7,ens4,297744829,307298,0,0,0,0,0,0,730044799,171541,0,0,0,0,0,0
[NT-INFO] Network Stats,6,7,lo,2338962,11474,0,0,0,0,0,0,2338962,11474,0,0,0,0,0,0
[PI-INFO] Paramount Iteration,7,7,2.979794,0.147679
[RU-INFO] Resources Stats,7,7,2.342119,0.163868,113336,0,0,0,1837,10,0,304,0,0,0,0,2223,53
[PI-INFO] Paramount Iteration,4,7,2.984905,0.148581
[NT-INFO] Network Stats,7,7,ens4,297744829,307298,0,0,0,0,0,0,730044799,171541,0,0,0,0,0,0
[NT-INFO] Network Stats,7,7,lo,2338962,11474,0,0,0,0,0,0,2338962,11474,0,0,0,0,0,0
[PI-INFO] Paramount Iteration,3,7,2.985597,0.146277
[RU-INFO] Resources Stats,4,7,2.336239,0.166874,115124,0,0,0,1835,4,0,184,0,0,0,0,2217,61
[NT-INFO] Network Stats,4,7,ens4,297744829,307298,0,0,0,0,0,0,730044799,171541,0,0,0,0,0,0
[PI-INFO] Paramount Iteration,2,7,2.985628,0.147252
[RU-INFO] Resources Stats,2,7,2.342268,0.164440,113596,0,0,0,1816,9,0,1040,0,0,0,0,2238,55
[NT-INFO] Network Stats,2,7,ens4,297744829,307298,0,0,0,0,0,0,730044799,171541,0,0,0,0,0,0
[NT-INFO] Network Stats,2,7,lo,2338962,11474,0,0,0,0,0,0,2338962,11474,0,0,0,0,0,0
[NT-INFO] Network Stats,4,7,lo,2338962,11474,0,0,0,0,0,0,2338962,11474,0,0,0,0,0,0
[RU-INFO] Resources Stats,3,7,2.347500,0.160238,115096,0,0,0,1815,7,0,416,0,0,0,0,2234,54
[NT-INFO] Network Stats,3,7,ens4,297744829,307298,0,0,0,0,0,0,730044799,171541,0,0,0,0,0,0
[NT-INFO] Network Stats,3,7,lo,2338962,11474,0,0,0,0,0,0,2338962,11474,0,0,0,0,0,0
[PI-INFO] Paramount Iteration,11,7,2.973888,0.147689
[RU-INFO] Resources Stats,11,7,2.349992,0.155602,115232,0,0,0,1825,6,0,248,0,0,0,0,2227,59
[NT-INFO] Network Stats,11,7,ens4,297744829,307298,0,0,0,0,0,0,730044799,171541,0,0,0,0,0,0
[NT-INFO] Network Stats,11,7,lo,2338962,11474,0,0,0,0,0,0,2338962,11474,0,0,0,0,0,0
[PI-INFO] Paramount Iteration,14,7,2.968756,0.147538
[RU-INFO] Resources Stats,14,7,2.371703,0.132654,115592,0,0,0,1847,6,0,184,0,0,0,0,2202,74
[NT-INFO] Network Stats,14,7,ens4,297744829,307298,0,0,0,0,0,0,730044799,171541,0,0,0,0,0,0
[NT-INFO] Network Stats,14,7,lo,2338962,11474,0,0,0,0,0,0,2338962,11474,0,0,0,0,0,0
[PI-INFO] Paramount Iteration,1,7,2.988209,0.146517
[RU-INFO] Resources Stats,1,7,2.355148,0.152203,115224,0,0,0,1851,8,0,672,0,0,0,0,2240,82
[NT-INFO] Network Stats,1,7,ens4,297744829,307298,0,0,0,0,0,0,730044799,171541,0,0,0,0,0,0
[NT-INFO] Network Stats,1,7,lo,2338962,11474,0,0,0,0,0,0,2338962,11474,0,0,0,0,0,0
[PI-INFO] Paramount Iteration,0,7,3.009798,0.147391
[RU-INFO] Resources Stats,0,7,2.376757,0.152048,115636,0,0,0,1818,11,0,808,0,0,0,0,2224,106
[NT-INFO] Network Stats,0,7,ens4,297744829,307298,0,0,0,0,0,0,730044799,171541,0,0,0,0,0,0
[NT-INFO] Network Stats,0,7,lo,2338962,11474,0,0,0,0,0,0,2338962,11474,0,0,0,0,0,0
        8
[PI-INFO] Paramount Iteration,15,7,2.991313,0.148056
[RU-INFO] Resources Stats,15,7,2.397662,0.131433,115168,0,0,0,1859,7,0,440,0,0,0,0,2218,65
[NT-INFO] Network Stats,15,7,ens4,297744829,307298,0,0,0,0,0,0,730044799,171541,0,0,0,0,0,0
[NT-INFO] Network Stats,15,7,lo,2338962,11474,0,0,0,0,0,0,2338962,11474,0,0,0,0,0,0
[PI-INFO] Paramount Iteration,9,8,3.125459,0.149677
[RU-INFO] Resources Stats,9,8,2.475259,0.176232,115680,0,0,0,1858,5,0,208,0,0,0,0,2234,123
[NT-INFO] Network Stats,9,8,ens4,297744829,307298,0,0,0,0,0,0,730044799,171541,0,0,0,0,0,0
[NT-INFO] Network Stats,9,8,lo,2338962,11474,0,0,0,0,0,0,2338962,11474,0,0,0,0,0,0
[PI-INFO] Paramount Iteration,7,8,3.128393,0.148599
[RU-INFO] Resources Stats,7,8,2.474775,0.179620,113336,0,0,0,1837,10,0,304,0,0,0,0,2223,61
[NT-INFO] Network Stats,7,8,ens4,297744829,307298,0,0,0,0,0,0,730044799,171541,0,0,0,0,0,0
[NT-INFO] Network Stats,7,8,lo,2338962,11474,0,0,0,0,0,0,2338962,11474,0,0,0,0,0,0
[PI-INFO] Paramount Iteration,8,8,3.127350,0.149229
[RU-INFO] Resources Stats,8,8,2.470707,0.183606,117880,0,0,0,1872,5,0,152,0,0,0,0,2259,59
[NT-INFO] Network Stats,8,8,ens4,297744829,307298,0,0,0,0,0,0,730044799,171541,0,0,0,0,0,0
[NT-INFO] Network Stats,8,8,lo,2338962,11474,0,0,0,0,0,0,2338962,11474,0,0,0,0,0,0
[PI-INFO] Paramount Iteration,6,8,3.130293,0.149321
[RU-INFO] Resources Stats,6,8,2.510613,0.143920,113080,0,0,0,1813,7,0,136,0,0,0,0,2225,55
[NT-INFO] Network Stats,6,8,ens4,297744829,307298,0,0,0,0,0,0,730044799,171541,0,0,0,0,0,0
[NT-INFO] Network Stats,6,8,lo,2338962,11474,0,0,0,0,0,0,2338962,11474,0,0,0,0,0,0
[PI-INFO] Paramount Iteration,4,8,3.134320,0.149415
[RU-INFO] Resources Stats,4,8,2.469762,0.182651,115124,0,0,0,1835,4,0,184,0,0,0,0,2217,64
[NT-INFO] Network Stats,4,8,ens4,297744829,307298,0,0,0,0,0,0,730044799,171541,0,0,0,0,0,0
[NT-INFO] Network Stats,4,8,lo,2338962,11474,0,0,0,0,0,0,2338962,11474,0,0,0,0,0,0
[PI-INFO] Paramount Iteration,5,8,3.133013,0.150762
[PI-INFO] Paramount Iteration,10,8,3.125141,0.150379
[RU-INFO] Resources Stats,10,8,2.503824,0.151505,113180,0,0,0,1816,9,0,600,0,0,0,0,2214,77
[NT-INFO] Network Stats,10,8,ens4,297744829,307298,0,0,0,0,0,0,730044799,171541,0,0,0,0,0,0
[NT-INFO] Network Stats,10,8,lo,2338962,11474,0,0,0,0,0,0,2338962,11474,0,0,0,0,0,0
[PI-INFO] Paramount Iteration,13,8,3.119949,0.150569
[RU-INFO] Resources Stats,13,8,2.512017,0.144230,113272,0,0,0,1831,7,0,384,0,0,0,0,2222,61
[NT-INFO] Network Stats,13,8,ens4,297744829,307298,0,0,0,0,0,0,730044799,171541,0,0,0,0,0,0
[NT-INFO] Network Stats,13,8,lo,2338962,11474,0,0,0,0,0,0,2338962,11474,0,0,0,0,0,0
[RU-INFO] Resources Stats,5,8,2.483513,0.170865,113184,0,0,0,1836,10,0,472,0,0,0,0,2233,67
[NT-INFO] Network Stats,5,8,ens4,297744829,307298,0,0,0,0,0,0,730044799,171541,0,0,0,0,0,0
[NT-INFO] Network Stats,5,8,lo,2338962,11474,0,0,0,0,0,0,2338962,11474,0,0,0,0,0,0
[PI-INFO] Paramount Iteration,12,8,3.122560,0.151136
[PI-INFO] Paramount Iteration,2,8,3.135891,0.150263
[RU-INFO] Resources Stats,12,8,2.494622,0.160684,113056,0,0,0,1828,4,0,288,0,0,0,0,2202,53
[NT-INFO] Network Stats,12,8,ens4,297744829,307298,0,0,0,0,0,0,730044799,171541,0,0,0,0,0,0
[NT-INFO] Network Stats,12,8,lo,2338962,11474,0,0,0,0,0,0,2338962,11474,0,0,0,0,0,0
[PI-INFO] Paramount Iteration,11,8,3.123968,0.150080
[RU-INFO] Resources Stats,2,8,2.488583,0.168309,113596,0,0,0,1817,9,0,1040,0,0,0,0,2238,62
[RU-INFO] Resources Stats,11,8,2.487771,0.167714,115232,0,0,0,1825,6,0,248,0,0,0,0,2227,63
[NT-INFO] Network Stats,11,8,ens4,297744829,307298,0,0,0,0,0,0,730044799,171541,0,0,0,0,0,0
[PI-INFO] Paramount Iteration,3,8,3.136002,0.150405
[RU-INFO] Resources Stats,3,8,2.481456,0.176387,115096,0,0,0,1815,7,0,416,0,0,0,0,2234,61
[NT-INFO] Network Stats,3,8,ens4,297744829,307298,0,0,0,0,0,0,730044799,171541,0,0,0,0,0,0
[NT-INFO] Network Stats,3,8,lo,2338962,11474,0,0,0,0,0,0,2338962,11474,0,0,0,0,0,0
[NT-INFO] Network Stats,11,8,lo,2338962,11474,0,0,0,0,0,0,2338962,11474,0,0,0,0,0,0
[NT-INFO] Network Stats,2,8,ens4,297744829,307298,0,0,0,0,0,0,730044799,171541,0,0,0,0,0,0
[NT-INFO] Network Stats,2,8,lo,2338962,11474,0,0,0,0,0,0,2338962,11474,0,0,0,0,0,0
[PI-INFO] Paramount Iteration,1,8,3.137190,0.148981
[RU-INFO] Resources Stats,1,8,2.491881,0.164255,115224,0,0,0,1851,8,0,672,0,0,0,0,2240,86
[NT-INFO] Network Stats,1,8,ens4,297744829,307298,0,0,0,0,0,0,730044799,171541,0,0,0,0,0,0
[NT-INFO] Network Stats,1,8,lo,2338962,11474,0,0,0,0,0,0,2338962,11474,0,0,0,0,0,0
[PI-INFO] Paramount Iteration,14,8,3.120275,0.151519
[RU-INFO] Resources Stats,14,8,2.518870,0.136807,115592,0,0,0,1847,6,0,184,0,0,0,0,2202,78
[NT-INFO] Network Stats,14,8,ens4,297744829,307298,0,0,0,0,0,0,730044799,171541,0,0,0,0,0,0
[NT-INFO] Network Stats,14,8,lo,2338962,11474,0,0,0,0,0,0,2338962,11474,0,0,0,0,0,0
[PI-INFO] Paramount Iteration,0,8,3.160276,0.150478
[RU-INFO] Resources Stats,0,8,2.522997,0.155938,115636,0,0,0,1818,11,0,808,0,0,0,0,2224,111
[NT-INFO] Network Stats,0,8,ens4,297744829,307298,0,0,0,0,0,0,730044799,171541,0,0,0,0,0,0
[NT-INFO] Network Stats,0,8,lo,2338962,11474,0,0,0,0,0,0,2338962,11474,0,0,0,0,0,0
        9
[PI-INFO] Paramount Iteration,15,8,3.141152,0.149839
[RU-INFO] Resources Stats,15,8,2.535209,0.143502,115168,0,0,0,1859,7,0,440,0,0,0,0,2218,70
[NT-INFO] Network Stats,15,8,ens4,297744829,307298,0,0,0,0,0,0,730044799,171541,0,0,0,0,0,0
[NT-INFO] Network Stats,15,8,lo,2338962,11474,0,0,0,0,0,0,2338962,11474,0,0,0,0,0,0
[PI-INFO] Paramount Iteration,8,9,3.275399,0.148049
[PI-INFO] Paramount Iteration,7,9,3.276758,0.148365
[RU-INFO] Resources Stats,7,9,2.614744,0.187622,113336,0,0,0,1838,10,0,304,0,0,0,0,2223,68
[NT-INFO] Network Stats,7,9,ens4,297745025,307300,0,0,0,0,0,0,730044961,171542,0,0,0,0,0,0
[NT-INFO] Network Stats,7,9,lo,2338962,11474,0,0,0,0,0,0,2338962,11474,0,0,0,0,0,0
[PI-INFO] Paramount Iteration,9,9,3.274089,0.148630
[RU-INFO] Resources Stats,9,9,2.611460,0.187961,115680,0,0,0,1858,5,0,208,0,0,0,0,2234,125
[NT-INFO] Network Stats,9,9,ens4,297745025,307300,0,0,0,0,0,0,730044961,171542,0,0,0,0,0,0
[NT-INFO] Network Stats,9,9,lo,2338962,11474,0,0,0,0,0,0,2338962,11474,0,0,0,0,0,0
[PI-INFO] Paramount Iteration,6,9,3.278457,0.148164
[RU-INFO] Resources Stats,6,9,2.642743,0.159923,113080,0,0,0,1813,7,0,136,0,0,0,0,2225,59
[NT-INFO] Network Stats,6,9,ens4,297745025,307300,0,0,0,0,0,0,730044961,171542,0,0,0,0,0,0
[NT-INFO] Network Stats,6,9,lo,2338962,11474,0,0,0,0,0,0,2338962,11474,0,0,0,0,0,0
[RU-INFO] Resources Stats,8,9,2.610731,0.191613,117880,0,0,0,1872,5,0,152,0,0,0,0,2259,62
[NT-INFO] Network Stats,8,9,ens4,297745025,307300,0,0,0,0,0,0,730044961,171542,0,0,0,0,0,0
[NT-INFO] Network Stats,8,9,lo,2338962,11474,0,0,0,0,0,0,2338962,11474,0,0,0,0,0,0
[PI-INFO] Paramount Iteration,13,9,3.267258,0.147309
[RU-INFO] Resources Stats,13,9,2.655323,0.148185,113272,0,0,0,1832,7,0,384,0,0,0,0,2222,68
[NT-INFO] Network Stats,13,9,ens4,297745025,307300,0,0,0,0,0,0,730044961,171542,0,0,0,0,0,0
[NT-INFO] Network Stats,13,9,lo,2338962,11474,0,0,0,0,0,0,2338962,11474,0,0,0,0,0,0
[PI-INFO] Paramount Iteration,10,9,3.272502,0.147361
[RU-INFO] Resources Stats,10,9,2.635194,0.167440,113180,0,0,0,1817,9,0,600,0,0,0,0,2214,81
[NT-INFO] Network Stats,10,9,ens4,297745025,307300,0,0,0,0,0,0,730044961,171542,0,0,0,0,0,0
[NT-INFO] Network Stats,10,9,lo,2338962,11474,0,0,0,0,0,0,2338962,11474,0,0,0,0,0,0
[PI-INFO] Paramount Iteration,12,9,3.269372,0.146812
[RU-INFO] Resources Stats,12,9,2.625402,0.176632,113056,0,0,0,1829,4,0,288,0,0,0,0,2202,55
[NT-INFO] Network Stats,12,9,ens4,297745025,307300,0,0,0,0,0,0,730044961,171542,0,0,0,0,0,0
[PI-INFO] Paramount Iteration,5,9,3.280574,0.147561
[NT-INFO] Network Stats,12,9,lo,2338962,11474,0,0,0,0,0,0,2338962,11474,0,0,0,0,0,0
[RU-INFO] Resources Stats,5,9,2.618889,0.182805,113184,0,0,0,1836,10,0,472,0,0,0,0,2233,71
[NT-INFO] Network Stats,5,9,ens4,297745025,307300,0,0,0,0,0,0,730044961,171542,0,0,0,0,0,0
[NT-INFO] Network Stats,5,9,lo,2338962,11474,0,0,0,0,0,0,2338962,11474,0,0,0,0,0,0
[PI-INFO] Paramount Iteration,4,9,3.282598,0.148278
[RU-INFO] Resources Stats,4,9,2.601850,0.198614,115124,0,0,0,1835,4,0,184,0,0,0,0,2217,68
[NT-INFO] Network Stats,4,9,ens4,297745025,307300,0,0,0,0,0,0,730044961,171542,0,0,0,0,0,0
[NT-INFO] Network Stats,4,9,lo,2338962,11474,0,0,0,0,0,0,2338962,11474,0,0,0,0,0,0
[PI-INFO] Paramount Iteration,11,9,3.271640,0.147672
[RU-INFO] Resources Stats,11,9,2.627433,0.175694,115232,0,0,0,1826,6,0,248,0,0,0,0,2227,66
[NT-INFO] Network Stats,11,9,ens4,297745025,307300,0,0,0,0,0,0,730044961,171542,0,0,0,0,0,0
[NT-INFO] Network Stats,11,9,lo,2338962,11474,0,0,0,0,0,0,2338962,11474,0,0,0,0,0,0
[PI-INFO] Paramount Iteration,2,9,3.283993,0.148102
[RU-INFO] Resources Stats,2,9,2.624364,0.180299,113596,0,0,0,1817,9,0,1040,0,0,0,0,2238,70
[NT-INFO] Network Stats,2,9,ens4,297745025,307300,0,0,0,0,0,0,730044961,171542,0,0,0,0,0,0
[NT-INFO] Network Stats,2,9,lo,2338962,11474,0,0,0,0,0,0,2338962,11474,0,0,0,0,0,0
[PI-INFO] Paramount Iteration,3,9,3.284323,0.148321
[RU-INFO] Resources Stats,3,9,2.613701,0.192419,115096,0,0,0,1815,7,0,416,0,0,0,0,2234,64
[NT-INFO] Network Stats,3,9,ens4,297745025,307300,0,0,0,0,0,0,730044961,171542,0,0,0,0,0,0
[NT-INFO] Network Stats,3,9,lo,2338962,11474,0,0,0,0,0,0,2338962,11474,0,0,0,0,0,0
[PI-INFO] Paramount Iteration,14,9,3.267655,0.147380
[RU-INFO] Resources Stats,14,9,2.657868,0.144974,115592,0,0,0,1848,6,0,184,0,0,0,0,2202,82
[NT-INFO] Network Stats,14,9,ens4,297745025,307300,0,0,0,0,0,0,730044961,171542,0,0,0,0,0,0
[NT-INFO] Network Stats,14,9,lo,2338962,11474,0,0,0,0,0,0,2338962,11474,0,0,0,0,0,0
[PI-INFO] Paramount Iteration,1,9,3.286709,0.149519
[RU-INFO] Resources Stats,1,9,2.629140,0.176076,115224,0,0,0,1851,8,0,672,0,0,0,0,2240,91
[NT-INFO] Network Stats,1,9,ens4,297745025,307300,0,0,0,0,0,0,730044961,171542,0,0,0,0,0,0
[NT-INFO] Network Stats,1,9,lo,2338962,11474,0,0,0,0,0,0,2338962,11474,0,0,0,0,0,0
[PI-INFO] Paramount Iteration,0,9,3.307641,0.147365
[RU-INFO] Resources Stats,0,9,2.662044,0.163879,115636,0,0,0,1818,11,0,808,0,0,0,0,2224,120
[NT-INFO] Network Stats,0,9,ens4,297745025,307300,0,0,0,0,0,0,730044961,171542,0,0,0,0,0,0
[NT-INFO] Network Stats,0,9,lo,2338962,11474,0,0,0,0,0,0,2338962,11474,0,0,0,0,0,0
        10
[PI-INFO] Paramount Iteration,15,9,3.288749,0.147597
[RU-INFO] Resources Stats,15,9,2.670642,0.155455,115168,0,0,0,1860,7,0,440,0,0,0,0,2218,74
[NT-INFO] Network Stats,15,9,ens4,297745025,307300,0,0,0,0,0,0,730044961,171542,0,0,0,0,0,0
[NT-INFO] Network Stats,15,9,lo,2338962,11474,0,0,0,0,0,0,2338962,11474,0,0,0,0,0,0
[PI-INFO] Paramount Iteration,6,10,3.428023,0.149566
[PI-INFO] Paramount Iteration,7,10,3.426511,0.149753
[RU-INFO] Resources Stats,7,10,2.752376,0.199737,113336,0,0,0,1838,10,0,304,0,0,0,0,2223,68
[NT-INFO] Network Stats,7,10,ens4,297745221,307302,0,0,0,0,0,0,730045091,171543,0,0,0,0,0,0
[NT-INFO] Network Stats,7,10,lo,2338962,11474,0,0,0,0,0,0,2338962,11474,0,0,0,0,0,0
[RU-INFO] Resources Stats,6,10,2.788199,0.164011,113080,0,0,0,1813,7,0,136,0,0,0,0,2225,63
[NT-INFO] Network Stats,6,10,ens4,297745221,307302,0,0,0,0,0,0,730045091,171543,0,0,0,0,0,0
[NT-INFO] Network Stats,6,10,lo,2338962,11474,0,0,0,0,0,0,2338962,11474,0,0,0,0,0,0
[PI-INFO] Paramount Iteration,5,10,3.430477,0.149903
[RU-INFO] Resources Stats,5,10,2.752513,0.198880,113184,0,0,0,1836,10,0,472,0,0,0,0,2233,75
[NT-INFO] Network Stats,5,10,ens4,297745221,307302,0,0,0,0,0,0,730045091,171543,0,0,0,0,0,0
[PI-INFO] Paramount Iteration,8,10,3.425948,0.150549
[NT-INFO] Network Stats,5,10,lo,2338962,11474,0,0,0,0,0,0,2338962,11474,0,0,0,0,0,0
[RU-INFO] Resources Stats,8,10,2.748891,0.203769,117880,0,0,0,1872,5,0,152,0,0,0,0,2259,64
[NT-INFO] Network Stats,8,10,ens4,297745221,307302,0,0,0,0,0,0,730045091,171543,0,0,0,0,0,0
[NT-INFO] Network Stats,8,10,lo,2338962,11474,0,0,0,0,0,0,2338962,11474,0,0,0,0,0,0
[PI-INFO] Paramount Iteration,12,10,3.420078,0.150706
[RU-INFO] Resources Stats,12,10,2.763536,0.188788,113056,0,0,0,1829,4,0,288,0,0,0,0,2202,73
[PI-INFO] Paramount Iteration,11,10,3.421440,0.149800
[RU-INFO] Resources Stats,11,10,2.768923,0.183795,115232,0,0,0,1826,6,0,248,0,0,0,0,2227,70
[NT-INFO] Network Stats,11,10,ens4,297745221,307302,0,0,0,0,0,0,730045091,171543,0,0,0,0,0,0
[NT-INFO] Network Stats,11,10,lo,2338962,11474,0,0,0,0,0,0,2338962,11474,0,0,0,0,0,0
[NT-INFO] Network Stats,12,10,ens4,297745221,307302,0,0,0,0,0,0,730045091,171543,0,0,0,0,0,0
[PI-INFO] Paramount Iteration,9,10,3.425300,0.151211
[RU-INFO] Resources Stats,9,10,2.749827,0.200133,115680,0,0,0,1858,5,0,208,0,0,0,0,2234,127
[NT-INFO] Network Stats,9,10,ens4,297745221,307302,0,0,0,0,0,0,730045091,171543,0,0,0,0,0,0
[NT-INFO] Network Stats,9,10,lo,2338962,11474,0,0,0,0,0,0,2338962,11474,0,0,0,0,0,0
[NT-INFO] Network Stats,12,10,lo,2338962,11474,0,0,0,0,0,0,2338962,11474,0,0,0,0,0,0
[PI-INFO] Paramount Iteration,3,10,3.434348,0.150025
[RU-INFO] Resources Stats,3,10,2.755659,0.200265,115096,0,0,0,1815,7,0,416,0,0,0,0,2234,68
[NT-INFO] Network Stats,3,10,ens4,297745221,307302,0,0,0,0,0,0,730045091,171543,0,0,0,0,0,0
[PI-INFO] Paramount Iteration,10,10,3.424364,0.151862
[NT-INFO] Network Stats,3,10,lo,2338962,11474,0,0,0,0,0,0,2338962,11474,0,0,0,0,0,0
[RU-INFO] Resources Stats,10,10,2.779045,0.175434,113180,0,0,0,1817,9,0,600,0,0,0,0,2214,82
[NT-INFO] Network Stats,10,10,ens4,297745221,307302,0,0,0,0,0,0,730045091,171543,0,0,0,0,0,0
[NT-INFO] Network Stats,10,10,lo,2338962,11474,0,0,0,0,0,0,2338962,11474,0,0,0,0,0,0
[PI-INFO] Paramount Iteration,4,10,3.434223,0.151625
[RU-INFO] Resources Stats,4,10,2.741295,0.210563,115124,0,0,0,1835,4,0,184,0,0,0,0,2217,75
[NT-INFO] Network Stats,4,10,ens4,297745221,307302,0,0,0,0,0,0,730045091,171543,0,0,0,0,0,0
[NT-INFO] Network Stats,4,10,lo,2338962,11474,0,0,0,0,0,0,2338962,11474,0,0,0,0,0,0
[PI-INFO] Paramount Iteration,2,10,3.434887,0.150894
[RU-INFO] Resources Stats,2,10,2.775045,0.180299,113596,0,0,0,1817,9,0,1040,0,0,0,0,2238,74
[NT-INFO] Network Stats,2,10,ens4,297745221,307302,0,0,0,0,0,0,730045091,171543,0,0,0,0,0,0
[NT-INFO] Network Stats,2,10,lo,2338962,11474,0,0,0,0,0,0,2338962,11474,0,0,0,0,0,0
[PI-INFO] Paramount Iteration,13,10,3.420239,0.152981
[RU-INFO] Resources Stats,13,10,2.788208,0.168253,113272,0,0,0,1832,7,0,384,0,0,0,0,2222,72
[NT-INFO] Network Stats,13,10,ens4,297745221,307302,0,0,0,0,0,0,730045091,171543,0,0,0,0,0,0
[PI-INFO] Paramount Iteration,14,10,3.418235,0.150580
[NT-INFO] Network Stats,13,10,lo,2338962,11474,0,0,0,0,0,0,2338962,11474,0,0,0,0,0,0
[RU-INFO] Resources Stats,14,10,2.796318,0.156915,115592,0,0,0,1848,6,0,184,0,0,0,0,2202,86
[NT-INFO] Network Stats,14,10,ens4,297745221,307302,0,0,0,0,0,0,730045091,171543,0,0,0,0,0,0
[NT-INFO] Network Stats,14,10,lo,2338962,11474,0,0,0,0,0,0,2338962,11474,0,0,0,0,0,0
[PI-INFO] Paramount Iteration,1,10,3.436079,0.149370
[RU-INFO] Resources Stats,1,10,2.766243,0.188152,115224,0,0,0,1851,8,0,672,0,0,0,0,2240,95
[NT-INFO] Network Stats,1,10,ens4,297745221,307302,0,0,0,0,0,0,730045091,171543,0,0,0,0,0,0
[NT-INFO] Network Stats,1,10,lo,2338962,11474,0,0,0,0,0,0,2338962,11474,0,0,0,0,0,0
[PI-INFO] Paramount Iteration,0,10,3.460288,0.152647
[RU-INFO] Resources Stats,0,10,2.810365,0.167902,115636,0,0,0,1818,11,0,808,0,0,0,0,2224,125
[NT-INFO] Network Stats,0,10,ens4,297745221,307302,0,0,0,0,0,0,730045091,171543,0,0,0,0,0,0
[NT-INFO] Network Stats,0,10,lo,2338962,11474,0,0,0,0,0,0,2338962,11474,0,0,0,0,0,0
[PI-INFO] Paramount Iteration,15,10,3.441691,0.152942
[RU-INFO] Resources Stats,15,10,2.815321,0.163496,115168,0,0,0,1860,7,0,440,0,0,0,0,2218,78
[NT-INFO] Network Stats,15,10,ens4,297745221,307302,0,0,0,0,0,0,730045091,171543,0,0,0,0,0,0
[NT-INFO] Network Stats,15,10,lo,2338962,11474,0,0,0,0,0,0,2338962,11474,0,0,0,0,0,0
[PI-INFO] PI avg,7,0.135836,11
[PI-INFO] Beta,7,2.420392
[PI-INFO] PI avg,6,0.135758,11
[PI-INFO] Beta,6,2.426921
[PI-INFO] PI avg,11,0.135825,11
[PI-INFO] Beta,11,2.422880
[PI-INFO] PI avg,10,0.135977,11
[PI-INFO] Beta,10,2.421448
[PI-INFO] PI avg,5,0.135858,11
[PI-INFO] Beta,5,2.439535
[PI-INFO] PI avg,3,0.135950,11
[PI-INFO] Beta,3,2.442992
[PI-INFO] PI avg,4,0.135965,11
[PI-INFO] Beta,4,2.442862
[PI-INFO] PI avg,9,0.135940,11
[PI-INFO] Beta,9,2.439241
[PI-INFO] PI avg,13,0.136118,11
[PI-INFO] Beta,13,2.434877
[PI-INFO] PI avg,2,0.135967,11
[PI-INFO] Beta,2,2.452307
[PI-INFO] PI avg,1,0.135783,11
[PI-INFO] Beta,1,2.493212
[PI-INFO] PI avg,8,0.135861,11
[PI-INFO] Beta,8,2.490217


 IS Benchmark Completed
 Class           =                        C
 Size            =                134217728
 Iterations      =                       10
 Time in seconds =                     1.50
 Total processes =                       16
 Active procs    =                       16
 Mop/s total     =                   895.46
 Mop/s/process   =                    55.97
 Operation type  =              keys ranked
 Verification    =               SUCCESSFUL
 Version         =                      3.4
 Compile date    =              15 May 2021

 Compile options:
    MPICC        = mpicc
    CLINK        = $(MPICC)
    CMPI_LIB     = (none)
    CMPI_INC     = (none)
    CFLAGS       = -O3
    CLINKFLAGS   = $(CFLAGS) -O ../../utils/obj/*.o


 Please send feedbacks and/or the results of this run to:

 NPB Development Team
 npb@nas.nasa.gov


[PI-INFO] PI avg,0,0.136110,11
[PI-INFO] Beta,0,2.490337
[PI-INFO] Total time,3.728569
[PI-INFO] PI avg,12,0.135875,11
[PI-INFO] Beta,12,2.485718
[PI-INFO] PI avg,15,0.136211,11
[PI-INFO] Beta,15,2.475212
[PI-INFO] PI avg,14,0.135997,11
[PI-INFO] Beta,14,2.480683
