
Program received signal SIGSEGV: Segmentation fault - invalid memory reference.

Backtrace for this error:

Program received signal SIGSEGV: Segmentation fault - invalid memory reference.

Backtrace for this error:

Program received signal SIGSEGV: Segmentation fault - invalid memory reference.

Backtrace for this error:

Program received signal SIGSEGV: Segmentation fault - invalid memory reference.

Backtrace for this error:

Program received signal SIGSEGV: Segmentation fault - invalid memory reference.

Backtrace for this error:

Program received signal SIGSEGV: Segmentation fault - invalid memory reference.

Backtrace for this error:
#0  0x7f6eec71e8da
#1  0x7f6eec71dae3
#2  0x7f6eec37583f
#3  0x7f6eec49ab0d
#4  0x5596c49fa550
#5  0x5596c4a06a53
#6  0x5596c49f940e
#7  0x7f6eec36209a
#8  0x5596c49f9449
#9  0xffffffffffffffff
#0  0x7fc285bf38da
#1  0x7fc285bf2ae3
#2  0x7fc28584a83f
#3  0x7fc28596fb0d
#4  0x561901db2550
#5  0x561901dbea53
#6  0x561901db140e
#7  0x7fc28583709a
#8  0x561901db1449
#9  0xffffffffffffffff
#0  0x7f64f9ee38da
#1  0x7f64f9ee2ae3
#2  0x7f64f9b3a83f
#3  0x7f64f9c5fb0d
#4  0x5618ad748550
#5  0x5618ad754a53
#6  0x5618ad74740e
#7  0x7f64f9b2709a
#8  0x5618ad747449
#9  0xffffffffffffffff
#0  0x7f72b09248da
#1  0x7f72b0923ae3
#2  0x7f72b057b83f
#3  0x7f72b06a0b0d
#4  0x55f4740b9550
#5  0x55f4740c5a53
#6  0x55f4740b840e
#7  0x7f72b056809a
#8  0x55f4740b8449
#9  0xffffffffffffffff
#0  0x7f02e5a2f8da
#1  0x7f02e5a2eae3
#2  0x7f02e568683f
#3  0x7f02e57abb0d
#4  0x5591157a0550
#5  0x5591157aca53
#6  0x55911579f40e
#7  0x7f02e567309a
#8  0x55911579f449
#9  0xffffffffffffffff
#0  0x7fa6826268da
#1  0x7fa682625ae3
#2  0x7fa68227d83f
#3  0x7fa6823a2b0d
#4  0x564ab3501550
#5  0x564ab350da53
#6  0x564ab350040e
#7  0x7fa68226a09a
#8  0x564ab3500449
#9  0xffffffffffffffff
--------------------------------------------------------------------------
Primary job  terminated normally, but 1 process returned
a non-zero exit code. Per user-direction, the job has been aborted.
--------------------------------------------------------------------------

Program received signal SIGSEGV: Segmentation fault - invalid memory reference.

Backtrace for this error:

Program received signal SIGSEGV: Segmentation fault - invalid memory reference.

Backtrace for this error:
#0  0x7f61102d48da
#1  0x7f61102d3ae3
#2  0x7f610ff2b83f
#3  0x7f6110050b0d
#4  0x563817d98550
#5  0x563817da4a53
#6  0x563817d9740e
#7  0x7f610ff1809a
#8  0x563817d97449
#9  0xffffffffffffffff
#0  0x7fa4ce6098da
#1  0x7fa4ce608ae3
#2  0x7fa4ce26083f
#3  0x7fa4ce385b0d
#4  0x564cd60a2550
#5  0x564cd60aea53
#6  0x564cd60a140e
#7  0x7fa4ce24d09a
#8  0x564cd60a1449
#9  0xffffffffffffffff
--------------------------------------------------------------------------
mpirun noticed that process rank 0 with PID 0 on node instance-1 exited on signal 11 (Segmentation fault).
--------------------------------------------------------------------------
