

 NAS Parallel Benchmarks 3.4 -- IS Benchmark

 Size:  34359738368  (class E)
 Iterations:   10
 Number of processes:     8

 ERROR: number of processes 8 not within range 64-1024
 Exiting program!

