

 NAS Parallel Benchmarks 3.4 -- SP Benchmark

 No input file inputsp.data. Using compiled defaults
 Size: 1020x1020x1020  (class E)
 Iterations:  500    dt:   0.0001000
 WARNING: Number of active processes:     4
 Total number of processes:     8

