

 NAS Parallel Benchmarks 3.4 -- CG Benchmark

 Size:     150000  (class C)
 Iterations:    75
 Number of processes:     1
 Number of nonzeroes per row:       15
 Eigenvalue shift:   110.000
[PI-INFO] Init time,0,5.238239

   iteration           ||r||                 zeta
        1       0.48234431173952E-12   109.9994423237398
[PI-INFO] Paramount Iteration,0,1,8.563620,3.325381
[RU-INFO] Resources Stats,0,1,7.946381,0.216893,1083012,0,0,0,5492,0,0,256,0,0,0,0,2031,123
[NT-INFO] Network Stats,0,1,ens4,172632671,21144,0,0,0,0,0,0,4504610,29018,0,0,0,0,0,0
[NT-INFO] Network Stats,0,1,lo,12989,134,0,0,0,0,0,0,12989,134,0,0,0,0,0,0
        2       0.10813301768061E-14    27.3920437146500
[PI-INFO] Paramount Iteration,0,2,11.864001,3.300381
[RU-INFO] Resources Stats,0,2,11.241554,0.216893,1083012,0,0,0,5492,0,0,256,0,0,0,0,2031,153
[NT-INFO] Network Stats,0,2,ens4,172635443,21186,0,0,0,0,0,0,4519318,29092,0,0,0,0,0,0
[NT-INFO] Network Stats,0,2,lo,12989,134,0,0,0,0,0,0,12989,134,0,0,0,0,0,0
        3       0.11351384459845E-14    28.0339761840280
[PI-INFO] Paramount Iteration,0,3,15.207633,3.343632
[RU-INFO] Resources Stats,0,3,14.580794,0.216893,1083012,0,0,0,5492,0,0,256,0,0,0,0,2031,181
[NT-INFO] Network Stats,0,3,ens4,172637555,21218,0,0,0,0,0,0,4526958,29144,0,0,0,0,0,0
[NT-INFO] Network Stats,0,3,lo,12989,134,0,0,0,0,0,0,12989,134,0,0,0,0,0,0
        4       0.11648391234434E-14    28.4191507551295
[PI-INFO] Paramount Iteration,0,4,18.552963,3.345330
[RU-INFO] Resources Stats,0,4,17.919635,0.216893,1083012,0,0,0,5492,0,0,256,0,0,0,0,2031,226
[NT-INFO] Network Stats,0,4,ens4,172640721,21265,0,0,0,0,0,0,4541248,29225,0,0,0,0,0,0
[NT-INFO] Network Stats,0,4,lo,12989,134,0,0,0,0,0,0,12989,134,0,0,0,0,0,0
        5       0.11886771894963E-14    28.6471670038885
[PI-INFO] Paramount Iteration,0,5,21.871686,3.318723
[RU-INFO] Resources Stats,0,5,21.232867,0.216893,1083012,0,0,0,5492,0,0,256,0,0,0,0,2031,251
[NT-INFO] Network Stats,0,5,ens4,172643295,21304,0,0,0,0,0,0,4554560,29297,0,0,0,0,0,0
[NT-INFO] Network Stats,0,5,lo,12989,134,0,0,0,0,0,0,12989,134,0,0,0,0,0,0
        6       0.11937874759659E-14    28.7812969418392
[PI-INFO] Paramount Iteration,0,6,25.202394,3.330708
[RU-INFO] Resources Stats,0,6,24.554593,0.216893,1083012,0,0,0,5493,0,0,256,0,0,0,0,2031,287
[NT-INFO] Network Stats,0,6,ens4,172648023,21376,0,0,0,0,0,0,4575666,29422,0,0,0,0,0,0
[NT-INFO] Network Stats,0,6,lo,12989,134,0,0,0,0,0,0,12989,134,0,0,0,0,0,0
        7       0.12008615920883E-14    28.8600458537346
[PI-INFO] Paramount Iteration,0,7,28.521977,3.319583
[RU-INFO] Resources Stats,0,7,27.868433,0.216893,1083012,0,0,0,5493,0,0,256,0,0,0,0,2031,322
[NT-INFO] Network Stats,0,7,ens4,172650727,21416,0,0,0,0,0,0,4592242,29510,0,0,0,0,0,0
[NT-INFO] Network Stats,0,7,lo,12989,134,0,0,0,0,0,0,12989,134,0,0,0,0,0,0
        8       0.12048530020154E-14    28.9063145572706
[PI-INFO] Paramount Iteration,0,8,31.837237,3.315260
[RU-INFO] Resources Stats,0,8,31.177432,0.216893,1083012,0,0,0,5493,0,0,256,0,0,0,0,2031,356
[NT-INFO] Network Stats,0,8,ens4,172652739,21446,0,0,0,0,0,0,4599268,29559,0,0,0,0,0,0
[NT-INFO] Network Stats,0,8,lo,12989,134,0,0,0,0,0,0,12989,134,0,0,0,0,0,0
        9       0.12062626841265E-14    28.9335649214626
[PI-INFO] Paramount Iteration,0,9,35.166533,3.329296
[RU-INFO] Resources Stats,0,9,34.502192,0.216893,1083012,0,0,0,5493,0,0,256,0,0,0,0,2031,385
[NT-INFO] Network Stats,0,9,ens4,172654849,21477,0,0,0,0,0,0,4606774,29608,0,0,0,0,0,0
[NT-INFO] Network Stats,0,9,lo,12989,134,0,0,0,0,0,0,12989,134,0,0,0,0,0,0
       10       0.12082951489145E-14    28.9496695448994
[PI-INFO] Paramount Iteration,0,10,38.493114,3.326581
[RU-INFO] Resources Stats,0,10,37.820889,0.216893,1083012,0,0,0,5493,0,0,256,0,0,0,0,2031,422
[NT-INFO] Network Stats,0,10,ens4,172657423,21516,0,0,0,0,0,0,4620806,29688,0,0,0,0,0,0
[NT-INFO] Network Stats,0,10,lo,12989,134,0,0,0,0,0,0,12989,134,0,0,0,0,0,0
       11       0.12100045071758E-14    28.9592263353758
[PI-INFO] Paramount Iteration,0,11,41.832319,3.339205
[RU-INFO] Resources Stats,0,11,41.155341,0.216893,1083012,0,0,0,5494,0,0,256,0,0,0,0,2031,451
[NT-INFO] Network Stats,0,11,ens4,172659491,21546,0,0,0,0,0,0,4628962,29738,0,0,0,0,0,0
[NT-INFO] Network Stats,0,11,lo,12989,134,0,0,0,0,0,0,12989,134,0,0,0,0,0,0
       12       0.12105538135476E-14    28.9649233484885
[PI-INFO] Paramount Iteration,0,12,45.176882,3.344563
[RU-INFO] Resources Stats,0,12,44.493896,0.216893,1083012,0,0,0,5494,0,0,256,0,0,0,0,2031,486
[NT-INFO] Network Stats,0,12,ens4,172662593,21593,0,0,0,0,0,0,4642358,29812,0,0,0,0,0,0
[NT-INFO] Network Stats,0,12,lo,12989,134,0,0,0,0,0,0,12989,134,0,0,0,0,0,0
       13       0.12090697132234E-14    28.9683359248931
[PI-INFO] Paramount Iteration,0,13,48.494296,3.317414
[RU-INFO] Resources Stats,0,13,47.806118,0.216893,1083012,0,0,0,5494,0,0,256,0,0,0,0,2031,524
[NT-INFO] Network Stats,0,13,ens4,172664539,21622,0,0,0,0,0,0,4650252,29863,0,0,0,0,0,0
[NT-INFO] Network Stats,0,13,lo,12989,134,0,0,0,0,0,0,12989,134,0,0,0,0,0,0
       14       0.12094759658880E-14    28.9703903960010
[PI-INFO] Paramount Iteration,0,14,51.818153,3.323857
[RU-INFO] Resources Stats,0,14,51.125514,0.216893,1083012,0,0,0,5494,0,0,256,0,0,0,0,2031,551
[NT-INFO] Network Stats,0,14,ens4,172666551,21652,0,0,0,0,0,0,4657372,29911,0,0,0,0,0,0
[NT-INFO] Network Stats,0,14,lo,12989,134,0,0,0,0,0,0,12989,134,0,0,0,0,0,0
       15       0.12098629452510E-14    28.9716336228364
[PI-INFO] Paramount Iteration,0,15,55.147309,3.329156
[RU-INFO] Resources Stats,0,15,54.444994,0.216893,1083012,0,0,0,5494,0,0,256,0,0,0,0,2031,591
[NT-INFO] Network Stats,0,15,ens4,172676183,21723,0,0,0,0,0,0,4679356,30035,0,0,0,0,0,0
[NT-INFO] Network Stats,0,15,lo,12989,134,0,0,0,0,0,0,12989,134,0,0,0,0,0,0
       16       0.12105410367377E-14    28.9723898600845
[PI-INFO] Paramount Iteration,0,16,58.461779,3.314470
[RU-INFO] Resources Stats,0,16,57.754127,0.216893,1083012,0,0,0,5495,0,0,256,0,0,0,0,2031,635
[NT-INFO] Network Stats,0,16,ens4,172678751,21759,0,0,0,0,0,0,4687170,30086,0,0,0,0,0,0
[NT-INFO] Network Stats,0,16,lo,12989,134,0,0,0,0,0,0,12989,134,0,0,0,0,0,0
       17       0.12083418434676E-14    28.9728522692226
[PI-INFO] Paramount Iteration,0,17,61.767752,3.305973
[RU-INFO] Resources Stats,0,17,61.055804,0.216893,1083012,0,0,0,5495,0,0,256,0,0,0,0,2031,658
[NT-INFO] Network Stats,0,17,ens4,172680763,21789,0,0,0,0,0,0,4695536,30141,0,0,0,0,0,0
[NT-INFO] Network Stats,0,17,lo,12989,134,0,0,0,0,0,0,12989,134,0,0,0,0,0,0
       18       0.12150514608219E-14    28.9731364797774
[PI-INFO] Paramount Iteration,0,18,65.089603,3.321851
[RU-INFO] Resources Stats,0,18,64.371465,0.216893,1083012,0,0,0,5495,0,0,256,0,0,0,0,2031,697
[NT-INFO] Network Stats,0,18,ens4,172683699,21833,0,0,0,0,0,0,4709580,30219,0,0,0,0,0,0
[NT-INFO] Network Stats,0,18,lo,12989,134,0,0,0,0,0,0,12989,134,0,0,0,0,0,0
       19       0.12058055475732E-14    28.9733120569269
[PI-INFO] Paramount Iteration,0,19,68.407014,3.317411
[RU-INFO] Resources Stats,0,19,67.684063,0.216893,1083012,0,0,0,5495,0,0,256,0,0,0,0,2031,732
[NT-INFO] Network Stats,0,19,ens4,172685481,21860,0,0,0,0,0,0,4717358,30268,0,0,0,0,0,0
[NT-INFO] Network Stats,0,19,lo,12989,134,0,0,0,0,0,0,12989,134,0,0,0,0,0,0
       20       0.12111799404999E-14    28.9734210663746
[PI-INFO] Paramount Iteration,0,20,71.715229,3.308215
[RU-INFO] Resources Stats,0,20,70.986999,0.216893,1083012,0,0,0,5495,0,0,256,0,0,0,0,2031,763
[NT-INFO] Network Stats,0,20,ens4,172688183,21899,0,0,0,0,0,0,4731354,30338,0,0,0,0,0,0
[NT-INFO] Network Stats,0,20,lo,12989,134,0,0,0,0,0,0,12989,134,0,0,0,0,0,0
       21       0.12088605674603E-14    28.9734890760527
[PI-INFO] Paramount Iteration,0,21,75.039652,3.324423
[RU-INFO] Resources Stats,0,21,74.306063,0.216893,1083012,0,0,0,5496,0,0,256,0,0,0,0,2031,792
[NT-INFO] Network Stats,0,21,ens4,172690955,21941,0,0,0,0,0,0,4746170,30418,0,0,0,0,0,0
[NT-INFO] Network Stats,0,21,lo,12989,134,0,0,0,0,0,0,12989,134,0,0,0,0,0,0
       22       0.12125228055955E-14    28.9735317064875
[PI-INFO] Paramount Iteration,0,22,78.386124,3.346472
[RU-INFO] Resources Stats,0,22,77.645766,0.216893,1083012,0,0,0,5496,0,0,256,0,0,0,0,2031,835
[NT-INFO] Network Stats,0,22,ens4,172693727,21983,0,0,0,0,0,0,4758908,30491,0,0,0,0,0,0
[NT-INFO] Network Stats,0,22,lo,12989,134,0,0,0,0,0,0,12989,134,0,0,0,0,0,0
       23       0.12118183440261E-14    28.9735585497263
[PI-INFO] Paramount Iteration,0,23,81.727805,3.341681
[RU-INFO] Resources Stats,0,23,80.983208,0.216893,1083012,0,0,0,5496,0,0,256,0,0,0,0,2031,856
[NT-INFO] Network Stats,0,23,ens4,172695641,22012,0,0,0,0,0,0,4767170,30542,0,0,0,0,0,0
[NT-INFO] Network Stats,0,23,lo,12989,134,0,0,0,0,0,0,12989,134,0,0,0,0,0,0
       24       0.12123372970376E-14    28.9735755256659
[PI-INFO] Paramount Iteration,0,24,85.055111,3.327306
[RU-INFO] Resources Stats,0,24,84.301387,0.216893,1083012,0,0,0,5496,0,0,256,0,0,0,0,2031,893
[NT-INFO] Network Stats,0,24,ens4,172700631,22087,0,0,0,0,0,0,4790354,30682,0,0,0,0,0,0
[NT-INFO] Network Stats,0,24,lo,12989,134,0,0,0,0,0,0,12989,134,0,0,0,0,0,0
       25       0.12157366104819E-14    28.9735863059394
[PI-INFO] Paramount Iteration,0,25,88.406136,3.351025
[RU-INFO] Resources Stats,0,25,87.647589,0.216893,1083012,0,0,0,5496,0,0,256,0,0,0,0,2031,931
[NT-INFO] Network Stats,0,25,ens4,172702677,22118,0,0,0,0,0,0,4797800,30733,0,0,0,0,0,0
[NT-INFO] Network Stats,0,25,lo,12989,134,0,0,0,0,0,0,12989,134,0,0,0,0,0,0
       26       0.12073280892320E-14    28.9735931787385
[PI-INFO] Paramount Iteration,0,26,91.729914,3.323778
[RU-INFO] Resources Stats,0,26,90.966899,0.216893,1083012,0,0,0,5497,0,0,256,0,0,0,0,2031,960
[NT-INFO] Network Stats,0,26,ens4,172704723,22149,0,0,0,0,0,0,4804826,30782,0,0,0,0,0,0
[NT-INFO] Network Stats,0,26,lo,12989,134,0,0,0,0,0,0,12989,134,0,0,0,0,0,0
       27       0.12128045423460E-14    28.9735975767405
[PI-INFO] Paramount Iteration,0,27,95.057543,3.327629
[RU-INFO] Resources Stats,0,27,94.289830,0.216893,1083012,0,0,0,5497,0,0,256,0,0,0,0,2031,989
[NT-INFO] Network Stats,0,27,ens4,172706901,22182,0,0,0,0,0,0,4814302,30840,0,0,0,0,0,0
[NT-INFO] Network Stats,0,27,lo,12989,134,0,0,0,0,0,0,12989,134,0,0,0,0,0,0
       28       0.12128795080443E-14    28.9736004009971
[PI-INFO] Paramount Iteration,0,28,98.460123,3.402580
[RU-INFO] Resources Stats,0,28,97.620489,0.216893,1083012,0,0,0,5497,0,0,256,0,0,0,0,2031,1081
[NT-INFO] Network Stats,0,28,ens4,172710153,22224,0,0,0,0,0,0,4828164,30915,0,0,0,0,0,0
[NT-INFO] Network Stats,0,28,lo,12989,134,0,0,0,0,0,0,12989,134,0,0,0,0,0,0
       29       0.12079164427643E-14    28.9736022206776
[PI-INFO] Paramount Iteration,0,29,101.773494,3.313371
[RU-INFO] Resources Stats,0,29,100.928686,0.216893,1083012,0,0,0,5497,0,0,256,0,0,0,0,2031,1103
[NT-INFO] Network Stats,0,29,ens4,172713057,22268,0,0,0,0,0,0,4843526,30994,0,0,0,0,0,0
[NT-INFO] Network Stats,0,29,lo,12989,134,0,0,0,0,0,0,12989,134,0,0,0,0,0,0
       30       0.12130178537380E-14    28.9736033967622
[PI-INFO] Paramount Iteration,0,30,105.117226,3.343732
[RU-INFO] Resources Stats,0,30,104.267744,0.216893,1083012,0,0,0,5497,0,0,256,0,0,0,0,2031,1137
[NT-INFO] Network Stats,0,30,ens4,172714971,22297,0,0,0,0,0,0,4850872,31043,0,0,0,0,0,0
[NT-INFO] Network Stats,0,30,lo,12989,134,0,0,0,0,0,0,12989,134,0,0,0,0,0,0
       31       0.12036462567625E-14    28.9736041591166
[PI-INFO] Paramount Iteration,0,31,108.464135,3.346909
[RU-INFO] Resources Stats,0,31,107.609439,0.216893,1083012,0,0,0,5497,0,0,256,0,0,0,0,2031,1176
[NT-INFO] Network Stats,0,31,ens4,172716751,22323,0,0,0,0,0,0,4858672,31095,0,0,0,0,0,0
[NT-INFO] Network Stats,0,31,lo,12989,134,0,0,0,0,0,0,12989,134,0,0,0,0,0,0
       32       0.12044366750466E-14    28.9736046546421
[PI-INFO] Paramount Iteration,0,32,111.790326,3.326191
[RU-INFO] Resources Stats,0,32,110.930250,0.216893,1083012,0,0,0,5498,0,0,256,0,0,0,0,2031,1204
[NT-INFO] Network Stats,0,32,ens4,172719325,22362,0,0,0,0,0,0,4872380,31173,0,0,0,0,0,0
[NT-INFO] Network Stats,0,32,lo,12989,134,0,0,0,0,0,0,12989,134,0,0,0,0,0,0
       33       0.12091217036463E-14    28.9736049775613
[PI-INFO] Paramount Iteration,0,33,115.139896,3.349570
[RU-INFO] Resources Stats,0,33,114.266627,0.216893,1083012,0,0,0,5498,0,0,256,0,0,0,0,2031,1255
[NT-INFO] Network Stats,0,33,ens4,172734221,22463,0,0,0,0,0,0,4904989,31356,0,0,0,0,0,0
[NT-INFO] Network Stats,0,33,lo,12989,134,0,0,0,0,0,0,12989,134,0,0,0,0,0,0
       34       0.12085085775008E-14    28.9736051885084
[PI-INFO] Paramount Iteration,0,34,118.474650,3.334754
[RU-INFO] Resources Stats,0,34,117.593600,0.216893,1083012,0,0,0,5498,0,0,256,0,0,0,0,2031,1311
[NT-INFO] Network Stats,0,34,ens4,172740340,22504,0,0,0,0,0,0,4914438,31419,0,0,0,0,0,0
[NT-INFO] Network Stats,0,34,lo,12989,134,0,0,0,0,0,0,12989,134,0,0,0,0,0,0
       35       0.12090796426934E-14    28.9736053266234
[PI-INFO] Paramount Iteration,0,35,121.792700,3.318050
[RU-INFO] Resources Stats,0,35,120.907298,0.216893,1083012,0,0,0,5498,0,0,256,0,0,0,0,2031,1333
[NT-INFO] Network Stats,0,35,ens4,172742320,22534,0,0,0,0,0,0,4921414,31467,0,0,0,0,0,0
[NT-INFO] Network Stats,0,35,lo,12989,134,0,0,0,0,0,0,12989,134,0,0,0,0,0,0
       36       0.12042067084041E-14    28.9736054172447
[PI-INFO] Paramount Iteration,0,36,125.125750,3.333050
[RU-INFO] Resources Stats,0,36,124.233650,0.216893,1083012,0,0,0,5498,0,0,256,0,0,0,0,2031,1368
[NT-INFO] Network Stats,0,36,ens4,172744036,22560,0,0,0,0,0,0,4928338,31513,0,0,0,0,0,0
[NT-INFO] Network Stats,0,36,lo,12989,134,0,0,0,0,0,0,12989,134,0,0,0,0,0,0
       37       0.12073535972318E-14    28.9736054768233
[PI-INFO] Paramount Iteration,0,37,128.421934,3.296184
[RU-INFO] Resources Stats,0,37,127.524164,0.216893,1083012,0,0,0,5499,0,0,256,0,0,0,0,2031,1400
[NT-INFO] Network Stats,0,37,ens4,172746610,22599,0,0,0,0,0,0,4942504,31596,0,0,0,0,0,0
[NT-INFO] Network Stats,0,37,lo,12989,134,0,0,0,0,0,0,12989,134,0,0,0,0,0,0
       38       0.12094898947086E-14    28.9736055160626
[PI-INFO] Paramount Iteration,0,38,131.731645,3.309711
[RU-INFO] Resources Stats,0,38,130.828180,0.216893,1083012,0,0,0,5499,0,0,256,0,0,0,0,2031,1433
[NT-INFO] Network Stats,0,38,ens4,172749118,22637,0,0,0,0,0,0,4957166,31671,0,0,0,0,0,0
[NT-INFO] Network Stats,0,38,lo,12989,134,0,0,0,0,0,0,12989,134,0,0,0,0,0,0
       39       0.12053079614109E-14    28.9736055419578
[PI-INFO] Paramount Iteration,0,39,135.030844,3.299199
[RU-INFO] Resources Stats,0,39,134.121985,0.216893,1083012,0,0,0,5499,0,0,256,0,0,0,0,2031,1464
[NT-INFO] Network Stats,0,39,ens4,172751890,22679,0,0,0,0,0,0,4971946,31749,0,0,0,0,0,0
[NT-INFO] Network Stats,0,39,lo,12989,134,0,0,0,0,0,0,12989,134,0,0,0,0,0,0
       40       0.12104427271092E-14    28.9736055590683
[PI-INFO] Paramount Iteration,0,40,138.347230,3.316386
[RU-INFO] Resources Stats,0,40,137.429839,0.219795,1083012,0,0,0,5499,0,0,256,0,0,0,0,2031,1510
[NT-INFO] Network Stats,0,40,ens4,172753670,22705,0,0,0,0,0,0,4979350,31795,0,0,0,0,0,0
[NT-INFO] Network Stats,0,40,lo,12989,134,0,0,0,0,0,0,12989,134,0,0,0,0,0,0
       41       0.12070784516351E-14    28.9736055703955
[PI-INFO] Paramount Iteration,0,41,141.667448,3.320218
[RU-INFO] Resources Stats,0,41,140.745813,0.219795,1083012,0,0,0,5499,0,0,256,0,0,0,0,2031,1532
[NT-INFO] Network Stats,0,41,ens4,172755320,22730,0,0,0,0,0,0,4985908,31834,0,0,0,0,0,0
[NT-INFO] Network Stats,0,41,lo,12989,134,0,0,0,0,0,0,12989,134,0,0,0,0,0,0
       42       0.12107062181558E-14    28.9736055779078
[PI-INFO] Paramount Iteration,0,42,144.994270,3.326822
[RU-INFO] Resources Stats,0,42,144.068066,0.219795,1083012,0,0,0,5499,0,0,256,0,0,0,0,2031,1566
[NT-INFO] Network Stats,0,42,ens4,172757168,22758,0,0,0,0,0,0,4992774,31883,0,0,0,0,0,0
[NT-INFO] Network Stats,0,42,lo,12989,134,0,0,0,0,0,0,12989,134,0,0,0,0,0,0
       43       0.12037074499666E-14    28.9736055828921
[PI-INFO] Paramount Iteration,0,43,148.318236,3.323966
[RU-INFO] Resources Stats,0,43,147.383172,0.219795,1083012,0,0,0,5500,0,0,256,0,0,0,0,2031,1606
[NT-INFO] Network Stats,0,43,ens4,172761896,22830,0,0,0,0,0,0,5014720,32012,0,0,0,0,0,0
[NT-INFO] Network Stats,0,43,lo,12989,134,0,0,0,0,0,0,12989,134,0,0,0,0,0,0
       44       0.12082164996494E-14    28.9736055862095
[PI-INFO] Paramount Iteration,0,44,151.651166,3.332930
[RU-INFO] Resources Stats,0,44,150.710732,0.219795,1083012,0,0,0,5500,0,0,256,0,0,0,0,2031,1638
[NT-INFO] Network Stats,0,44,ens4,172764602,22871,0,0,0,0,0,0,5028908,32090,0,0,0,0,0,0
[NT-INFO] Network Stats,0,44,lo,12989,134,0,0,0,0,0,0,12989,134,0,0,0,0,0,0
       45       0.12018175839238E-14    28.9736055884115
[PI-INFO] Paramount Iteration,0,45,154.972309,3.321143
[RU-INFO] Resources Stats,0,45,154.027274,0.219795,1083012,0,0,0,5500,0,0,256,0,0,0,0,2031,1666
[NT-INFO] Network Stats,0,45,ens4,172766516,22900,0,0,0,0,0,0,5036572,32138,0,0,0,0,0,0
[NT-INFO] Network Stats,0,45,lo,12989,134,0,0,0,0,0,0,12989,134,0,0,0,0,0,0
       46       0.12084480429540E-14    28.9736055898835
[PI-INFO] Paramount Iteration,0,46,158.308697,3.336388
[RU-INFO] Resources Stats,0,46,157.356683,0.219795,1083012,0,0,0,5500,0,0,256,0,0,0,0,2031,1701
[NT-INFO] Network Stats,0,46,ens4,172768430,22929,0,0,0,0,0,0,5043342,32187,0,0,0,0,0,0
[NT-INFO] Network Stats,0,46,lo,12989,134,0,0,0,0,0,0,12989,134,0,0,0,0,0,0
       47       0.12034719199629E-14    28.9736055908642
[PI-INFO] Paramount Iteration,0,47,161.610819,3.302122
[RU-INFO] Resources Stats,0,47,160.654424,0.219795,1083012,0,0,0,5500,0,0,256,0,0,0,0,2031,1728
[NT-INFO] Network Stats,0,47,ens4,172770344,22958,0,0,0,0,0,0,5050306,32237,0,0,0,0,0,0
[NT-INFO] Network Stats,0,47,lo,12989,134,0,0,0,0,0,0,12989,134,0,0,0,0,0,0
       48       0.12010895380859E-14    28.9736055915203
[PI-INFO] Paramount Iteration,0,48,164.937207,3.326388
[RU-INFO] Resources Stats,0,48,163.972024,0.223776,1083012,0,0,0,5500,0,0,256,0,0,0,0,2031,1765
[NT-INFO] Network Stats,0,48,ens4,172772324,22988,0,0,0,0,0,0,5057368,32288,0,0,0,0,0,0
[NT-INFO] Network Stats,0,48,lo,12989,134,0,0,0,0,0,0,12989,134,0,0,0,0,0,0
       49       0.12074619055286E-14    28.9736055919557
[PI-INFO] Paramount Iteration,0,49,168.259120,3.321913
[RU-INFO] Resources Stats,0,49,167.289147,0.223776,1083012,0,0,0,5501,0,0,256,0,0,0,0,2031,1797
[NT-INFO] Network Stats,0,49,ens4,172774368,23018,0,0,0,0,0,0,5064686,32339,0,0,0,0,0,0
[NT-INFO] Network Stats,0,49,lo,12989,134,0,0,0,0,0,0,12989,134,0,0,0,0,0,0
       50       0.12063268698261E-14    28.9736055922496
[PI-INFO] Paramount Iteration,0,50,171.579933,3.320813
[RU-INFO] Resources Stats,0,50,170.603743,0.223776,1083012,0,0,0,5501,0,0,256,0,0,0,0,2031,1836
[NT-INFO] Network Stats,0,50,ens4,172777098,23059,0,0,0,0,0,0,5079216,32420,0,0,0,0,0,0
[NT-INFO] Network Stats,0,50,lo,12989,134,0,0,0,0,0,0,12989,134,0,0,0,0,0,0
       51       0.12072764694589E-14    28.9736055924445
[PI-INFO] Paramount Iteration,0,51,174.916499,3.336566
[RU-INFO] Resources Stats,0,51,173.933950,0.223777,1083012,0,0,0,5501,0,0,256,0,0,0,0,2031,1871
[NT-INFO] Network Stats,0,51,ens4,172785214,23108,0,0,0,0,0,0,5094954,32505,0,0,0,0,0,0
[NT-INFO] Network Stats,0,51,lo,12989,134,0,0,0,0,0,0,12989,134,0,0,0,0,0,0
       52       0.12055938281969E-14    28.9736055925755
[PI-INFO] Paramount Iteration,0,52,178.248898,3.332399
[RU-INFO] Resources Stats,0,52,177.256259,0.223777,1083012,0,0,0,5501,0,0,256,0,0,0,0,2031,1916
[NT-INFO] Network Stats,0,52,ens4,172791050,23194,0,0,0,0,0,0,5123654,32663,0,0,0,0,0,0
[NT-INFO] Network Stats,0,52,lo,12989,134,0,0,0,0,0,0,12989,134,0,0,0,0,0,0
       53       0.12045153695310E-14    28.9736055926636
[PI-INFO] Paramount Iteration,0,53,181.575601,3.326703
[RU-INFO] Resources Stats,0,53,180.577733,0.223777,1083012,0,0,0,5501,0,0,256,0,0,0,0,2031,1939
[NT-INFO] Network Stats,0,53,ens4,172793952,23237,0,0,0,0,0,0,5138424,32744,0,0,0,0,0,0
[NT-INFO] Network Stats,0,53,lo,12989,134,0,0,0,0,0,0,12989,134,0,0,0,0,0,0
       54       0.12102319103294E-14    28.9736055927237
[PI-INFO] Paramount Iteration,0,54,184.903879,3.328278
[RU-INFO] Resources Stats,0,54,183.900236,0.223777,1083012,0,0,0,5502,0,0,256,0,0,0,0,2031,1978
[NT-INFO] Network Stats,0,54,ens4,172796724,23279,0,0,0,0,0,0,5152644,32822,0,0,0,0,0,0
[NT-INFO] Network Stats,0,54,lo,12989,134,0,0,0,0,0,0,12989,134,0,0,0,0,0,0
       55       0.12056144710026E-14    28.9736055927632
[PI-INFO] Paramount Iteration,0,55,188.201734,3.297855
[RU-INFO] Resources Stats,0,55,187.192631,0.223777,1083012,0,0,0,5502,0,0,256,0,0,0,0,2031,2009
[NT-INFO] Network Stats,0,55,ens4,172799626,23322,0,0,0,0,0,0,5167956,32902,0,0,0,0,0,0
[NT-INFO] Network Stats,0,55,lo,12989,134,0,0,0,0,0,0,12989,134,0,0,0,0,0,0
       56       0.12058642663639E-14    28.9736055927895
[PI-INFO] Paramount Iteration,0,56,191.488382,3.286648
[RU-INFO] Resources Stats,0,56,190.474751,0.223777,1083012,0,0,0,5502,0,0,256,0,0,0,0,2031,2039
[NT-INFO] Network Stats,0,56,ens4,172801474,23350,0,0,0,0,0,0,5174686,32947,0,0,0,0,0,0
[NT-INFO] Network Stats,0,56,lo,12989,134,0,0,0,0,0,0,12989,134,0,0,0,0,0,0
       57       0.12036388918711E-14    28.9736055928068
[PI-INFO] Paramount Iteration,0,57,194.823762,3.335380
[RU-INFO] Resources Stats,0,57,193.805309,0.223777,1083012,0,0,0,5502,0,0,256,0,0,0,0,2031,2070
[NT-INFO] Network Stats,0,57,ens4,172803652,23383,0,0,0,0,0,0,5181912,33000,0,0,0,0,0,0
[NT-INFO] Network Stats,0,57,lo,12989,134,0,0,0,0,0,0,12989,134,0,0,0,0,0,0
       58       0.12025303295927E-14    28.9736055928179
[PI-INFO] Paramount Iteration,0,58,198.157090,3.333328
[RU-INFO] Resources Stats,0,58,197.132971,0.223778,1083012,0,0,0,5502,0,0,256,0,0,0,0,2031,2104
[NT-INFO] Network Stats,0,58,ens4,172806292,23423,0,0,0,0,0,0,5195506,33077,0,0,0,0,0,0
[NT-INFO] Network Stats,0,58,lo,12989,134,0,0,0,0,0,0,12989,134,0,0,0,0,0,0
       59       0.12035322732149E-14    28.9736055928297
[PI-INFO] Paramount Iteration,0,59,201.484916,3.327826
[RU-INFO] Resources Stats,0,59,200.455382,0.223780,1083012,0,0,0,5502,0,0,256,0,0,0,0,2031,2131
[NT-INFO] Network Stats,0,59,ens4,172808998,23464,0,0,0,0,0,0,5209164,33154,0,0,0,0,0,0
[NT-INFO] Network Stats,0,59,lo,12989,134,0,0,0,0,0,0,12989,134,0,0,0,0,0,0
       60       0.12024957335314E-14    28.9736055928340
[PI-INFO] Paramount Iteration,0,60,204.814786,3.329870
[RU-INFO] Resources Stats,0,60,203.779231,0.223783,1083276,0,0,0,5503,0,0,256,0,0,0,0,2031,2168
[NT-INFO] Network Stats,0,60,ens4,172812010,23510,0,0,0,0,0,0,5224132,33238,0,0,0,0,0,0
[NT-INFO] Network Stats,0,60,lo,12989,134,0,0,0,0,0,0,12989,134,0,0,0,0,0,0
       61       0.12075171648896E-14    28.9736055928370
[PI-INFO] Paramount Iteration,0,61,208.155863,3.341077
[RU-INFO] Resources Stats,0,61,207.114941,0.223787,1083276,0,0,0,5503,0,0,256,0,0,0,0,2031,2201
[NT-INFO] Network Stats,0,61,ens4,172814384,23545,0,0,0,0,0,0,5232106,33293,0,0,0,0,0,0
[NT-INFO] Network Stats,0,61,lo,12989,134,0,0,0,0,0,0,12989,134,0,0,0,0,0,0
       62       0.12105355072094E-14    28.9736055928412
[PI-INFO] Paramount Iteration,0,62,211.489078,3.333215
[RU-INFO] Resources Stats,0,62,210.438702,0.223790,1083276,0,0,0,5503,0,0,256,0,0,0,0,2031,2233
[NT-INFO] Network Stats,0,62,ens4,172819664,23625,0,0,0,0,0,0,5254396,33422,0,0,0,0,0,0
[NT-INFO] Network Stats,0,62,lo,12989,134,0,0,0,0,0,0,12989,134,0,0,0,0,0,0
       63       0.11996918375061E-14    28.9736055928397
[PI-INFO] Paramount Iteration,0,63,214.810319,3.321241
[RU-INFO] Resources Stats,0,63,213.754601,0.223793,1083276,0,0,0,5503,0,0,256,0,0,0,0,2031,2262
[NT-INFO] Network Stats,0,63,ens4,172822238,23664,0,0,0,0,0,0,5269186,33505,0,0,0,0,0,0
[NT-INFO] Network Stats,0,63,lo,12989,134,0,0,0,0,0,0,12989,134,0,0,0,0,0,0
       64       0.12023750015119E-14    28.9736055928433
[PI-INFO] Paramount Iteration,0,64,218.158024,3.347705
[RU-INFO] Resources Stats,0,64,217.096516,0.223794,1083276,0,0,0,5503,0,0,256,0,0,0,0,2031,2298
[NT-INFO] Network Stats,0,64,ens4,172824348,23695,0,0,0,0,0,0,5284732,33582,0,0,0,0,0,0
[NT-INFO] Network Stats,0,64,lo,12989,134,0,0,0,0,0,0,12989,134,0,0,0,0,0,0
       65       0.12036586856011E-14    28.9736055928427
[PI-INFO] Paramount Iteration,0,65,221.488859,3.330835
[RU-INFO] Resources Stats,0,65,220.421422,0.223794,1084228,0,0,0,5504,0,0,256,0,0,0,0,2031,2323
[NT-INFO] Network Stats,0,65,ens4,172827252,23739,0,0,0,0,0,0,5298648,33660,0,0,0,0,0,0
[NT-INFO] Network Stats,0,65,lo,12989,134,0,0,0,0,0,0,12989,134,0,0,0,0,0,0
       66       0.12107773799785E-14    28.9736055928443
[PI-INFO] Paramount Iteration,0,66,224.817942,3.329083
[RU-INFO] Resources Stats,0,66,223.745443,0.223801,1084228,0,0,0,5504,0,0,256,0,0,0,0,2031,2360
[NT-INFO] Network Stats,0,66,ens4,172829298,23770,0,0,0,0,0,0,5308962,33721,0,0,0,0,0,0
[NT-INFO] Network Stats,0,66,lo,12989,134,0,0,0,0,0,0,12989,134,0,0,0,0,0,0
       67       0.12043927909652E-14    28.9736055928434
[PI-INFO] Paramount Iteration,0,67,228.150369,3.332427
[RU-INFO] Resources Stats,0,67,227.072537,0.223801,1084228,0,0,0,5504,0,0,256,0,0,0,0,2031,2389
[NT-INFO] Network Stats,0,67,ens4,172831740,23807,0,0,0,0,0,0,5322182,33795,0,0,0,0,0,0
[NT-INFO] Network Stats,0,67,lo,12989,134,0,0,0,0,0,0,12989,134,0,0,0,0,0,0
       68       0.12055636258518E-14    28.9736055928459
[PI-INFO] Paramount Iteration,0,68,231.470698,3.320329
[RU-INFO] Resources Stats,0,68,230.387820,0.223801,1084228,0,0,0,5504,0,0,256,0,0,0,0,2031,2425
[NT-INFO] Network Stats,0,68,ens4,172833522,23834,0,0,0,0,0,0,5329346,33841,0,0,0,0,0,0
[NT-INFO] Network Stats,0,68,lo,12989,134,0,0,0,0,0,0,12989,134,0,0,0,0,0,0
       69       0.12054998562919E-14    28.9736055928467
[PI-INFO] Paramount Iteration,0,69,234.801426,3.330728
[RU-INFO] Resources Stats,0,69,233.711450,0.223801,1084228,0,0,0,5504,0,0,256,0,0,0,0,2031,2460
[NT-INFO] Network Stats,0,69,ens4,172842032,23888,0,0,0,0,0,0,5344509,33925,0,0,0,0,0,0
[NT-INFO] Network Stats,0,69,lo,12989,134,0,0,0,0,0,0,12989,134,0,0,0,0,0,0
       70       0.12090369981388E-14    28.9736055928445
[PI-INFO] Paramount Iteration,0,70,238.136085,3.334659
[RU-INFO] Resources Stats,0,70,237.040416,0.223801,1084228,0,0,0,5504,0,0,256,0,0,0,0,2031,2496
[NT-INFO] Network Stats,0,70,ens4,172844936,23932,0,0,0,0,0,0,5359118,34003,0,0,0,0,0,0
[NT-INFO] Network Stats,0,70,lo,12989,134,0,0,0,0,0,0,12989,134,0,0,0,0,0,0
       71       0.12060279708305E-14    28.9736055928458
[PI-INFO] Paramount Iteration,0,71,241.449530,3.313445
[RU-INFO] Resources Stats,0,71,240.341458,0.227793,1084228,0,0,0,5505,0,0,256,0,0,0,0,2031,2526
[NT-INFO] Network Stats,0,71,ens4,172849226,23997,0,0,0,0,0,0,5381748,34126,0,0,0,0,0,0
[NT-INFO] Network Stats,0,71,lo,12989,134,0,0,0,0,0,0,12989,134,0,0,0,0,0,0
       72       0.12052402871101E-14    28.9736055928434
[PI-INFO] Paramount Iteration,0,72,244.775316,3.325786
[RU-INFO] Resources Stats,0,72,243.658713,0.227793,1084228,0,0,0,5505,0,0,256,0,0,0,0,2031,2580
[NT-INFO] Network Stats,0,72,ens4,172852128,24040,0,0,0,0,0,0,5395954,34205,0,0,0,0,0,0
[NT-INFO] Network Stats,0,72,lo,12989,134,0,0,0,0,0,0,12989,134,0,0,0,0,0,0
       73       0.12056749820729E-14    28.9736055928469
[PI-INFO] Paramount Iteration,0,73,248.081363,3.306047
[RU-INFO] Resources Stats,0,73,246.958955,0.227803,1084228,0,0,0,5505,0,0,256,0,0,0,0,2031,2614
[NT-INFO] Network Stats,0,73,ens4,172854040,24068,0,0,0,0,0,0,5403330,34253,0,0,0,0,0,0
[NT-INFO] Network Stats,0,73,lo,12989,134,0,0,0,0,0,0,12989,134,0,0,0,0,0,0
       74       0.11998943412229E-14    28.9736055928454
[PI-INFO] Paramount Iteration,0,74,251.405119,3.323756
[RU-INFO] Resources Stats,0,74,250.276510,0.227803,1084228,0,0,0,5505,0,0,256,0,0,0,0,2031,2669
[NT-INFO] Network Stats,0,74,ens4,172856460,24094,0,0,0,0,0,0,5405792,34268,0,0,0,0,0,0
[NT-INFO] Network Stats,0,74,lo,12989,134,0,0,0,0,0,0,12989,134,0,0,0,0,0,0
       75       0.12053174104701E-14    28.9736055928454
[PI-INFO] Paramount Iteration,0,75,254.705750,3.300631
[RU-INFO] Resources Stats,0,75,253.574314,0.227804,1084228,0,0,0,5505,0,0,256,0,0,0,0,2031,2709
[NT-INFO] Network Stats,0,75,ens4,172857572,24106,0,0,0,0,0,0,5406510,34275,0,0,0,0,0,0
[NT-INFO] Network Stats,0,75,lo,12989,134,0,0,0,0,0,0,12989,134,0,0,0,0,0,0
 Benchmark completed 
 VERIFICATION SUCCESSFUL 
 Zeta is     0.2897360559285E+02
 Error is    0.1287499186384E-13


 CG Benchmark Completed.
 Class           =                        C
 Size            =                   150000
 Iterations      =                       75
 Time in seconds =                   249.47
 Total processes =                        1
 Active procs    =                        1
 Mop/s total     =                   574.61
 Mop/s/process   =                   574.61
 Operation type  =           floating point
 Verification    =               SUCCESSFUL
 Version         =                      3.4
 Compile date    =              15 May 2021

 Compile options:
    MPIFC        = mpif90
    FLINK        = $(MPIFC)
    FMPI_LIB     = (none)
    FMPI_INC     = (none)
    FFLAGS       = -O3
    FLINKFLAGS   = $(FFLAGS) -O ../../utils/obj/*.o
    RAND         = randi8


 Please send feedbacks and/or the results of this run to:

 NPB Development Team 
 Internet: npb@nas.nasa.gov


[PI-INFO] PI avg,0,3.282467,76
[PI-INFO] Beta,0,1.021002
[PI-INFO] Total time,254.706905
