

 NAS Parallel Benchmarks 3.4 -- BT Benchmark

 No input file inputbt.data. Using compiled defaults
 Size:  162x 162x 162  (class C)
 Iterations:  200    dt:   0.0001000
 Total number of processes:     1

[PI-INFO] Init time,0,8.025276
 Time step    1
[PI-INFO] Paramount Iteration,0,1,13.225964,5.200688
[RU-INFO] Resources Stats,0,1,12.375774,0.448236,1593256,0,0,0,5385,0,0,0,0,0,0,0,2055,206
[NT-INFO] Network Stats,0,1,ens4,171714300,9121,0,0,0,0,0,0,837649,7781,0,0,0,0,0,0
[NT-INFO] Network Stats,0,1,lo,4027,37,0,0,0,0,0,0,4027,37,0,0,0,0,0,0
[PI-INFO] Paramount Iteration,0,2,18.420880,5.194916
[RU-INFO] Resources Stats,0,2,17.568224,0.448236,1593256,0,0,0,5385,0,0,0,0,0,0,0,2055,252
[NT-INFO] Network Stats,0,2,ens4,171715078,9130,0,0,0,0,0,0,839150,7789,0,0,0,0,0,0
[NT-INFO] Network Stats,0,2,lo,4027,37,0,0,0,0,0,0,4027,37,0,0,0,0,0,0
[PI-INFO] Paramount Iteration,0,3,23.631278,5.210398
[RU-INFO] Resources Stats,0,3,22.755213,0.448236,1593256,0,0,0,5385,0,0,0,0,0,0,0,2055,316
[NT-INFO] Network Stats,0,3,ens4,171720778,9142,0,0,0,0,0,0,840185,7798,0,0,0,0,0,0
[NT-INFO] Network Stats,0,3,lo,4027,37,0,0,0,0,0,0,4027,37,0,0,0,0,0,0
[PI-INFO] Paramount Iteration,0,4,28.862833,5.231555
[RU-INFO] Resources Stats,0,4,27.935755,0.455539,1593256,0,0,0,5385,0,0,0,0,0,0,0,2055,413
[NT-INFO] Network Stats,0,4,ens4,171726764,9195,0,0,0,0,0,0,849337,7842,0,0,0,0,0,0
[NT-INFO] Network Stats,0,4,lo,4027,37,0,0,0,0,0,0,4027,37,0,0,0,0,0,0
[PI-INFO] Paramount Iteration,0,5,34.057257,5.194424
[RU-INFO] Resources Stats,0,5,33.113009,0.455604,1593256,0,0,0,5386,0,0,0,0,0,0,0,2055,472
[NT-INFO] Network Stats,0,5,ens4,171732516,9277,0,0,0,0,0,0,870571,7939,0,0,0,0,0,0
[NT-INFO] Network Stats,0,5,lo,4027,37,0,0,0,0,0,0,4027,37,0,0,0,0,0,0
[PI-INFO] Paramount Iteration,0,6,39.245817,5.188560
[RU-INFO] Resources Stats,0,6,38.292181,0.455604,1593256,0,0,0,5386,0,0,0,0,0,0,0,2055,523
[NT-INFO] Network Stats,0,6,ens4,171737070,9346,0,0,0,0,0,0,887093,8048,0,0,0,0,0,0
[NT-INFO] Network Stats,0,6,lo,4027,37,0,0,0,0,0,0,4027,37,0,0,0,0,0,0
[PI-INFO] Paramount Iteration,0,7,44.438500,5.192683
[RU-INFO] Resources Stats,0,7,43.478649,0.455604,1593256,0,0,0,5386,0,0,0,0,0,0,0,2055,565
[NT-INFO] Network Stats,0,7,ens4,171740106,9392,0,0,0,0,0,0,901989,8128,0,0,0,0,0,0
[NT-INFO] Network Stats,0,7,lo,4027,37,0,0,0,0,0,0,4027,37,0,0,0,0,0,0
[PI-INFO] Paramount Iteration,0,8,49.619727,5.181227
[RU-INFO] Resources Stats,0,8,48.649419,0.455604,1593256,0,0,0,5386,0,0,0,0,0,0,0,2055,615
[NT-INFO] Network Stats,0,8,ens4,171745582,9474,0,0,0,0,0,0,930457,8282,0,0,0,0,0,0
[NT-INFO] Network Stats,0,8,lo,4027,37,0,0,0,0,0,0,4027,37,0,0,0,0,0,0
[PI-INFO] Paramount Iteration,0,9,54.810048,5.190321
[RU-INFO] Resources Stats,0,9,53.829310,0.455604,1593256,0,0,0,5386,0,0,0,0,0,0,0,2055,658
[NT-INFO] Network Stats,0,9,ens4,171751058,9556,0,0,0,0,0,0,960665,8442,0,0,0,0,0,0
[NT-INFO] Network Stats,0,9,lo,4027,37,0,0,0,0,0,0,4027,37,0,0,0,0,0,0
[PI-INFO] Paramount Iteration,0,10,60.006874,5.196826
[RU-INFO] Resources Stats,0,10,59.017460,0.455604,1593256,0,0,0,5387,0,0,0,0,0,0,0,2055,711
[NT-INFO] Network Stats,0,10,ens4,171755348,9621,0,0,0,0,0,0,975141,8544,0,0,0,0,0,0
[NT-INFO] Network Stats,0,10,lo,4027,37,0,0,0,0,0,0,4027,37,0,0,0,0,0,0
[PI-INFO] Paramount Iteration,0,11,65.183614,5.176740
[RU-INFO] Resources Stats,0,11,64.189910,0.455604,1593256,0,0,0,5387,0,0,0,0,0,0,0,2055,764
[NT-INFO] Network Stats,0,11,ens4,171756916,9637,0,0,0,0,0,0,976879,8557,0,0,0,0,0,0
[NT-INFO] Network Stats,0,11,lo,4027,37,0,0,0,0,0,0,4027,37,0,0,0,0,0,0
[PI-INFO] Paramount Iteration,0,12,70.369084,5.185470
[RU-INFO] Resources Stats,0,12,69.371673,0.455604,1593256,0,0,0,5387,0,0,0,0,0,0,0,2055,816
[NT-INFO] Network Stats,0,12,ens4,171758158,9650,0,0,0,0,0,0,977725,8564,0,0,0,0,0,0
[NT-INFO] Network Stats,0,12,lo,4027,37,0,0,0,0,0,0,4027,37,0,0,0,0,0,0
[PI-INFO] Paramount Iteration,0,13,75.551111,5.182027
[RU-INFO] Resources Stats,0,13,74.540391,0.459558,1593256,0,0,0,5387,0,0,0,0,0,0,0,2055,876
[NT-INFO] Network Stats,0,13,ens4,171762818,9708,0,0,0,0,0,0,987491,8631,0,0,0,0,0,0
[NT-INFO] Network Stats,0,13,lo,4027,37,0,0,0,0,0,0,4027,37,0,0,0,0,0,0
[PI-INFO] Paramount Iteration,0,14,80.735958,5.184847
[RU-INFO] Resources Stats,0,14,79.722435,0.459622,1593256,0,0,0,5387,0,0,0,0,0,0,0,2055,923
[NT-INFO] Network Stats,0,14,ens4,171762818,9708,0,0,0,0,0,0,987491,8631,0,0,0,0,0,0
[NT-INFO] Network Stats,0,14,lo,4027,37,0,0,0,0,0,0,4027,37,0,0,0,0,0,0
[PI-INFO] Paramount Iteration,0,15,85.919369,5.183411
[RU-INFO] Resources Stats,0,15,84.902701,0.459624,1593548,0,0,0,5388,0,0,0,0,0,0,0,2055,976
[NT-INFO] Network Stats,0,15,ens4,171768228,9716,0,0,0,0,0,0,988279,8637,0,0,0,0,0,0
[NT-INFO] Network Stats,0,15,lo,4027,37,0,0,0,0,0,0,4027,37,0,0,0,0,0,0
[PI-INFO] Paramount Iteration,0,16,91.107072,5.187703
[RU-INFO] Resources Stats,0,16,90.088067,0.459653,1593548,0,0,0,5388,0,0,0,0,0,0,0,2055,1020
[NT-INFO] Network Stats,0,16,ens4,171768426,9719,0,0,0,0,0,0,988477,8640,0,0,0,0,0,0
[NT-INFO] Network Stats,0,16,lo,4027,37,0,0,0,0,0,0,4027,37,0,0,0,0,0,0
[PI-INFO] Paramount Iteration,0,17,96.294456,5.187384
[RU-INFO] Resources Stats,0,17,95.271725,0.459653,1593548,0,0,0,5388,0,0,0,0,0,0,0,2055,1059
[NT-INFO] Network Stats,0,17,ens4,171768426,9719,0,0,0,0,0,0,988477,8640,0,0,0,0,0,0
[NT-INFO] Network Stats,0,17,lo,4027,37,0,0,0,0,0,0,4027,37,0,0,0,0,0,0
[PI-INFO] Paramount Iteration,0,18,101.472124,5.177668
[RU-INFO] Resources Stats,0,18,100.447115,0.459666,1593548,0,0,0,5388,0,0,0,0,0,0,0,2055,1100
[NT-INFO] Network Stats,0,18,ens4,171768492,9720,0,0,0,0,0,0,988543,8641,0,0,0,0,0,0
[NT-INFO] Network Stats,0,18,lo,4027,37,0,0,0,0,0,0,4027,37,0,0,0,0,0,0
[PI-INFO] Paramount Iteration,0,19,106.659582,5.187458
[RU-INFO] Resources Stats,0,19,105.630294,0.459666,1593548,0,0,0,5388,0,0,0,0,0,0,0,2055,1154
[NT-INFO] Network Stats,0,19,ens4,171770388,9740,0,0,0,0,0,0,989989,8652,0,0,0,0,0,0
[NT-INFO] Network Stats,0,19,lo,4027,37,0,0,0,0,0,0,4027,37,0,0,0,0,0,0
 Time step   20
[PI-INFO] Paramount Iteration,0,20,111.845707,5.186125
[RU-INFO] Resources Stats,0,20,110.813050,0.459666,1593548,0,0,0,5389,0,0,0,0,0,0,0,2055,1207
[NT-INFO] Network Stats,0,20,ens4,171770976,9746,0,0,0,0,0,0,990379,8655,0,0,0,0,0,0
[NT-INFO] Network Stats,0,20,lo,4027,37,0,0,0,0,0,0,4027,37,0,0,0,0,0,0
[PI-INFO] Paramount Iteration,0,21,117.026140,5.180433
[RU-INFO] Resources Stats,0,21,115.990111,0.459666,1593548,0,0,0,5389,0,0,0,0,0,0,0,2055,1259
[NT-INFO] Network Stats,0,21,ens4,171772522,9763,0,0,0,0,0,0,991767,8665,0,0,0,0,0,0
[NT-INFO] Network Stats,0,21,lo,4027,37,0,0,0,0,0,0,4027,37,0,0,0,0,0,0
[PI-INFO] Paramount Iteration,0,22,122.206944,5.180804
[RU-INFO] Resources Stats,0,22,121.161361,0.463653,1593548,0,0,0,5389,0,0,0,0,0,0,0,2055,1322
[NT-INFO] Network Stats,0,22,ens4,171773594,9775,0,0,0,0,0,0,992919,8673,0,0,0,0,0,0
[NT-INFO] Network Stats,0,22,lo,4027,37,0,0,0,0,0,0,4027,37,0,0,0,0,0,0
[PI-INFO] Paramount Iteration,0,23,127.388173,5.181229
[RU-INFO] Resources Stats,0,23,126.328886,0.463665,1593548,0,0,0,5389,0,0,0,0,0,0,0,2055,1370
[NT-INFO] Network Stats,0,23,ens4,171777191,9819,0,0,0,0,0,0,1008105,8742,0,0,0,0,0,0
[NT-INFO] Network Stats,0,23,lo,4027,37,0,0,0,0,0,0,4027,37,0,0,0,0,0,0
[PI-INFO] Paramount Iteration,0,24,132.581061,5.192888
[RU-INFO] Resources Stats,0,24,131.513393,0.463665,1593548,0,0,0,5390,0,0,0,0,0,0,0,2055,1426
[NT-INFO] Network Stats,0,24,ens4,171781085,9878,0,0,0,0,0,0,1023281,8842,0,0,0,0,0,0
[NT-INFO] Network Stats,0,24,lo,4027,37,0,0,0,0,0,0,4027,37,0,0,0,0,0,0
[PI-INFO] Paramount Iteration,0,25,137.788185,5.207124
[RU-INFO] Resources Stats,0,25,136.706586,0.463665,1593760,0,0,0,5390,0,0,0,0,0,0,0,2055,1481
[NT-INFO] Network Stats,0,25,ens4,171783855,9919,0,0,0,0,0,0,1038859,8927,0,0,0,0,0,0
[NT-INFO] Network Stats,0,25,lo,4027,37,0,0,0,0,0,0,4027,37,0,0,0,0,0,0
[PI-INFO] Paramount Iteration,0,26,142.998920,5.210735
[RU-INFO] Resources Stats,0,26,141.907739,0.463665,1593760,0,0,0,5390,0,0,0,0,0,0,0,2055,1526
[NT-INFO] Network Stats,0,26,ens4,171788475,9989,0,0,0,0,0,0,1059969,9050,0,0,0,0,0,0
[NT-INFO] Network Stats,0,26,lo,4027,37,0,0,0,0,0,0,4027,37,0,0,0,0,0,0
[PI-INFO] Paramount Iteration,0,27,148.211162,5.212242
[RU-INFO] Resources Stats,0,27,147.109967,0.463665,1593760,0,0,0,5390,0,0,0,0,0,0,0,2055,1586
[NT-INFO] Network Stats,0,27,ens4,171797807,10054,0,0,0,0,0,0,1075749,9160,0,0,0,0,0,0
[NT-INFO] Network Stats,0,27,lo,4027,37,0,0,0,0,0,0,4027,37,0,0,0,0,0,0
[PI-INFO] Paramount Iteration,0,28,153.413912,5.202750
[RU-INFO] Resources Stats,0,28,152.302298,0.463665,1593760,0,0,0,5390,0,0,0,0,0,0,0,2055,1631
[NT-INFO] Network Stats,0,28,ens4,171803877,10145,0,0,0,0,0,0,1105533,9324,0,0,0,0,0,0
[NT-INFO] Network Stats,0,28,lo,4027,37,0,0,0,0,0,0,4027,37,0,0,0,0,0,0
[PI-INFO] Paramount Iteration,0,29,158.629121,5.215209
[RU-INFO] Resources Stats,0,29,157.509760,0.463665,1593972,0,0,0,5390,0,0,0,0,0,0,0,2055,1674
[NT-INFO] Network Stats,0,29,ens4,171806385,10183,0,0,0,0,0,0,1120609,9406,0,0,0,0,0,0
[NT-INFO] Network Stats,0,29,lo,4027,37,0,0,0,0,0,0,4027,37,0,0,0,0,0,0
[PI-INFO] Paramount Iteration,0,30,163.820031,5.190910
[RU-INFO] Resources Stats,0,30,162.686947,0.467652,1593972,0,0,0,5391,0,0,0,0,0,0,0,2055,1716
[NT-INFO] Network Stats,0,30,ens4,171810411,10244,0,0,0,0,0,0,1140019,9519,0,0,0,0,0,0
[NT-INFO] Network Stats,0,30,lo,4027,37,0,0,0,0,0,0,4027,37,0,0,0,0,0,0
[PI-INFO] Paramount Iteration,0,31,169.018539,5.198508
[RU-INFO] Resources Stats,0,31,167.876625,0.467652,1593972,0,0,0,5391,0,0,0,0,0,0,0,2055,1767
[NT-INFO] Network Stats,0,31,ens4,171814303,10302,0,0,0,0,0,0,1155977,9618,0,0,0,0,0,0
[NT-INFO] Network Stats,0,31,lo,4027,37,0,0,0,0,0,0,4027,37,0,0,0,0,0,0
[PI-INFO] Paramount Iteration,0,32,174.221860,5.203321
[RU-INFO] Resources Stats,0,32,173.070253,0.467652,1593972,0,0,0,5391,0,0,0,0,0,0,0,2055,1809
[NT-INFO] Network Stats,0,32,ens4,171819823,10386,0,0,0,0,0,0,1184071,9773,0,0,0,0,0,0
[NT-INFO] Network Stats,0,32,lo,4027,37,0,0,0,0,0,0,4027,37,0,0,0,0,0,0
[PI-INFO] Paramount Iteration,0,33,179.406474,5.184614
[RU-INFO] Resources Stats,0,33,178.248337,0.467652,1594184,0,0,0,5391,0,0,0,0,0,0,0,2055,1854
[NT-INFO] Network Stats,0,33,ens4,171821869,10417,0,0,0,0,0,0,1192479,9825,0,0,0,0,0,0
[NT-INFO] Network Stats,0,33,lo,4027,37,0,0,0,0,0,0,4027,37,0,0,0,0,0,0
[PI-INFO] Paramount Iteration,0,34,184.607927,5.201453
[RU-INFO] Resources Stats,0,34,183.440281,0.467652,1594184,0,0,0,5391,0,0,0,0,0,0,0,2055,1899
[NT-INFO] Network Stats,0,34,ens4,171826751,10490,0,0,0,0,0,0,1215485,9960,0,0,0,0,0,0
[NT-INFO] Network Stats,0,34,lo,4027,37,0,0,0,0,0,0,4027,37,0,0,0,0,0,0
[PI-INFO] Paramount Iteration,0,35,189.796637,5.188710
[RU-INFO] Resources Stats,0,35,188.619102,0.467652,1594184,0,0,0,5391,0,0,0,0,0,0,0,2055,1950
[NT-INFO] Network Stats,0,35,ens4,171830669,10549,0,0,0,0,0,0,1235963,10067,0,0,0,0,0,0
[NT-INFO] Network Stats,0,35,lo,4027,37,0,0,0,0,0,0,4027,37,0,0,0,0,0,0
[PI-INFO] Paramount Iteration,0,36,194.976805,5.180168
[RU-INFO] Resources Stats,0,36,193.794473,0.467652,1594184,0,0,0,5391,0,0,0,0,0,0,0,2055,1987
[NT-INFO] Network Stats,0,36,ens4,171832649,10579,0,0,0,0,0,0,1243253,10120,0,0,0,0,0,0
[NT-INFO] Network Stats,0,36,lo,4027,37,0,0,0,0,0,0,4027,37,0,0,0,0,0,0
[PI-INFO] Paramount Iteration,0,37,200.168343,5.191538
[RU-INFO] Resources Stats,0,37,198.972026,0.471625,1594872,0,0,0,5391,0,0,0,0,0,0,0,2055,2036
[NT-INFO] Network Stats,0,37,ens4,171836675,10640,0,0,0,0,0,0,1256591,10213,0,0,0,0,0,0
[NT-INFO] Network Stats,0,37,lo,4027,37,0,0,0,0,0,0,4027,37,0,0,0,0,0,0
[PI-INFO] Paramount Iteration,0,38,205.364395,5.196052
[RU-INFO] Resources Stats,0,38,204.146046,0.471625,1594872,0,0,0,5392,0,0,0,0,0,0,0,2055,2162
[NT-INFO] Network Stats,0,38,ens4,171848405,10740,0,0,0,0,0,0,1288022,10383,0,0,0,0,0,0
[NT-INFO] Network Stats,0,38,lo,4027,37,0,0,0,0,0,0,4027,37,0,0,0,0,0,0
[PI-INFO] Paramount Iteration,0,39,210.550286,5.185891
[RU-INFO] Resources Stats,0,39,209.321509,0.471625,1594872,0,0,0,5392,0,0,0,0,0,0,0,2055,2228
[NT-INFO] Network Stats,0,39,ens4,171856373,10810,0,0,0,0,0,0,1304707,10496,0,0,0,0,0,0
[NT-INFO] Network Stats,0,39,lo,4027,37,0,0,0,0,0,0,4027,37,0,0,0,0,0,0
 Time step   40
[PI-INFO] Paramount Iteration,0,40,215.722393,5.172107
[RU-INFO] Resources Stats,0,40,214.485220,0.471625,1594872,0,0,0,5392,0,0,0,0,0,0,0,2055,2291
[NT-INFO] Network Stats,0,40,ens4,171858947,10849,0,0,0,0,0,0,1318493,10573,0,0,0,0,0,0
[NT-INFO] Network Stats,0,40,lo,4027,37,0,0,0,0,0,0,4027,37,0,0,0,0,0,0
[PI-INFO] Paramount Iteration,0,41,220.909969,5.187576
[RU-INFO] Resources Stats,0,41,219.661905,0.471625,1594872,0,0,0,5392,0,0,0,0,0,0,0,2055,2347
[NT-INFO] Network Stats,0,41,ens4,171864555,10933,0,0,0,0,0,0,1348415,10732,0,0,0,0,0,0
[NT-INFO] Network Stats,0,41,lo,4027,37,0,0,0,0,0,0,4027,37,0,0,0,0,0,0
[PI-INFO] Paramount Iteration,0,42,226.095815,5.185846
[RU-INFO] Resources Stats,0,42,224.838357,0.471627,1594872,0,0,0,5392,0,0,0,0,0,0,0,2055,2388
[NT-INFO] Network Stats,0,42,ens4,171869571,11009,0,0,0,0,0,0,1369513,10857,0,0,0,0,0,0
[NT-INFO] Network Stats,0,42,lo,4027,37,0,0,0,0,0,0,4027,37,0,0,0,0,0,0
[PI-INFO] Paramount Iteration,0,43,231.292216,5.196401
[RU-INFO] Resources Stats,0,43,230.024479,0.471631,1594872,0,0,0,5392,0,0,0,0,0,0,0,2055,2434
[NT-INFO] Network Stats,0,43,ens4,171875313,11096,0,0,0,0,0,0,1400075,11018,0,0,0,0,0,0
[NT-INFO] Network Stats,0,43,lo,4027,37,0,0,0,0,0,0,4027,37,0,0,0,0,0,0
[PI-INFO] Paramount Iteration,0,44,236.488542,5.196326
[RU-INFO] Resources Stats,0,44,235.215405,0.471637,1594872,0,0,0,5392,0,0,0,0,0,0,0,2055,2476
[NT-INFO] Network Stats,0,44,ens4,171877465,11128,0,0,0,0,0,0,1407973,11071,0,0,0,0,0,0
[NT-INFO] Network Stats,0,44,lo,4027,37,0,0,0,0,0,0,4027,37,0,0,0,0,0,0
[PI-INFO] Paramount Iteration,0,45,241.680485,5.191943
[RU-INFO] Resources Stats,0,45,240.396955,0.471648,1594872,0,0,0,5392,0,0,0,0,0,0,0,2055,2523
[NT-INFO] Network Stats,0,45,ens4,171883207,11215,0,0,0,0,0,0,1436277,11227,0,0,0,0,0,0
[NT-INFO] Network Stats,0,45,lo,4027,37,0,0,0,0,0,0,4027,37,0,0,0,0,0,0
[PI-INFO] Paramount Iteration,0,46,246.874304,5.193819
[RU-INFO] Resources Stats,0,46,245.581439,0.471648,1594872,0,0,0,5392,0,0,0,0,0,0,0,2055,2571
[NT-INFO] Network Stats,0,46,ens4,171888089,11288,0,0,0,0,0,0,1458563,11354,0,0,0,0,0,0
[NT-INFO] Network Stats,0,46,lo,4027,37,0,0,0,0,0,0,4027,37,0,0,0,0,0,0
[PI-INFO] Paramount Iteration,0,47,252.059023,5.184719
[RU-INFO] Resources Stats,0,47,250.758030,0.471648,1594872,0,0,0,5393,0,0,0,0,0,0,0,2055,2613
[NT-INFO] Network Stats,0,47,ens4,171890885,11330,0,0,0,0,0,0,1472171,11426,0,0,0,0,0,0
[NT-INFO] Network Stats,0,47,lo,4027,37,0,0,0,0,0,0,4027,37,0,0,0,0,0,0
[PI-INFO] Paramount Iteration,0,48,257.248469,5.189446
[RU-INFO] Resources Stats,0,48,255.936703,0.471648,1594872,0,0,0,5393,0,0,0,0,0,0,0,2055,2661
[NT-INFO] Network Stats,0,48,ens4,171896229,11410,0,0,0,0,0,0,1501643,11586,0,0,0,0,0,0
[NT-INFO] Network Stats,0,48,lo,4027,37,0,0,0,0,0,0,4027,37,0,0,0,0,0,0
[PI-INFO] Paramount Iteration,0,49,262.435424,5.186955
[RU-INFO] Resources Stats,0,49,261.115049,0.471648,1594872,0,0,0,5393,0,0,0,0,0,0,0,2055,2714
[NT-INFO] Network Stats,0,49,ens4,171899529,11460,0,0,0,0,0,0,1513869,11667,0,0,0,0,0,0
[NT-INFO] Network Stats,0,49,lo,4027,37,0,0,0,0,0,0,4027,37,0,0,0,0,0,0
[PI-INFO] Paramount Iteration,0,50,267.635920,5.200496
[RU-INFO] Resources Stats,0,50,266.305108,0.471648,1594872,0,0,0,5393,0,0,0,0,0,0,0,2055,2769
[NT-INFO] Network Stats,0,50,ens4,171909983,11542,0,0,0,0,0,0,1536499,11802,0,0,0,0,0,0
[NT-INFO] Network Stats,0,50,lo,4027,37,0,0,0,0,0,0,4027,37,0,0,0,0,0,0
[PI-INFO] Paramount Iteration,0,51,272.811990,5.176070
[RU-INFO] Resources Stats,0,51,271.474432,0.471648,1594872,0,0,0,5393,0,0,0,0,0,0,0,2055,2813
[NT-INFO] Network Stats,0,51,ens4,171912755,11584,0,0,0,0,0,0,1550253,11879,0,0,0,0,0,0
[NT-INFO] Network Stats,0,51,lo,4027,37,0,0,0,0,0,0,4027,37,0,0,0,0,0,0
[PI-INFO] Paramount Iteration,0,52,277.999458,5.187468
[RU-INFO] Resources Stats,0,52,276.652585,0.471648,1594872,0,0,0,5393,0,0,0,0,0,0,0,2055,2862
[NT-INFO] Network Stats,0,52,ens4,171916847,11646,0,0,0,0,0,0,1566437,11987,0,0,0,0,0,0
[NT-INFO] Network Stats,0,52,lo,4027,37,0,0,0,0,0,0,4027,37,0,0,0,0,0,0
[PI-INFO] Paramount Iteration,0,53,283.187948,5.188490
[RU-INFO] Resources Stats,0,53,281.831524,0.471648,1594872,0,0,0,5393,0,0,0,0,0,0,0,2055,2908
[NT-INFO] Network Stats,0,53,ens4,171921597,11717,0,0,0,0,0,0,1587563,12110,0,0,0,0,0,0
[NT-INFO] Network Stats,0,53,lo,4027,37,0,0,0,0,0,0,4027,37,0,0,0,0,0,0
[PI-INFO] Paramount Iteration,0,54,288.382148,5.194200
[RU-INFO] Resources Stats,0,54,287.015576,0.471648,1594872,0,0,0,5394,0,0,0,0,0,0,0,2055,2952
[NT-INFO] Network Stats,0,54,ens4,171927009,11799,0,0,0,0,0,0,1615869,12263,0,0,0,0,0,0
[NT-INFO] Network Stats,0,54,lo,4027,37,0,0,0,0,0,0,4027,37,0,0,0,0,0,0
[PI-INFO] Paramount Iteration,0,55,293.577396,5.195248
[RU-INFO] Resources Stats,0,55,292.205419,0.471648,1594872,0,0,0,5394,0,0,0,0,0,0,0,2055,2992
[NT-INFO] Network Stats,0,55,ens4,171928989,11829,0,0,0,0,0,0,1623547,12310,0,0,0,0,0,0
[NT-INFO] Network Stats,0,55,lo,4027,37,0,0,0,0,0,0,4027,37,0,0,0,0,0,0
[PI-INFO] Paramount Iteration,0,56,298.769906,5.192510
[RU-INFO] Resources Stats,0,56,297.387462,0.471648,1594872,0,0,0,5394,0,0,0,0,0,0,0,2055,3045
[NT-INFO] Network Stats,0,56,ens4,171934243,11908,0,0,0,0,0,0,1652061,12459,0,0,0,0,0,0
[NT-INFO] Network Stats,0,56,lo,4027,37,0,0,0,0,0,0,4027,37,0,0,0,0,0,0
[PI-INFO] Paramount Iteration,0,57,303.957283,5.187377
[RU-INFO] Resources Stats,0,57,302.564679,0.471648,1594872,0,0,0,5394,0,0,0,0,0,0,0,2055,3088
[NT-INFO] Network Stats,0,57,ens4,171939785,11991,0,0,0,0,0,0,1681511,12616,0,0,0,0,0,0
[NT-INFO] Network Stats,0,57,lo,4027,37,0,0,0,0,0,0,4027,37,0,0,0,0,0,0
[PI-INFO] Paramount Iteration,0,58,309.145257,5.187974
[RU-INFO] Resources Stats,0,58,307.746871,0.471648,1594872,0,0,0,5394,0,0,0,0,0,0,0,2055,3130
[NT-INFO] Network Stats,0,58,ens4,171942293,12029,0,0,0,0,0,0,1695375,12684,0,0,0,0,0,0
[NT-INFO] Network Stats,0,58,lo,4027,37,0,0,0,0,0,0,4027,37,0,0,0,0,0,0
[PI-INFO] Paramount Iteration,0,59,314.345992,5.200735
[RU-INFO] Resources Stats,0,59,312.937294,0.471648,1594872,0,0,0,5394,0,0,0,0,0,0,0,2055,3187
[NT-INFO] Network Stats,0,59,ens4,171947399,12106,0,0,0,0,0,0,1718127,12820,0,0,0,0,0,0
[NT-INFO] Network Stats,0,59,lo,4027,37,0,0,0,0,0,0,4027,37,0,0,0,0,0,0
 Time step   60
[PI-INFO] Paramount Iteration,0,60,319.546737,5.200745
[RU-INFO] Resources Stats,0,60,318.128574,0.471648,1594872,0,0,0,5394,0,0,0,0,0,0,0,2055,3232
[NT-INFO] Network Stats,0,60,ens4,171952281,12179,0,0,0,0,0,0,1740063,12944,0,0,0,0,0,0
[NT-INFO] Network Stats,0,60,lo,4027,37,0,0,0,0,0,0,4027,37,0,0,0,0,0,0
[PI-INFO] Paramount Iteration,0,61,324.732109,5.185372
[RU-INFO] Resources Stats,0,61,323.304808,0.471648,1594872,0,0,0,5394,0,0,0,0,0,0,0,2055,3279
[NT-INFO] Network Stats,0,61,ens4,171961189,12240,0,0,0,0,0,0,1754475,13042,0,0,0,0,0,0
[NT-INFO] Network Stats,0,61,lo,4027,37,0,0,0,0,0,0,4027,37,0,0,0,0,0,0
[PI-INFO] Paramount Iteration,0,62,329.918127,5.186018
[RU-INFO] Resources Stats,0,62,328.485157,0.471648,1594872,0,0,0,5394,0,0,0,0,0,0,0,2055,3330
[NT-INFO] Network Stats,0,62,ens4,171963301,12272,0,0,0,0,0,0,1761929,13097,0,0,0,0,0,0
[NT-INFO] Network Stats,0,62,lo,4027,37,0,0,0,0,0,0,4027,37,0,0,0,0,0,0
[PI-INFO] Paramount Iteration,0,63,335.102816,5.184689
[RU-INFO] Resources Stats,0,63,333.658604,0.471648,1594872,0,0,0,5395,0,0,0,0,0,0,0,2055,3375
[NT-INFO] Network Stats,0,63,ens4,171967723,12339,0,0,0,0,0,0,1782717,13219,0,0,0,0,0,0
[NT-INFO] Network Stats,0,63,lo,4027,37,0,0,0,0,0,0,4027,37,0,0,0,0,0,0
[PI-INFO] Paramount Iteration,0,64,340.289709,5.186893
[RU-INFO] Resources Stats,0,64,338.835855,0.471648,1594872,0,0,0,5395,0,0,0,0,0,0,0,2055,3422
[NT-INFO] Network Stats,0,64,ens4,171972211,12407,0,0,0,0,0,0,1806223,13356,0,0,0,0,0,0
[NT-INFO] Network Stats,0,64,lo,4027,37,0,0,0,0,0,0,4027,37,0,0,0,0,0,0
[PI-INFO] Paramount Iteration,0,65,345.469798,5.180089
[RU-INFO] Resources Stats,0,65,344.003018,0.475605,1594872,0,0,0,5395,0,0,0,0,0,0,0,2055,3466
[NT-INFO] Network Stats,0,65,ens4,171977027,12479,0,0,0,0,0,0,1828811,13490,0,0,0,0,0,0
[NT-INFO] Network Stats,0,65,lo,4027,37,0,0,0,0,0,0,4027,37,0,0,0,0,0,0
[PI-INFO] Paramount Iteration,0,66,350.654632,5.184834
[RU-INFO] Resources Stats,0,66,349.181389,0.475615,1594872,0,0,0,5395,0,0,0,0,0,0,0,2055,3510
[NT-INFO] Network Stats,0,66,ens4,171979469,12516,0,0,0,0,0,0,1842715,13562,0,0,0,0,0,0
[NT-INFO] Network Stats,0,66,lo,4027,37,0,0,0,0,0,0,4027,37,0,0,0,0,0,0
[PI-INFO] Paramount Iteration,0,67,355.843396,5.188764
[RU-INFO] Resources Stats,0,67,354.361450,0.475617,1594872,0,0,0,5395,0,0,0,0,0,0,0,2055,3553
[NT-INFO] Network Stats,0,67,ens4,171982943,12569,0,0,0,0,0,0,1858041,13669,0,0,0,0,0,0
[NT-INFO] Network Stats,0,67,lo,4027,37,0,0,0,0,0,0,4027,37,0,0,0,0,0,0
[PI-INFO] Paramount Iteration,0,68,361.022627,5.179231
[RU-INFO] Resources Stats,0,68,359.530972,0.475619,1594872,0,0,0,5395,0,0,0,0,0,0,0,2055,3606
[NT-INFO] Network Stats,0,68,ens4,171987495,12637,0,0,0,0,0,0,1878881,13793,0,0,0,0,0,0
[NT-INFO] Network Stats,0,68,lo,4027,37,0,0,0,0,0,0,4027,37,0,0,0,0,0,0
[PI-INFO] Paramount Iteration,0,69,366.200612,5.177985
[RU-INFO] Resources Stats,0,69,364.703218,0.475619,1594872,0,0,0,5395,0,0,0,0,0,0,0,2055,3642
[NT-INFO] Network Stats,0,69,ens4,171990399,12681,0,0,0,0,0,0,1892193,13865,0,0,0,0,0,0
[NT-INFO] Network Stats,0,69,lo,4027,37,0,0,0,0,0,0,4027,37,0,0,0,0,0,0
[PI-INFO] Paramount Iteration,0,70,371.390729,5.190117
[RU-INFO] Resources Stats,0,70,369.880124,0.475624,1594872,0,0,0,5395,0,0,0,0,0,0,0,2055,3710
[NT-INFO] Network Stats,0,70,ens4,171995943,12765,0,0,0,0,0,0,1922147,14018,0,0,0,0,0,0
[NT-INFO] Network Stats,0,70,lo,4027,37,0,0,0,0,0,0,4027,37,0,0,0,0,0,0
[PI-INFO] Paramount Iteration,0,71,376.572811,5.182082
[RU-INFO] Resources Stats,0,71,375.052731,0.475630,1594872,0,0,0,5395,0,0,0,0,0,0,0,2055,3751
[NT-INFO] Network Stats,0,71,ens4,172000561,12834,0,0,0,0,0,0,1943233,14145,0,0,0,0,0,0
[NT-INFO] Network Stats,0,71,lo,4027,37,0,0,0,0,0,0,4027,37,0,0,0,0,0,0
[PI-INFO] Paramount Iteration,0,72,381.761447,5.188636
[RU-INFO] Resources Stats,0,72,380.226612,0.479628,1594872,0,0,0,5396,0,0,0,0,0,0,0,2055,3805
[NT-INFO] Network Stats,0,72,ens4,172005337,12906,0,0,0,0,0,0,1971491,14302,0,0,0,0,0,0
[NT-INFO] Network Stats,0,72,lo,4027,37,0,0,0,0,0,0,4027,37,0,0,0,0,0,0
[PI-INFO] Paramount Iteration,0,73,386.950475,5.189028
[RU-INFO] Resources Stats,0,73,385.409500,0.479638,1594872,0,0,0,5396,0,0,0,0,0,0,0,2055,3847
[NT-INFO] Network Stats,0,73,ens4,172013019,12946,0,0,0,0,0,0,1980897,14361,0,0,0,0,0,0
[NT-INFO] Network Stats,0,73,lo,4027,37,0,0,0,0,0,0,4027,37,0,0,0,0,0,0
[PI-INFO] Paramount Iteration,0,74,392.148667,5.198192
[RU-INFO] Resources Stats,0,74,390.597885,0.479638,1594872,0,0,0,5396,0,0,0,0,0,0,0,2055,3897
[NT-INFO] Network Stats,0,74,ens4,172018099,13022,0,0,0,0,0,0,2002905,14493,0,0,0,0,0,0
[NT-INFO] Network Stats,0,74,lo,4027,37,0,0,0,0,0,0,4027,37,0,0,0,0,0,0
[PI-INFO] Paramount Iteration,0,75,397.342502,5.193835
[RU-INFO] Resources Stats,0,75,395.780682,0.479646,1594872,0,0,0,5396,0,0,0,0,0,0,0,2055,3947
[NT-INFO] Network Stats,0,75,ens4,172023181,13099,0,0,0,0,0,0,2031247,14648,0,0,0,0,0,0
[NT-INFO] Network Stats,0,75,lo,4027,37,0,0,0,0,0,0,4027,37,0,0,0,0,0,0
[PI-INFO] Paramount Iteration,0,76,402.544016,5.201514
[RU-INFO] Resources Stats,0,76,400.972762,0.479649,1594872,0,0,0,5396,0,0,0,0,0,0,0,2055,3991
[NT-INFO] Network Stats,0,76,ens4,172028129,13173,0,0,0,0,0,0,2054469,14779,0,0,0,0,0,0
[NT-INFO] Network Stats,0,76,lo,4027,37,0,0,0,0,0,0,4027,37,0,0,0,0,0,0
[PI-INFO] Paramount Iteration,0,77,407.731695,5.187679
[RU-INFO] Resources Stats,0,77,406.155007,0.479649,1594872,0,0,0,5396,0,0,0,0,0,0,0,2055,4038
[NT-INFO] Network Stats,0,77,ens4,172029911,13200,0,0,0,0,0,0,2061917,14831,0,0,0,0,0,0
[NT-INFO] Network Stats,0,77,lo,4027,37,0,0,0,0,0,0,4027,37,0,0,0,0,0,0
[PI-INFO] Paramount Iteration,0,78,412.923023,5.191328
[RU-INFO] Resources Stats,0,78,411.335488,0.479649,1594872,0,0,0,5396,0,0,0,0,0,0,0,2055,4084
[NT-INFO] Network Stats,0,78,ens4,172035653,13287,0,0,0,0,0,0,2089885,14983,0,0,0,0,0,0
[NT-INFO] Network Stats,0,78,lo,4027,37,0,0,0,0,0,0,4027,37,0,0,0,0,0,0
[PI-INFO] Paramount Iteration,0,79,418.113576,5.190553
[RU-INFO] Resources Stats,0,79,416.517475,0.479649,1594872,0,0,0,5396,0,0,0,0,0,0,0,2055,4133
[NT-INFO] Network Stats,0,79,ens4,172039193,13341,0,0,0,0,0,0,2104331,15082,0,0,0,0,0,0
[NT-INFO] Network Stats,0,79,lo,4027,37,0,0,0,0,0,0,4027,37,0,0,0,0,0,0
 Time step   80
[PI-INFO] Paramount Iteration,0,80,423.311980,5.198404
[RU-INFO] Resources Stats,0,80,421.706036,0.483644,1594872,0,0,0,5397,0,0,0,0,0,0,0,2055,4172
[NT-INFO] Network Stats,0,80,ens4,172042293,13387,0,0,0,0,0,0,2118881,15165,0,0,0,0,0,0
[NT-INFO] Network Stats,0,80,lo,4027,37,0,0,0,0,0,0,4027,37,0,0,0,0,0,0
[PI-INFO] Paramount Iteration,0,81,428.513094,5.201114
[RU-INFO] Resources Stats,0,81,426.897303,0.483644,1594872,0,0,0,5397,0,0,0,0,0,0,0,2055,4221
[NT-INFO] Network Stats,0,81,ens4,172046781,13455,0,0,0,0,0,0,2141563,15298,0,0,0,0,0,0
[NT-INFO] Network Stats,0,81,lo,4027,37,0,0,0,0,0,0,4027,37,0,0,0,0,0,0
[PI-INFO] Paramount Iteration,0,82,433.715726,5.202632
[RU-INFO] Resources Stats,0,82,432.091204,0.483647,1594872,0,0,0,5397,0,0,0,0,0,0,0,2055,4269
[NT-INFO] Network Stats,0,82,ens4,172050609,13513,0,0,0,0,0,0,2155597,15395,0,0,0,0,0,0
[NT-INFO] Network Stats,0,82,lo,4027,37,0,0,0,0,0,0,4027,37,0,0,0,0,0,0
[PI-INFO] Paramount Iteration,0,83,438.923745,5.208019
[RU-INFO] Resources Stats,0,83,437.290491,0.483647,1594872,0,0,0,5397,0,0,0,0,0,0,0,2055,4318
[NT-INFO] Network Stats,0,83,ens4,172054371,13570,0,0,0,0,0,0,2169459,15494,0,0,0,0,0,0
[NT-INFO] Network Stats,0,83,lo,4027,37,0,0,0,0,0,0,4027,37,0,0,0,0,0,0
[PI-INFO] Paramount Iteration,0,84,444.116908,5.193163
[RU-INFO] Resources Stats,0,84,442.476154,0.483647,1594872,0,0,0,5397,0,0,0,0,0,0,0,2055,4366
[NT-INFO] Network Stats,0,84,ens4,172062773,13622,0,0,0,0,0,0,2185212,15581,0,0,0,0,0,0
[NT-INFO] Network Stats,0,84,lo,4027,37,0,0,0,0,0,0,4027,37,0,0,0,0,0,0
[PI-INFO] Paramount Iteration,0,85,449.316855,5.199947
[RU-INFO] Resources Stats,0,85,447.657640,0.487631,1594872,0,0,0,5397,0,0,0,0,0,0,0,2055,4453
[NT-INFO] Network Stats,0,85,ens4,172076203,13724,0,0,0,0,0,0,2216227,15755,0,0,0,0,0,0
[NT-INFO] Network Stats,0,85,lo,4027,37,0,0,0,0,0,0,4027,37,0,0,0,0,0,0
[PI-INFO] Paramount Iteration,0,86,454.526397,5.209542
[RU-INFO] Resources Stats,0,86,452.855528,0.487633,1594872,0,0,0,5397,0,0,0,0,0,0,0,2055,4502
[NT-INFO] Network Stats,0,86,ens4,172080557,13789,0,0,0,0,0,0,2238869,15884,0,0,0,0,0,0
[NT-INFO] Network Stats,0,86,lo,4027,37,0,0,0,0,0,0,4027,37,0,0,0,0,0,0
[PI-INFO] Paramount Iteration,0,87,459.729834,5.203437
[RU-INFO] Resources Stats,0,87,458.050631,0.487636,1594872,0,0,0,5397,0,0,0,0,0,0,0,2055,4544
[NT-INFO] Network Stats,0,87,ens4,172084451,13848,0,0,0,0,0,0,2253755,15983,0,0,0,0,0,0
[NT-INFO] Network Stats,0,87,lo,4027,37,0,0,0,0,0,0,4027,37,0,0,0,0,0,0
[PI-INFO] Paramount Iteration,0,88,464.906145,5.176311
[RU-INFO] Resources Stats,0,88,463.221515,0.487636,1594872,0,0,0,5397,0,0,0,0,0,0,0,2055,4588
[NT-INFO] Network Stats,0,88,ens4,172086629,13881,0,0,0,0,0,0,2261305,16038,0,0,0,0,0,0
[NT-INFO] Network Stats,0,88,lo,4027,37,0,0,0,0,0,0,4027,37,0,0,0,0,0,0
[PI-INFO] Paramount Iteration,0,89,470.097492,5.191347
[RU-INFO] Resources Stats,0,89,468.403326,0.487636,1594872,0,0,0,5398,0,0,0,0,0,0,0,2055,4636
[NT-INFO] Network Stats,0,89,ens4,172091249,13951,0,0,0,0,0,0,2281911,16157,0,0,0,0,0,0
[NT-INFO] Network Stats,0,89,lo,4027,37,0,0,0,0,0,0,4027,37,0,0,0,0,0,0
[PI-INFO] Paramount Iteration,0,90,475.270465,5.172973
[RU-INFO] Resources Stats,0,90,473.566920,0.487636,1594872,0,0,0,5398,0,0,0,0,0,0,0,2055,4682
[NT-INFO] Network Stats,0,90,ens4,172095977,14023,0,0,0,0,0,0,2303811,16283,0,0,0,0,0,0
[NT-INFO] Network Stats,0,90,lo,4027,37,0,0,0,0,0,0,4027,37,0,0,0,0,0,0
[PI-INFO] Paramount Iteration,0,91,480.459551,5.189086
[RU-INFO] Resources Stats,0,91,478.746017,0.491624,1594872,0,0,0,5398,0,0,0,0,0,0,0,2055,4724
[NT-INFO] Network Stats,0,91,ens4,172098813,14065,0,0,0,0,0,0,2317537,16358,0,0,0,0,0,0
[NT-INFO] Network Stats,0,91,lo,4027,37,0,0,0,0,0,0,4027,37,0,0,0,0,0,0
[PI-INFO] Paramount Iteration,0,92,485.640086,5.180535
[RU-INFO] Resources Stats,0,92,483.913024,0.495624,1594872,0,0,0,5398,0,0,0,0,0,0,0,2055,4768
[NT-INFO] Network Stats,0,92,ens4,172103497,14135,0,0,0,0,0,0,2339483,16483,0,0,0,0,0,0
[NT-INFO] Network Stats,0,92,lo,4027,37,0,0,0,0,0,0,4027,37,0,0,0,0,0,0
[PI-INFO] Paramount Iteration,0,93,490.813990,5.173904
[RU-INFO] Resources Stats,0,93,489.071203,0.499619,1594872,0,0,0,5398,0,0,0,0,0,0,0,2055,4814
[NT-INFO] Network Stats,0,93,ens4,172108413,14209,0,0,0,0,0,0,2361373,16612,0,0,0,0,0,0
[NT-INFO] Network Stats,0,93,lo,4027,37,0,0,0,0,0,0,4027,37,0,0,0,0,0,0
[PI-INFO] Paramount Iteration,0,94,496.005547,5.191557
[RU-INFO] Resources Stats,0,94,494.253279,0.499621,1594872,0,0,0,5398,0,0,0,0,0,0,0,2055,4857
[NT-INFO] Network Stats,0,94,ens4,172113525,14285,0,0,0,0,0,0,2383913,16746,0,0,0,0,0,0
[NT-INFO] Network Stats,0,94,lo,4027,37,0,0,0,0,0,0,4027,37,0,0,0,0,0,0
[PI-INFO] Paramount Iteration,0,95,501.189480,5.183933
[RU-INFO] Resources Stats,0,95,499.432125,0.499621,1594872,0,0,0,5398,0,0,0,0,0,0,0,2055,4902
[NT-INFO] Network Stats,0,95,ens4,172115437,14313,0,0,0,0,0,0,2390613,16792,0,0,0,0,0,0
[NT-INFO] Network Stats,0,95,lo,4027,37,0,0,0,0,0,0,4027,37,0,0,0,0,0,0
[PI-INFO] Paramount Iteration,0,96,506.387835,5.198355
[RU-INFO] Resources Stats,0,96,504.619761,0.499621,1594872,0,0,0,5399,0,0,0,0,0,0,0,2055,4956
[NT-INFO] Network Stats,0,96,ens4,172125533,14392,0,0,0,0,0,0,2414955,16935,0,0,0,0,0,0
[NT-INFO] Network Stats,0,96,lo,4027,37,0,0,0,0,0,0,4027,37,0,0,0,0,0,0
[PI-INFO] Paramount Iteration,0,97,511.580116,5.192281
[RU-INFO] Resources Stats,0,97,509.801248,0.499621,1594872,0,0,0,5399,0,0,0,0,0,0,0,2055,5009
[NT-INFO] Network Stats,0,97,ens4,172131191,14473,0,0,0,0,0,0,2444369,17094,0,0,0,0,0,0
[NT-INFO] Network Stats,0,97,lo,4027,37,0,0,0,0,0,0,4027,37,0,0,0,0,0,0
[PI-INFO] Paramount Iteration,0,98,516.757737,5.177621
[RU-INFO] Resources Stats,0,98,514.970730,0.499621,1594872,0,0,0,5399,0,0,0,0,0,0,0,2055,5055
[NT-INFO] Network Stats,0,98,ens4,172134523,14523,0,0,0,0,0,0,2457107,17175,0,0,0,0,0,0
[NT-INFO] Network Stats,0,98,lo,4027,37,0,0,0,0,0,0,4027,37,0,0,0,0,0,0
[PI-INFO] Paramount Iteration,0,99,521.953210,5.195473
[RU-INFO] Resources Stats,0,99,520.160827,0.499621,1594872,0,0,0,5399,0,0,0,0,0,0,0,2055,5098
[NT-INFO] Network Stats,0,99,ens4,172136435,14551,0,0,0,0,0,0,2463315,17215,0,0,0,0,0,0
[NT-INFO] Network Stats,0,99,lo,4027,37,0,0,0,0,0,0,4027,37,0,0,0,0,0,0
 Time step  100
[PI-INFO] Paramount Iteration,0,100,527.135822,5.182612
[RU-INFO] Resources Stats,0,100,525.333775,0.499621,1594872,0,0,0,5399,0,0,0,0,0,0,0,2055,5144
[NT-INFO] Network Stats,0,100,ens4,172141121,14622,0,0,0,0,0,0,2484731,17347,0,0,0,0,0,0
[NT-INFO] Network Stats,0,100,lo,4027,37,0,0,0,0,0,0,4027,37,0,0,0,0,0,0
[PI-INFO] Paramount Iteration,0,101,532.325143,5.189321
[RU-INFO] Resources Stats,0,101,530.512552,0.499621,1594872,0,0,0,5399,0,0,0,0,0,0,0,2055,5191
[NT-INFO] Network Stats,0,101,ens4,172146795,14707,0,0,0,0,0,0,2514359,17505,0,0,0,0,0,0
[NT-INFO] Network Stats,0,101,lo,4027,37,0,0,0,0,0,0,4027,37,0,0,0,0,0,0
[PI-INFO] Paramount Iteration,0,102,537.508942,5.183799
[RU-INFO] Resources Stats,0,102,535.690439,0.499623,1594872,0,0,0,5399,0,0,0,0,0,0,0,2055,5239
[NT-INFO] Network Stats,0,102,ens4,172149873,14754,0,0,0,0,0,0,2530273,17586,0,0,0,0,0,0
[NT-INFO] Network Stats,0,102,lo,4027,37,0,0,0,0,0,0,4027,37,0,0,0,0,0,0
[PI-INFO] Paramount Iteration,0,103,542.716083,5.207141
[RU-INFO] Resources Stats,0,103,540.887130,0.499626,1594872,0,0,0,5399,0,0,0,0,0,0,0,2055,5285
[NT-INFO] Network Stats,0,103,ens4,172155613,14840,0,0,0,0,0,0,2558763,17743,0,0,0,0,0,0
[NT-INFO] Network Stats,0,103,lo,4027,37,0,0,0,0,0,0,4027,37,0,0,0,0,0,0
[PI-INFO] Paramount Iteration,0,104,547.911453,5.195370
[RU-INFO] Resources Stats,0,104,546.072848,0.499631,1594872,0,0,0,5399,0,0,0,0,0,0,0,2055,5331
[NT-INFO] Network Stats,0,104,ens4,172160563,14915,0,0,0,0,0,0,2580779,17871,0,0,0,0,0,0
[NT-INFO] Network Stats,0,104,lo,4027,37,0,0,0,0,0,0,4027,37,0,0,0,0,0,0
[PI-INFO] Paramount Iteration,0,105,553.113281,5.201828
[RU-INFO] Resources Stats,0,105,551.264148,0.499632,1594872,0,0,0,5400,0,0,0,0,0,0,0,2055,5375
[NT-INFO] Network Stats,0,105,ens4,172166171,14999,0,0,0,0,0,0,2610867,18027,0,0,0,0,0,0
[NT-INFO] Network Stats,0,105,lo,4027,37,0,0,0,0,0,0,4027,37,0,0,0,0,0,0
[PI-INFO] Paramount Iteration,0,106,558.282717,5.169436
[RU-INFO] Resources Stats,0,106,556.428251,0.499632,1594872,0,0,0,5400,0,0,0,0,0,0,0,2055,5421
[NT-INFO] Network Stats,0,106,ens4,172168085,15028,0,0,0,0,0,0,2617859,18075,0,0,0,0,0,0
[NT-INFO] Network Stats,0,106,lo,4027,37,0,0,0,0,0,0,4027,37,0,0,0,0,0,0
[PI-INFO] Paramount Iteration,0,107,563.471151,5.188434
[RU-INFO] Resources Stats,0,107,561.606717,0.499632,1594872,0,0,0,5400,0,0,0,0,0,0,0,2055,5462
[NT-INFO] Network Stats,0,107,ens4,172173011,15103,0,0,0,0,0,0,2638831,18201,0,0,0,0,0,0
[NT-INFO] Network Stats,0,107,lo,4027,37,0,0,0,0,0,0,4027,37,0,0,0,0,0,0
[PI-INFO] Paramount Iteration,0,108,568.667990,5.196839
[RU-INFO] Resources Stats,0,108,566.787326,0.503633,1594872,0,0,0,5400,0,0,0,0,0,0,0,2055,5518
[NT-INFO] Network Stats,0,108,ens4,172184251,15198,0,0,0,0,0,0,2668369,18358,0,0,0,0,0,0
[NT-INFO] Network Stats,0,108,lo,4027,37,0,0,0,0,0,0,4027,37,0,0,0,0,0,0
[PI-INFO] Paramount Iteration,0,109,573.865859,5.197869
[RU-INFO] Resources Stats,0,109,571.972255,0.503634,1594872,0,0,0,5400,0,0,0,0,0,0,0,2055,5578
[NT-INFO] Network Stats,0,109,ens4,172189753,15281,0,0,0,0,0,0,2691875,18499,0,0,0,0,0,0
[NT-INFO] Network Stats,0,109,lo,4027,37,0,0,0,0,0,0,4027,37,0,0,0,0,0,0
[PI-INFO] Paramount Iteration,0,110,579.043444,5.177585
[RU-INFO] Resources Stats,0,110,577.144570,0.503634,1594872,0,0,0,5400,0,0,0,0,0,0,0,2055,5620
[NT-INFO] Network Stats,0,110,ens4,172191799,15312,0,0,0,0,0,0,2700059,18551,0,0,0,0,0,0
[NT-INFO] Network Stats,0,110,lo,4027,37,0,0,0,0,0,0,4027,37,0,0,0,0,0,0
[PI-INFO] Paramount Iteration,0,111,584.233321,5.189877
[RU-INFO] Resources Stats,0,111,582.325884,0.503634,1594872,0,0,0,5400,0,0,0,0,0,0,0,2055,5665
[NT-INFO] Network Stats,0,111,ens4,172195891,15374,0,0,0,0,0,0,2715795,18659,0,0,0,0,0,0
[NT-INFO] Network Stats,0,111,lo,4027,37,0,0,0,0,0,0,4027,37,0,0,0,0,0,0
[PI-INFO] Paramount Iteration,0,112,589.410012,5.176691
[RU-INFO] Resources Stats,0,112,587.492948,0.503634,1594872,0,0,0,5400,0,0,0,0,0,0,0,2055,5716
[NT-INFO] Network Stats,0,112,ens4,172200443,15442,0,0,0,0,0,0,2736401,18778,0,0,0,0,0,0
[NT-INFO] Network Stats,0,112,lo,4027,37,0,0,0,0,0,0,4027,37,0,0,0,0,0,0
[PI-INFO] Paramount Iteration,0,113,594.593379,5.183367
[RU-INFO] Resources Stats,0,113,592.670668,0.503634,1594872,0,0,0,5401,0,0,0,0,0,0,0,2055,5754
[NT-INFO] Network Stats,0,113,ens4,172203191,15484,0,0,0,0,0,0,2750955,18855,0,0,0,0,0,0
[NT-INFO] Network Stats,0,113,lo,4027,37,0,0,0,0,0,0,4027,37,0,0,0,0,0,0
[PI-INFO] Paramount Iteration,0,114,599.780801,5.187422
[RU-INFO] Resources Stats,0,114,597.848452,0.503634,1594872,0,0,0,5401,0,0,0,0,0,0,0,2055,5805
[NT-INFO] Network Stats,0,114,ens4,172208075,15558,0,0,0,0,0,0,2772385,18982,0,0,0,0,0,0
[NT-INFO] Network Stats,0,114,lo,4027,37,0,0,0,0,0,0,4027,37,0,0,0,0,0,0
[PI-INFO] Paramount Iteration,0,115,604.974062,5.193261
[RU-INFO] Resources Stats,0,115,603.022633,0.511618,1594872,0,0,0,5401,0,0,0,0,0,0,0,2055,5848
[NT-INFO] Network Stats,0,115,ens4,172213683,15642,0,0,0,0,0,0,2800291,19135,0,0,0,0,0,0
[NT-INFO] Network Stats,0,115,lo,4027,37,0,0,0,0,0,0,4027,37,0,0,0,0,0,0
[PI-INFO] Paramount Iteration,0,116,610.162027,5.187965
[RU-INFO] Resources Stats,0,116,608.199866,0.511621,1594872,0,0,0,5401,0,0,0,0,0,0,0,2055,5894
[NT-INFO] Network Stats,0,116,ens4,172217511,15700,0,0,0,0,0,0,2815443,19231,0,0,0,0,0,0
[NT-INFO] Network Stats,0,116,lo,4027,37,0,0,0,0,0,0,4027,37,0,0,0,0,0,0
[PI-INFO] Paramount Iteration,0,117,615.349827,5.187800
[RU-INFO] Resources Stats,0,117,613.381359,0.511621,1594872,0,0,0,5401,0,0,0,0,0,0,0,2055,5937
[NT-INFO] Network Stats,0,117,ens4,172220283,15742,0,0,0,0,0,0,2830847,19317,0,0,0,0,0,0
[NT-INFO] Network Stats,0,117,lo,4027,37,0,0,0,0,0,0,4027,37,0,0,0,0,0,0
[PI-INFO] Paramount Iteration,0,118,620.546293,5.196466
[RU-INFO] Resources Stats,0,118,618.569300,0.511621,1594872,0,0,0,5401,0,0,0,0,0,0,0,2055,5978
[NT-INFO] Network Stats,0,118,ens4,172224111,15800,0,0,0,0,0,0,2844819,19415,0,0,0,0,0,0
[NT-INFO] Network Stats,0,118,lo,4027,37,0,0,0,0,0,0,4027,37,0,0,0,0,0,0
[PI-INFO] Paramount Iteration,0,119,625.733312,5.187019
[RU-INFO] Resources Stats,0,119,623.745041,0.511621,1594872,0,0,0,5401,0,0,0,0,0,0,0,2055,6028
[NT-INFO] Network Stats,0,119,ens4,172234799,15887,0,0,0,0,0,0,2873687,19573,0,0,0,0,0,0
[NT-INFO] Network Stats,0,119,lo,4027,37,0,0,0,0,0,0,4027,37,0,0,0,0,0,0
 Time step  120
[PI-INFO] Paramount Iteration,0,120,630.920257,5.186945
[RU-INFO] Resources Stats,0,120,628.922268,0.511621,1594872,0,0,0,5401,0,0,0,0,0,0,0,2055,6078
[NT-INFO] Network Stats,0,120,ens4,172239843,15961,0,0,0,0,0,0,2895795,19699,0,0,0,0,0,0
[NT-INFO] Network Stats,0,120,lo,4027,37,0,0,0,0,0,0,4027,37,0,0,0,0,0,0
[PI-INFO] Paramount Iteration,0,121,636.123512,5.203255
[RU-INFO] Resources Stats,0,121,634.101609,0.511621,1594872,0,0,0,5401,0,0,0,0,0,0,0,2055,6167
[NT-INFO] Network Stats,0,121,ens4,172242217,15996,0,0,0,0,0,0,2906401,19762,0,0,0,0,0,0
[NT-INFO] Network Stats,0,121,lo,4027,37,0,0,0,0,0,0,4027,37,0,0,0,0,0,0
[PI-INFO] Paramount Iteration,0,122,641.316299,5.192787
[RU-INFO] Resources Stats,0,122,639.283928,0.511621,1594872,0,0,0,5402,0,0,0,0,0,0,0,2055,6222
[NT-INFO] Network Stats,0,122,ens4,172247389,16074,0,0,0,0,0,0,2933485,19908,0,0,0,0,0,0
[NT-INFO] Network Stats,0,122,lo,4027,37,0,0,0,0,0,0,4027,37,0,0,0,0,0,0
[PI-INFO] Paramount Iteration,0,123,646.513922,5.197623
[RU-INFO] Resources Stats,0,123,644.470865,0.511621,1594872,0,0,0,5402,0,0,0,0,0,0,0,2055,6263
[NT-INFO] Network Stats,0,123,ens4,172253129,16160,0,0,0,0,0,0,2964169,20074,0,0,0,0,0,0
[NT-INFO] Network Stats,0,123,lo,4027,37,0,0,0,0,0,0,4027,37,0,0,0,0,0,0
[PI-INFO] Paramount Iteration,0,124,651.719659,5.205737
[RU-INFO] Resources Stats,0,124,649.671330,0.511621,1594872,0,0,0,5402,0,0,0,0,0,0,0,2055,6304
[NT-INFO] Network Stats,0,124,ens4,172254977,16188,0,0,0,0,0,0,2971413,20120,0,0,0,0,0,0
[NT-INFO] Network Stats,0,124,lo,4027,37,0,0,0,0,0,0,4027,37,0,0,0,0,0,0
[PI-INFO] Paramount Iteration,0,125,656.919689,5.200030
[RU-INFO] Resources Stats,0,125,654.861018,0.511621,1594872,0,0,0,5402,0,0,0,0,0,0,0,2055,6350
[NT-INFO] Network Stats,0,125,ens4,172259771,16261,0,0,0,0,0,0,2992275,20243,0,0,0,0,0,0
[NT-INFO] Network Stats,0,125,lo,4027,37,0,0,0,0,0,0,4027,37,0,0,0,0,0,0
[PI-INFO] Paramount Iteration,0,126,662.113987,5.194298
[RU-INFO] Resources Stats,0,126,660.045572,0.511621,1594872,0,0,0,5402,0,0,0,0,0,0,0,2055,6400
[NT-INFO] Network Stats,0,126,ens4,172264785,16336,0,0,0,0,0,0,3016135,20381,0,0,0,0,0,0
[NT-INFO] Network Stats,0,126,lo,4027,37,0,0,0,0,0,0,4027,37,0,0,0,0,0,0
[PI-INFO] Paramount Iteration,0,127,667.313904,5.199917
[RU-INFO] Resources Stats,0,127,665.234339,0.511621,1594872,0,0,0,5402,0,0,0,0,0,0,0,2055,6450
[NT-INFO] Network Stats,0,127,ens4,172270593,16424,0,0,0,0,0,0,3043945,20534,0,0,0,0,0,0
[NT-INFO] Network Stats,0,127,lo,4027,37,0,0,0,0,0,0,4027,37,0,0,0,0,0,0
[PI-INFO] Paramount Iteration,0,128,672.499269,5.185365
[RU-INFO] Resources Stats,0,128,670.413997,0.511621,1594872,0,0,0,5402,0,0,0,0,0,0,0,2055,6488
[NT-INFO] Network Stats,0,128,ens4,172273365,16466,0,0,0,0,0,0,3058657,20610,0,0,0,0,0,0
[NT-INFO] Network Stats,0,128,lo,4027,37,0,0,0,0,0,0,4027,37,0,0,0,0,0,0
[PI-INFO] Paramount Iteration,0,129,677.698524,5.199255
[RU-INFO] Resources Stats,0,129,675.603294,0.511621,1594872,0,0,0,5403,0,0,0,0,0,0,0,2055,6545
[NT-INFO] Network Stats,0,129,ens4,172278289,16540,0,0,0,0,0,0,3080465,20742,0,0,0,0,0,0
[NT-INFO] Network Stats,0,129,lo,4027,37,0,0,0,0,0,0,4027,37,0,0,0,0,0,0
[PI-INFO] Paramount Iteration,0,130,682.881735,5.183211
[RU-INFO] Resources Stats,0,130,680.776371,0.511621,1594872,0,0,0,5403,0,0,0,0,0,0,0,2055,6590
[NT-INFO] Network Stats,0,130,ens4,172283701,16622,0,0,0,0,0,0,3108461,20892,0,0,0,0,0,0
[NT-INFO] Network Stats,0,130,lo,4027,37,0,0,0,0,0,0,4027,37,0,0,0,0,0,0
[PI-INFO] Paramount Iteration,0,131,688.087724,5.205989
[RU-INFO] Resources Stats,0,131,685.969605,0.511621,1594872,0,0,0,5403,0,0,0,0,0,0,0,2055,6662
[NT-INFO] Network Stats,0,131,ens4,172298200,16716,0,0,0,0,0,0,3133746,21045,0,0,0,0,0,0
[NT-INFO] Network Stats,0,131,lo,4027,37,0,0,0,0,0,0,4027,37,0,0,0,0,0,0
[PI-INFO] Paramount Iteration,0,132,693.270948,5.183224
[RU-INFO] Resources Stats,0,132,691.138912,0.515610,1594872,0,0,0,5403,0,0,0,0,0,0,0,2055,6718
[NT-INFO] Network Stats,0,132,ens4,172304782,16765,0,0,0,0,0,0,3148771,21136,0,0,0,0,0,0
[NT-INFO] Network Stats,0,132,lo,4027,37,0,0,0,0,0,0,4027,37,0,0,0,0,0,0
[PI-INFO] Paramount Iteration,0,133,698.460916,5.189968
[RU-INFO] Resources Stats,0,133,696.318364,0.515610,1594872,0,0,0,5403,0,0,0,0,0,0,0,2055,6768
[NT-INFO] Network Stats,0,133,ens4,172309796,16840,0,0,0,0,0,0,3178913,21295,0,0,0,0,0,0
[NT-INFO] Network Stats,0,133,lo,4027,37,0,0,0,0,0,0,4027,37,0,0,0,0,0,0
[PI-INFO] Paramount Iteration,0,134,703.651274,5.190358
[RU-INFO] Resources Stats,0,134,701.498752,0.515610,1594872,0,0,0,5403,0,0,0,0,0,0,0,2055,6817
[NT-INFO] Network Stats,0,134,ens4,172315166,16921,0,0,0,0,0,0,3201911,21430,0,0,0,0,0,0
[NT-INFO] Network Stats,0,134,lo,4027,37,0,0,0,0,0,0,4027,37,0,0,0,0,0,0
[PI-INFO] Paramount Iteration,0,135,708.833205,5.181931
[RU-INFO] Resources Stats,0,135,706.674748,0.515610,1594872,0,0,0,5403,0,0,0,0,0,0,0,2055,6870
[NT-INFO] Network Stats,0,135,ens4,172317212,16952,0,0,0,0,0,0,3208969,21479,0,0,0,0,0,0
[NT-INFO] Network Stats,0,135,lo,4027,37,0,0,0,0,0,0,4027,37,0,0,0,0,0,0
[PI-INFO] Paramount Iteration,0,136,714.021686,5.188481
[RU-INFO] Resources Stats,0,136,711.853428,0.515610,1594872,0,0,0,5403,0,0,0,0,0,0,0,2055,6910
[NT-INFO] Network Stats,0,136,ens4,172322622,17033,0,0,0,0,0,0,3236797,21625,0,0,0,0,0,0
[NT-INFO] Network Stats,0,136,lo,4027,37,0,0,0,0,0,0,4027,37,0,0,0,0,0,0
[PI-INFO] Paramount Iteration,0,137,719.222771,5.201085
[RU-INFO] Resources Stats,0,137,717.043653,0.515611,1594872,0,0,0,5403,0,0,0,0,0,0,0,2055,6958
[NT-INFO] Network Stats,0,137,ens4,172327746,17111,0,0,0,0,0,0,3259895,21762,0,0,0,0,0,0
[NT-INFO] Network Stats,0,137,lo,4027,37,0,0,0,0,0,0,4027,37,0,0,0,0,0,0
[PI-INFO] Paramount Iteration,0,138,724.414695,5.191924
[RU-INFO] Resources Stats,0,138,722.221381,0.519603,1594872,0,0,0,5404,0,0,0,0,0,0,0,2055,7002
[NT-INFO] Network Stats,0,138,ens4,172332762,17187,0,0,0,0,0,0,3286459,21908,0,0,0,0,0,0
[NT-INFO] Network Stats,0,138,lo,4027,37,0,0,0,0,0,0,4027,37,0,0,0,0,0,0
[PI-INFO] Paramount Iteration,0,139,729.609159,5.194464
[RU-INFO] Resources Stats,0,139,727.408262,0.519603,1594872,0,0,0,5404,0,0,0,0,0,0,0,2055,7045
[NT-INFO] Network Stats,0,139,ens4,172335070,17221,0,0,0,0,0,0,3296323,21968,0,0,0,0,0,0
[NT-INFO] Network Stats,0,139,lo,4027,37,0,0,0,0,0,0,4027,37,0,0,0,0,0,0
 Time step  140
[PI-INFO] Paramount Iteration,0,140,734.815045,5.205886
[RU-INFO] Resources Stats,0,140,732.596890,0.519603,1594872,0,0,0,5404,0,0,0,0,0,0,0,2055,7098
[NT-INFO] Network Stats,0,140,ens4,172340152,17298,0,0,0,0,0,0,3325113,22123,0,0,0,0,0,0
[NT-INFO] Network Stats,0,140,lo,4027,37,0,0,0,0,0,0,4027,37,0,0,0,0,0,0
[PI-INFO] Paramount Iteration,0,141,740.013018,5.197973
[RU-INFO] Resources Stats,0,141,737.781438,0.523594,1594872,0,0,0,5404,0,0,0,0,0,0,0,2055,7144
[NT-INFO] Network Stats,0,141,ens4,172344244,17360,0,0,0,0,0,0,3345251,22248,0,0,0,0,0,0
[NT-INFO] Network Stats,0,141,lo,4027,37,0,0,0,0,0,0,4027,37,0,0,0,0,0,0
[PI-INFO] Paramount Iteration,0,142,745.203089,5.190071
[RU-INFO] Resources Stats,0,142,742.952144,0.531585,1594872,0,0,0,5404,0,0,0,0,0,0,0,2055,7195
[NT-INFO] Network Stats,0,142,ens4,172355316,17453,0,0,0,0,0,0,3375827,22412,0,0,0,0,0,0
[NT-INFO] Network Stats,0,142,lo,4027,37,0,0,0,0,0,0,4027,37,0,0,0,0,0,0
[PI-INFO] Paramount Iteration,0,143,750.407376,5.204287
[RU-INFO] Resources Stats,0,143,748.150864,0.531587,1594872,0,0,0,5404,0,0,0,0,0,0,0,2055,7246
[NT-INFO] Network Stats,0,143,ens4,172357960,17491,0,0,0,0,0,0,3384361,22469,0,0,0,0,0,0
[NT-INFO] Network Stats,0,143,lo,4027,37,0,0,0,0,0,0,4027,37,0,0,0,0,0,0
[PI-INFO] Paramount Iteration,0,144,755.623892,5.216516
[RU-INFO] Resources Stats,0,144,753.357530,0.531587,1594872,0,0,0,5404,0,0,0,0,0,0,0,2055,7288
[NT-INFO] Network Stats,0,144,ens4,172362580,17561,0,0,0,0,0,0,3405819,22598,0,0,0,0,0,0
[NT-INFO] Network Stats,0,144,lo,4027,37,0,0,0,0,0,0,4027,37,0,0,0,0,0,0
[PI-INFO] Paramount Iteration,0,145,760.854824,5.230932
[RU-INFO] Resources Stats,0,145,758.578709,0.531587,1594872,0,0,0,5404,0,0,0,0,0,0,0,2055,7338
[NT-INFO] Network Stats,0,145,ens4,172367330,17632,0,0,0,0,0,0,3427565,22727,0,0,0,0,0,0
[NT-INFO] Network Stats,0,145,lo,4027,37,0,0,0,0,0,0,4027,37,0,0,0,0,0,0
[PI-INFO] Paramount Iteration,0,146,766.071534,5.216710
[RU-INFO] Resources Stats,0,146,763.786110,0.531590,1594872,0,0,0,5404,0,0,0,0,0,0,0,2055,7381
[NT-INFO] Network Stats,0,146,ens4,172371884,17701,0,0,0,0,0,0,3449865,22853,0,0,0,0,0,0
[NT-INFO] Network Stats,0,146,lo,4027,37,0,0,0,0,0,0,4027,37,0,0,0,0,0,0
[PI-INFO] Paramount Iteration,0,147,771.303414,5.231880
[RU-INFO] Resources Stats,0,147,769.012836,0.531590,1594872,0,0,0,5405,0,0,0,0,0,0,0,2055,7427
[NT-INFO] Network Stats,0,147,ens4,172373666,17728,0,0,0,0,0,0,3456725,22899,0,0,0,0,0,0
[NT-INFO] Network Stats,0,147,lo,4027,37,0,0,0,0,0,0,4027,37,0,0,0,0,0,0
[PI-INFO] Paramount Iteration,0,148,776.526080,5.222666
[RU-INFO] Resources Stats,0,148,774.227323,0.531590,1594872,0,0,0,5405,0,0,0,0,0,0,0,2055,7468
[NT-INFO] Network Stats,0,148,ens4,172377668,17789,0,0,0,0,0,0,3470529,22997,0,0,0,0,0,0
[NT-INFO] Network Stats,0,148,lo,4027,37,0,0,0,0,0,0,4027,37,0,0,0,0,0,0
[PI-INFO] Paramount Iteration,0,149,781.744977,5.218897
[RU-INFO] Resources Stats,0,149,779.436606,0.531590,1594872,0,0,0,5405,0,0,0,0,0,0,0,2055,7525
[NT-INFO] Network Stats,0,149,ens4,172382318,17858,0,0,0,0,0,0,3490913,23117,0,0,0,0,0,0
[NT-INFO] Network Stats,0,149,lo,4027,37,0,0,0,0,0,0,4027,37,0,0,0,0,0,0
[PI-INFO] Paramount Iteration,0,150,786.958269,5.213292
[RU-INFO] Resources Stats,0,150,784.644569,0.531590,1594872,0,0,0,5405,0,0,0,0,0,0,0,2055,7567
[NT-INFO] Network Stats,0,150,ens4,172384560,17891,0,0,0,0,0,0,3498295,23168,0,0,0,0,0,0
[NT-INFO] Network Stats,0,150,lo,4027,37,0,0,0,0,0,0,4027,37,0,0,0,0,0,0
[PI-INFO] Paramount Iteration,0,151,792.174205,5.215936
[RU-INFO] Resources Stats,0,151,789.851421,0.531590,1594872,0,0,0,5405,0,0,0,0,0,0,0,2055,7612
[NT-INFO] Network Stats,0,151,ens4,172388650,17952,0,0,0,0,0,0,3518373,23271,0,0,0,0,0,0
[NT-INFO] Network Stats,0,151,lo,4027,37,0,0,0,0,0,0,4027,37,0,0,0,0,0,0
[PI-INFO] Paramount Iteration,0,152,797.374278,5.200073
[RU-INFO] Resources Stats,0,152,795.042574,0.531590,1594872,0,0,0,5405,0,0,0,0,0,0,0,2055,7666
[NT-INFO] Network Stats,0,152,ens4,172392246,18006,0,0,0,0,0,0,3531739,23362,0,0,0,0,0,0
[NT-INFO] Network Stats,0,152,lo,4027,37,0,0,0,0,0,0,4027,37,0,0,0,0,0,0
[PI-INFO] Paramount Iteration,0,153,802.565960,5.191682
[RU-INFO] Resources Stats,0,153,800.220804,0.535569,1594872,0,0,0,5405,0,0,0,0,0,0,0,2055,7710
[NT-INFO] Network Stats,0,153,ens4,172396700,18073,0,0,0,0,0,0,3552911,23492,0,0,0,0,0,0
[NT-INFO] Network Stats,0,153,lo,4027,37,0,0,0,0,0,0,4027,37,0,0,0,0,0,0
[PI-INFO] Paramount Iteration,0,154,807.745051,5.179091
[RU-INFO] Resources Stats,0,154,805.392717,0.535570,1594872,0,0,0,5405,0,0,0,0,0,0,0,2055,7760
[NT-INFO] Network Stats,0,154,ens4,172405044,18124,0,0,0,0,0,0,3568927,23576,0,0,0,0,0,0
[NT-INFO] Network Stats,0,154,lo,4027,37,0,0,0,0,0,0,4027,37,0,0,0,0,0,0
[PI-INFO] Paramount Iteration,0,155,812.943395,5.198344
[RU-INFO] Resources Stats,0,155,810.578556,0.535570,1594872,0,0,0,5406,0,0,0,0,0,0,0,2055,7810
[NT-INFO] Network Stats,0,155,ens4,172410158,18201,0,0,0,0,0,0,3590009,23701,0,0,0,0,0,0
[NT-INFO] Network Stats,0,155,lo,4027,37,0,0,0,0,0,0,4027,37,0,0,0,0,0,0
[PI-INFO] Paramount Iteration,0,156,818.144975,5.201580
[RU-INFO] Resources Stats,0,156,815.770414,0.535571,1594872,0,0,0,5406,0,0,0,0,0,0,0,2055,7855
[NT-INFO] Network Stats,0,156,ens4,172414612,18268,0,0,0,0,0,0,3611197,23823,0,0,0,0,0,0
[NT-INFO] Network Stats,0,156,lo,4027,37,0,0,0,0,0,0,4027,37,0,0,0,0,0,0
[PI-INFO] Paramount Iteration,0,157,823.322450,5.177475
[RU-INFO] Resources Stats,0,157,820.937462,0.535571,1594872,0,0,0,5406,0,0,0,0,0,0,0,2055,7904
[NT-INFO] Network Stats,0,157,ens4,172420416,18354,0,0,0,0,0,0,3639711,23984,0,0,0,0,0,0
[NT-INFO] Network Stats,0,157,lo,4027,37,0,0,0,0,0,0,4027,37,0,0,0,0,0,0
[PI-INFO] Paramount Iteration,0,158,828.506474,5.184024
[RU-INFO] Resources Stats,0,158,826.115696,0.535571,1594872,0,0,0,5406,0,0,0,0,0,0,0,2055,7944
[NT-INFO] Network Stats,0,158,ens4,172423188,18396,0,0,0,0,0,0,3653979,24062,0,0,0,0,0,0
[NT-INFO] Network Stats,0,158,lo,4027,37,0,0,0,0,0,0,4027,37,0,0,0,0,0,0
[PI-INFO] Paramount Iteration,0,159,833.713450,5.206976
[RU-INFO] Resources Stats,0,159,831.312864,0.535571,1594872,0,0,0,5406,0,0,0,0,0,0,0,2055,7998
[NT-INFO] Network Stats,0,159,ens4,172427500,18460,0,0,0,0,0,0,3675491,24182,0,0,0,0,0,0
[NT-INFO] Network Stats,0,159,lo,4027,37,0,0,0,0,0,0,4027,37,0,0,0,0,0,0
 Time step  160
[PI-INFO] Paramount Iteration,0,160,838.893280,5.179830
[RU-INFO] Resources Stats,0,160,836.483513,0.535571,1594872,0,0,0,5406,0,0,0,0,0,0,0,2055,8046
[NT-INFO] Network Stats,0,160,ens4,172431436,18520,0,0,0,0,0,0,3688901,24275,0,0,0,0,0,0
[NT-INFO] Network Stats,0,160,lo,4027,37,0,0,0,0,0,0,4027,37,0,0,0,0,0,0
[PI-INFO] Paramount Iteration,0,161,844.089311,5.196031
[RU-INFO] Resources Stats,0,161,841.673390,0.535571,1594872,0,0,0,5406,0,0,0,0,0,0,0,2055,8086
[NT-INFO] Network Stats,0,161,ens4,172434142,18561,0,0,0,0,0,0,3703975,24364,0,0,0,0,0,0
[NT-INFO] Network Stats,0,161,lo,4027,37,0,0,0,0,0,0,4027,37,0,0,0,0,0,0
[PI-INFO] Paramount Iteration,0,162,849.270111,5.180800
[RU-INFO] Resources Stats,0,162,846.843754,0.535571,1594872,0,0,0,5406,0,0,0,0,0,0,0,2055,8134
[NT-INFO] Network Stats,0,162,ens4,172438168,18622,0,0,0,0,0,0,3719389,24463,0,0,0,0,0,0
[NT-INFO] Network Stats,0,162,lo,4027,37,0,0,0,0,0,0,4027,37,0,0,0,0,0,0
[PI-INFO] Paramount Iteration,0,163,854.459974,5.189863
[RU-INFO] Resources Stats,0,163,852.024283,0.535571,1594872,0,0,0,5406,0,0,0,0,0,0,0,2055,8179
[NT-INFO] Network Stats,0,163,ens4,172442524,18688,0,0,0,0,0,0,3740171,24582,0,0,0,0,0,0
[NT-INFO] Network Stats,0,163,lo,4027,37,0,0,0,0,0,0,4027,37,0,0,0,0,0,0
[PI-INFO] Paramount Iteration,0,164,859.646049,5.186075
[RU-INFO] Resources Stats,0,164,857.199738,0.535571,1594952,0,0,0,5407,0,0,0,0,0,0,0,2055,8225
[NT-INFO] Network Stats,0,164,ens4,172448000,18770,0,0,0,0,0,0,3768663,24740,0,0,0,0,0,0
[NT-INFO] Network Stats,0,164,lo,4027,37,0,0,0,0,0,0,4027,37,0,0,0,0,0,0
[PI-INFO] Paramount Iteration,0,165,864.833777,5.187728
[RU-INFO] Resources Stats,0,165,862.376608,0.539564,1594952,0,0,0,5407,0,0,0,0,0,0,0,2055,8270
[NT-INFO] Network Stats,0,165,ens4,172455192,18805,0,0,0,0,0,0,3783324,24813,0,0,0,0,0,0
[NT-INFO] Network Stats,0,165,lo,4027,37,0,0,0,0,0,0,4027,37,0,0,0,0,0,0
[PI-INFO] Paramount Iteration,0,166,870.020305,5.186528
[RU-INFO] Resources Stats,0,166,867.554687,0.539566,1594952,0,0,0,5407,0,0,0,0,0,0,0,2055,8321
[NT-INFO] Network Stats,0,166,ens4,172459444,18867,0,0,0,0,0,0,3799011,24918,0,0,0,0,0,0
[NT-INFO] Network Stats,0,166,lo,4027,37,0,0,0,0,0,0,4027,37,0,0,0,0,0,0
[PI-INFO] Paramount Iteration,0,167,875.208337,5.188032
[RU-INFO] Resources Stats,0,167,872.731961,0.539567,1594952,0,0,0,5407,0,0,0,0,0,0,0,2055,8367
[NT-INFO] Network Stats,0,167,ens4,172464920,18949,0,0,0,0,0,0,3827323,25074,0,0,0,0,0,0
[NT-INFO] Network Stats,0,167,lo,4027,37,0,0,0,0,0,0,4027,37,0,0,0,0,0,0
[PI-INFO] Paramount Iteration,0,168,880.406062,5.197725
[RU-INFO] Resources Stats,0,168,877.919134,0.539567,1594952,0,0,0,5407,0,0,0,0,0,0,0,2055,8417
[NT-INFO] Network Stats,0,168,ens4,172470396,19031,0,0,0,0,0,0,3857175,25232,0,0,0,0,0,0
[NT-INFO] Network Stats,0,168,lo,4027,37,0,0,0,0,0,0,4027,37,0,0,0,0,0,0
[PI-INFO] Paramount Iteration,0,169,885.597488,5.191426
[RU-INFO] Resources Stats,0,169,883.105703,0.539567,1594952,0,0,0,5407,0,0,0,0,0,0,0,2055,8455
[NT-INFO] Network Stats,0,169,ens4,172472508,19063,0,0,0,0,0,0,3864267,25282,0,0,0,0,0,0
[NT-INFO] Network Stats,0,169,lo,4027,37,0,0,0,0,0,0,4027,37,0,0,0,0,0,0
[PI-INFO] Paramount Iteration,0,170,890.784516,5.187028
[RU-INFO] Resources Stats,0,170,888.284228,0.539567,1594952,0,0,0,5407,0,0,0,0,0,0,0,2055,8499
[NT-INFO] Network Stats,0,170,ens4,172476072,19117,0,0,0,0,0,0,3877567,25372,0,0,0,0,0,0
[NT-INFO] Network Stats,0,170,lo,4027,37,0,0,0,0,0,0,4027,37,0,0,0,0,0,0
[PI-INFO] Paramount Iteration,0,171,895.985303,5.200787
[RU-INFO] Resources Stats,0,171,893.471558,0.543564,1594952,0,0,0,5408,0,0,0,0,0,0,0,2055,8544
[NT-INFO] Network Stats,0,171,ens4,172480668,19187,0,0,0,0,0,0,3899759,25504,0,0,0,0,0,0
[NT-INFO] Network Stats,0,171,lo,4027,37,0,0,0,0,0,0,4027,37,0,0,0,0,0,0
[PI-INFO] Paramount Iteration,0,172,901.185960,5.200657
[RU-INFO] Resources Stats,0,172,898.666296,0.543564,1594952,0,0,0,5408,0,0,0,0,0,0,0,2055,8593
[NT-INFO] Network Stats,0,172,ens4,172482780,19219,0,0,0,0,0,0,3908015,25560,0,0,0,0,0,0
[NT-INFO] Network Stats,0,172,lo,4027,37,0,0,0,0,0,0,4027,37,0,0,0,0,0,0
[PI-INFO] Paramount Iteration,0,173,906.384101,5.198141
[RU-INFO] Resources Stats,0,173,903.855612,0.543564,1594952,0,0,0,5408,0,0,0,0,0,0,0,2055,8634
[NT-INFO] Network Stats,0,173,ens4,172487596,19291,0,0,0,0,0,0,3929341,25687,0,0,0,0,0,0
[NT-INFO] Network Stats,0,173,lo,4027,37,0,0,0,0,0,0,4027,37,0,0,0,0,0,0
[PI-INFO] Paramount Iteration,0,174,911.573196,5.189095
[RU-INFO] Resources Stats,0,174,909.036088,0.543564,1594952,0,0,0,5408,0,0,0,0,0,0,0,2055,8683
[NT-INFO] Network Stats,0,174,ens4,172491424,19349,0,0,0,0,0,0,3943859,25786,0,0,0,0,0,0
[NT-INFO] Network Stats,0,174,lo,4027,37,0,0,0,0,0,0,4027,37,0,0,0,0,0,0
[PI-INFO] Paramount Iteration,0,175,916.767228,5.194032
[RU-INFO] Resources Stats,0,175,914.215871,0.547555,1594952,0,0,0,5408,0,0,0,0,0,0,0,2055,8730
[NT-INFO] Network Stats,0,175,ens4,172496902,19432,0,0,0,0,0,0,3971043,25938,0,0,0,0,0,0
[NT-INFO] Network Stats,0,175,lo,4027,37,0,0,0,0,0,0,4027,37,0,0,0,0,0,0
[PI-INFO] Paramount Iteration,0,176,921.957999,5.190771
[RU-INFO] Resources Stats,0,176,919.400374,0.547555,1594952,0,0,0,5408,0,0,0,0,0,0,0,2055,8775
[NT-INFO] Network Stats,0,176,ens4,172499608,19473,0,0,0,0,0,0,3985113,26013,0,0,0,0,0,0
[NT-INFO] Network Stats,0,176,lo,4027,37,0,0,0,0,0,0,4027,37,0,0,0,0,0,0
[PI-INFO] Paramount Iteration,0,177,927.146330,5.188331
[RU-INFO] Resources Stats,0,177,924.567104,0.547555,1594952,0,0,0,5408,0,0,0,0,0,0,0,2055,8855
[NT-INFO] Network Stats,0,177,ens4,172515434,19580,0,0,0,0,0,0,4017053,26189,0,0,0,0,0,0
[NT-INFO] Network Stats,0,177,lo,4027,37,0,0,0,0,0,0,4027,37,0,0,0,0,0,0
[PI-INFO] Paramount Iteration,0,178,932.346905,5.200575
[RU-INFO] Resources Stats,0,178,929.745912,0.547555,1594952,0,0,0,5408,0,0,0,0,0,0,0,2055,8932
[NT-INFO] Network Stats,0,178,ens4,172524513,19663,0,0,0,0,0,0,4042260,26327,0,0,0,0,0,0
[NT-INFO] Network Stats,0,178,lo,4027,37,0,0,0,0,0,0,4027,37,0,0,0,0,0,0
[PI-INFO] Paramount Iteration,0,179,937.529486,5.182581
[RU-INFO] Resources Stats,0,179,934.916103,0.547555,1594952,0,0,0,5408,0,0,0,0,0,0,0,2055,8981
[NT-INFO] Network Stats,0,179,ens4,172529989,19745,0,0,0,0,0,0,4069722,26474,0,0,0,0,0,0
[NT-INFO] Network Stats,0,179,lo,4027,37,0,0,0,0,0,0,4027,37,0,0,0,0,0,0
 Time step  180
[PI-INFO] Paramount Iteration,0,180,942.697000,5.167514
[RU-INFO] Resources Stats,0,180,940.078739,0.547555,1594952,0,0,0,5409,0,0,0,0,0,0,0,2055,9021
[NT-INFO] Network Stats,0,180,ens4,172531639,19770,0,0,0,0,0,0,4076568,26513,0,0,0,0,0,0
[NT-INFO] Network Stats,0,180,lo,4027,37,0,0,0,0,0,0,4027,37,0,0,0,0,0,0
[PI-INFO] Paramount Iteration,0,181,947.894148,5.197148
[RU-INFO] Resources Stats,0,181,945.267150,0.547555,1594952,0,0,0,5409,0,0,0,0,0,0,0,2055,9073
[NT-INFO] Network Stats,0,181,ens4,172535533,19829,0,0,0,0,0,0,4090494,26612,0,0,0,0,0,0
[NT-INFO] Network Stats,0,181,lo,4027,37,0,0,0,0,0,0,4027,37,0,0,0,0,0,0
[PI-INFO] Paramount Iteration,0,182,953.089235,5.195087
[RU-INFO] Resources Stats,0,182,950.451842,0.547555,1594952,0,0,0,5409,0,0,0,0,0,0,0,2055,9120
[NT-INFO] Network Stats,0,182,ens4,172540811,19908,0,0,0,0,0,0,4119576,26769,0,0,0,0,0,0
[NT-INFO] Network Stats,0,182,lo,4027,37,0,0,0,0,0,0,4027,37,0,0,0,0,0,0
[PI-INFO] Paramount Iteration,0,183,958.277799,5.188564
[RU-INFO] Resources Stats,0,183,955.633971,0.547555,1594952,0,0,0,5409,0,0,0,0,0,0,0,2055,9168
[NT-INFO] Network Stats,0,183,ens4,172543559,19950,0,0,0,0,0,0,4133530,26846,0,0,0,0,0,0
[NT-INFO] Network Stats,0,183,lo,4027,37,0,0,0,0,0,0,4027,37,0,0,0,0,0,0
[PI-INFO] Paramount Iteration,0,184,963.470156,5.192357
[RU-INFO] Resources Stats,0,184,960.817737,0.547555,1594952,0,0,0,5409,0,0,0,0,0,0,0,2055,9214
[NT-INFO] Network Stats,0,184,ens4,172547675,20012,0,0,0,0,0,0,4148716,26947,0,0,0,0,0,0
[NT-INFO] Network Stats,0,184,lo,4027,37,0,0,0,0,0,0,4027,37,0,0,0,0,0,0
[PI-INFO] Paramount Iteration,0,185,968.665826,5.195670
[RU-INFO] Resources Stats,0,185,966.000760,0.547556,1595768,0,0,0,5409,0,0,0,0,0,0,0,2055,9261
[NT-INFO] Network Stats,0,185,ens4,172552425,20083,0,0,0,0,0,0,4170868,27079,0,0,0,0,0,0
[NT-INFO] Network Stats,0,185,lo,4027,37,0,0,0,0,0,0,4027,37,0,0,0,0,0,0
[PI-INFO] Paramount Iteration,0,186,973.851413,5.185587
[RU-INFO] Resources Stats,0,186,971.176717,0.547556,1595768,0,0,0,5409,0,0,0,0,0,0,0,2055,9309
[NT-INFO] Network Stats,0,186,ens4,172556781,20149,0,0,0,0,0,0,4192138,27202,0,0,0,0,0,0
[NT-INFO] Network Stats,0,186,lo,4027,37,0,0,0,0,0,0,4027,37,0,0,0,0,0,0
[PI-INFO] Paramount Iteration,0,187,979.033338,5.181925
[RU-INFO] Resources Stats,0,187,976.352973,0.547556,1595768,0,0,0,5409,0,0,0,0,0,0,0,2055,9353
[NT-INFO] Network Stats,0,187,ens4,172558827,20180,0,0,0,0,0,0,4199390,27252,0,0,0,0,0,0
[NT-INFO] Network Stats,0,187,lo,4027,37,0,0,0,0,0,0,4027,37,0,0,0,0,0,0
[PI-INFO] Paramount Iteration,0,188,984.210361,5.177023
[RU-INFO] Resources Stats,0,188,981.515203,0.551554,1595768,0,0,0,5410,0,0,0,0,0,0,0,2055,9396
[NT-INFO] Network Stats,0,188,ens4,172569581,20268,0,0,0,0,0,0,4229087,27411,0,0,0,0,0,0
[NT-INFO] Network Stats,0,188,lo,4027,37,0,0,0,0,0,0,4027,37,0,0,0,0,0,0
[PI-INFO] Paramount Iteration,0,189,989.397562,5.187201
[RU-INFO] Resources Stats,0,189,986.692567,0.551554,1595768,0,0,0,5410,0,0,0,0,0,0,0,2055,9455
[NT-INFO] Network Stats,0,189,ens4,172573437,20324,0,0,0,0,0,0,4252244,27547,0,0,0,0,0,0
[NT-INFO] Network Stats,0,189,lo,4027,37,0,0,0,0,0,0,4027,37,0,0,0,0,0,0
[PI-INFO] Paramount Iteration,0,190,994.582685,5.185123
[RU-INFO] Resources Stats,0,190,991.867980,0.551554,1595768,0,0,0,5410,0,0,0,0,0,0,0,2055,9501
[NT-INFO] Network Stats,0,190,ens4,172577859,20391,0,0,0,0,0,0,4273020,27671,0,0,0,0,0,0
[NT-INFO] Network Stats,0,190,lo,4027,37,0,0,0,0,0,0,4027,37,0,0,0,0,0,0
[PI-INFO] Paramount Iteration,0,191,999.760497,5.177812
[RU-INFO] Resources Stats,0,191,997.040737,0.551554,1595768,0,0,0,5410,0,0,0,0,0,0,0,2055,9541
[NT-INFO] Network Stats,0,191,ens4,172579575,20417,0,0,0,0,0,0,4280046,27720,0,0,0,0,0,0
[NT-INFO] Network Stats,0,191,lo,4027,37,0,0,0,0,0,0,4027,37,0,0,0,0,0,0
[PI-INFO] Paramount Iteration,0,192,1004.944317,5.183820
[RU-INFO] Resources Stats,0,192,1002.216185,0.551554,1595768,0,0,0,5410,0,0,0,0,0,0,0,2055,9588
[NT-INFO] Network Stats,0,192,ens4,172583139,20471,0,0,0,0,0,0,4294360,27821,0,0,0,0,0,0
[NT-INFO] Network Stats,0,192,lo,4027,37,0,0,0,0,0,0,4027,37,0,0,0,0,0,0
[PI-INFO] Paramount Iteration,0,193,1010.128049,5.183732
[RU-INFO] Resources Stats,0,193,1007.390400,0.551554,1595768,0,0,0,5410,0,0,0,0,0,0,0,2055,9636
[NT-INFO] Network Stats,0,193,ens4,172587757,20540,0,0,0,0,0,0,4315466,27950,0,0,0,0,0,0
[NT-INFO] Network Stats,0,193,lo,4027,37,0,0,0,0,0,0,4027,37,0,0,0,0,0,0
[PI-INFO] Paramount Iteration,0,194,1015.318119,5.190070
[RU-INFO] Resources Stats,0,194,1012.575211,0.551554,1595768,0,0,0,5410,0,0,0,0,0,0,0,2055,9680
[NT-INFO] Network Stats,0,194,ens4,172589671,20569,0,0,0,0,0,0,4322472,27997,0,0,0,0,0,0
[NT-INFO] Network Stats,0,194,lo,4027,37,0,0,0,0,0,0,4027,37,0,0,0,0,0,0
[PI-INFO] Paramount Iteration,0,195,1020.499936,5.181817
[RU-INFO] Resources Stats,0,195,1017.743283,0.555538,1595768,0,0,0,5410,0,0,0,0,0,0,0,2055,9725
[NT-INFO] Network Stats,0,195,ens4,172594861,20648,0,0,0,0,0,0,4351270,28152,0,0,0,0,0,0
[NT-INFO] Network Stats,0,195,lo,4027,37,0,0,0,0,0,0,4027,37,0,0,0,0,0,0
[PI-INFO] Paramount Iteration,0,196,1025.694059,5.194123
[RU-INFO] Resources Stats,0,196,1022.928020,0.555539,1595768,0,0,0,5410,0,0,0,0,0,0,0,2055,9770
[NT-INFO] Network Stats,0,196,ens4,172599413,20716,0,0,0,0,0,0,4372932,28279,0,0,0,0,0,0
[NT-INFO] Network Stats,0,196,lo,4027,37,0,0,0,0,0,0,4027,37,0,0,0,0,0,0
[PI-INFO] Paramount Iteration,0,197,1030.884301,5.190242
[RU-INFO] Resources Stats,0,197,1028.107848,0.555543,1595768,0,0,0,5411,0,0,0,0,0,0,0,2055,9816
[NT-INFO] Network Stats,0,197,ens4,172604891,20799,0,0,0,0,0,0,4402712,28441,0,0,0,0,0,0
[NT-INFO] Network Stats,0,197,lo,4027,37,0,0,0,0,0,0,4027,37,0,0,0,0,0,0
[PI-INFO] Paramount Iteration,0,198,1036.057997,5.173696
[RU-INFO] Resources Stats,0,198,1033.276174,0.555543,1595768,0,0,0,5411,0,0,0,0,0,0,0,2055,9858
[NT-INFO] Network Stats,0,198,ens4,172607069,20832,0,0,0,0,0,0,4409870,28492,0,0,0,0,0,0
[NT-INFO] Network Stats,0,198,lo,4027,37,0,0,0,0,0,0,4027,37,0,0,0,0,0,0
[PI-INFO] Paramount Iteration,0,199,1041.239154,5.181157
[RU-INFO] Resources Stats,0,199,1038.449202,0.555543,1595768,0,0,0,5411,0,0,0,0,0,0,0,2055,9904
[NT-INFO] Network Stats,0,199,ens4,172610699,20887,0,0,0,0,0,0,4422572,28571,0,0,0,0,0,0
[NT-INFO] Network Stats,0,199,lo,4027,37,0,0,0,0,0,0,4027,37,0,0,0,0,0,0
 Time step  200
[PI-INFO] Paramount Iteration,0,200,1046.421798,5.182644
[RU-INFO] Resources Stats,0,200,1043.620437,0.555543,1595768,0,0,0,5411,0,0,0,0,0,0,0,2055,9953
[NT-INFO] Network Stats,0,200,ens4,172621453,20975,0,0,0,0,0,0,4452158,28728,0,0,0,0,0,0
[NT-INFO] Network Stats,0,200,lo,4027,37,0,0,0,0,0,0,4027,37,0,0,0,0,0,0
 Verification being performed for class C
 accuracy setting for epsilon =  0.1000000000000E-07
 Comparison of RMS-norms of residual
           1 0.6239811655176E+04 0.6239811655176E+04 0.5247243197904E-14
           2 0.5079323919042E+03 0.5079323919042E+03 0.1141496155043E-13
           3 0.1542353009301E+04 0.1542353009301E+04 0.5690411870162E-13
           4 0.1330238792929E+04 0.1330238792929E+04 0.5982443665614E-14
           5 0.1160408742844E+05 0.1160408742844E+05 0.1097279377060E-14
 Comparison of RMS-norms of solution error
           1 0.1646200836909E+03 0.1646200836909E+03 0.1191287178775E-13
           2 0.1149710790382E+02 0.1149710790382E+02 0.2549327021655E-13
           3 0.4120744620746E+02 0.4120744620746E+02 0.8104241260813E-14
           4 0.3708765105969E+02 0.3708765105969E+02 0.1915847230703E-13
           5 0.3621105305184E+03 0.3621105305184E+03 0.3045374914452E-13
 Verification Successful


 BT Benchmark Completed.
 Class           =                        C
 Size            =            162x 162x 162
 Iterations      =                      200
 Time in seconds =                  1038.40
 Total processes =                        1
 Active procs    =                        1
 Mop/s total     =                  2760.29
 Mop/s/process   =                  2760.29
 Operation type  =           floating point
 Verification    =               SUCCESSFUL
 Version         =                      3.4
 Compile date    =              15 May 2021

 Compile options:
    MPIFC        = mpif90
    FLINK        = $(MPIFC)
    FMPI_LIB     = (none)
    FMPI_INC     = (none)
    FFLAGS       = -O3
    FLINKFLAGS   = $(FFLAGS) -O ../../utils/obj/*.o
    RAND         = (none)


 Please send feedbacks and/or the results of this run to:

 NPB Development Team 
 Internet: npb@nas.nasa.gov


[PI-INFO] PI avg,0,5.166152,201
[PI-INFO] Beta,0,1.008241
[PI-INFO] Total time,1046.953684
